data/AES_PPRM1/AES_PPRM1.vcd
$date
	Mon Sep 29 16:53:41 2025
$end
$version
	Icarus Verilog
$end
$timescale
	1ps
$end
$scope module AES_PPRM1_bench $end
$var wire 1 ! Kvld_PPRM1 $end
$var wire 1 " Dvld_PPRM1 $end
$var wire 128 # Dout_PPRM1 [127:0] $end
$var wire 1 $ BSY_PPRM1 $end
$var reg 1 % CLK $end
$var reg 128 & CT [127:0] $end
$var reg 128 ' Din [127:0] $end
$var reg 1 ( Drdy $end
$var reg 1 ) EN $end
$var reg 1 * EncDec $end
$var reg 128 + KD [127:0] $end
$var reg 128 , KE [127:0] $end
$var reg 128 - Kin [127:0] $end
$var reg 1 . Krdy $end
$var reg 128 / PT [127:0] $end
$var reg 1 0 RSTn $end
$scope module AES_PPRM1 $end
$var wire 1 $ BSY $end
$var wire 1 % CLK $end
$var wire 128 1 Din [127:0] $end
$var wire 128 2 Dout [127:0] $end
$var wire 1 ( Drdy $end
$var wire 1 3 Dvld_D $end
$var wire 1 4 Dvld_tmp $end
$var wire 1 ) EN $end
$var wire 1 5 EN_D $end
$var wire 1 6 EN_E $end
$var wire 128 7 Kin [127:0] $end
$var wire 1 . Krdy $end
$var wire 1 8 Kvld_D $end
$var wire 1 9 Kvld_tmp $end
$var wire 1 0 RSTn $end
$var wire 1 : Kvld_E $end
$var wire 1 ! Kvld $end
$var wire 1 ; Dvld_E $end
$var wire 1 " Dvld $end
$var wire 128 < Dout_E [127:0] $end
$var wire 1 = BSY_E $end
$var reg 1 > Dvld_reg $end
$var reg 1 ? Kvld_reg $end
$scope module AES_PPRM1_ENC $end
$var wire 1 % CLK $end
$var wire 128 @ Din [127:0] $end
$var wire 128 A Dout [127:0] $end
$var wire 1 ( Drdy $end
$var wire 1 6 EN $end
$var wire 128 B Kin [127:0] $end
$var wire 1 . Krdy $end
$var wire 1 0 RSTn $end
$var wire 1 : Kvld $end
$var wire 128 C Knext [127:0] $end
$var wire 1 ; Dvld $end
$var wire 128 D Dnext [127:0] $end
$var wire 1 = BSY $end
$var reg 1 = BSYrg $end
$var reg 128 E Drg [127:0] $end
$var reg 1 ; Dvldrg $end
$var reg 128 F Krg [127:0] $end
$var reg 128 G KrgX [127:0] $end
$var reg 1 : Kvldrg $end
$var reg 10 H Rrg [9:0] $end
$scope module EC $end
$var wire 10 I Rrg [9:0] $end
$var wire 128 J di [127:0] $end
$var wire 128 K do [127:0] $end
$var wire 128 L ki [127:0] $end
$var wire 128 M sr [127:0] $end
$var wire 32 N so [31:0] $end
$var wire 128 O sb [127:0] $end
$var wire 128 P mx [127:0] $end
$var wire 128 Q ko [127:0] $end
$scope function rcon $end
$var reg 10 R x [9:0] $end
$upscope $end
$scope module MX0 $end
$var wire 8 S b0 [7:0] $end
$var wire 8 T b1 [7:0] $end
$var wire 8 U b2 [7:0] $end
$var wire 8 V b3 [7:0] $end
$var wire 32 W x [31:0] $end
$var wire 32 X y [31:0] $end
$var wire 8 Y a3 [7:0] $end
$var wire 8 Z a2 [7:0] $end
$var wire 8 [ a1 [7:0] $end
$var wire 8 \ a0 [7:0] $end
$upscope $end
$scope module MX1 $end
$var wire 8 ] b0 [7:0] $end
$var wire 8 ^ b1 [7:0] $end
$var wire 8 _ b2 [7:0] $end
$var wire 8 ` b3 [7:0] $end
$var wire 32 a x [31:0] $end
$var wire 32 b y [31:0] $end
$var wire 8 c a3 [7:0] $end
$var wire 8 d a2 [7:0] $end
$var wire 8 e a1 [7:0] $end
$var wire 8 f a0 [7:0] $end
$upscope $end
$scope module MX2 $end
$var wire 8 g b0 [7:0] $end
$var wire 8 h b1 [7:0] $end
$var wire 8 i b2 [7:0] $end
$var wire 8 j b3 [7:0] $end
$var wire 32 k x [31:0] $end
$var wire 32 l y [31:0] $end
$var wire 8 m a3 [7:0] $end
$var wire 8 n a2 [7:0] $end
$var wire 8 o a1 [7:0] $end
$var wire 8 p a0 [7:0] $end
$upscope $end
$scope module MX3 $end
$var wire 8 q b0 [7:0] $end
$var wire 8 r b1 [7:0] $end
$var wire 8 s b2 [7:0] $end
$var wire 8 t b3 [7:0] $end
$var wire 32 u x [31:0] $end
$var wire 32 v y [31:0] $end
$var wire 8 w a3 [7:0] $end
$var wire 8 x a2 [7:0] $end
$var wire 8 y a1 [7:0] $end
$var wire 8 z a0 [7:0] $end
$upscope $end
$scope module SB0 $end
$var wire 32 { x [31:0] $end
$var wire 32 | y [31:0] $end
$scope module Sbox0 $end
$var wire 8 } x [7:0] $end
$var wire 8 ~ y [7:0] $end
$upscope $end
$scope module Sbox1 $end
$var wire 8 !" x [7:0] $end
$var wire 8 "" y [7:0] $end
$upscope $end
$scope module Sbox2 $end
$var wire 8 #" x [7:0] $end
$var wire 8 $" y [7:0] $end
$upscope $end
$scope module Sbox3 $end
$var wire 8 %" x [7:0] $end
$var wire 8 &" y [7:0] $end
$upscope $end
$upscope $end
$scope module SB1 $end
$var wire 32 '" x [31:0] $end
$var wire 32 (" y [31:0] $end
$scope module Sbox0 $end
$var wire 8 )" x [7:0] $end
$var wire 8 *" y [7:0] $end
$upscope $end
$scope module Sbox1 $end
$var wire 8 +" x [7:0] $end
$var wire 8 ," y [7:0] $end
$upscope $end
$scope module Sbox2 $end
$var wire 8 -" x [7:0] $end
$var wire 8 ." y [7:0] $end
$upscope $end
$scope module Sbox3 $end
$var wire 8 /" x [7:0] $end
$var wire 8 0" y [7:0] $end
$upscope $end
$upscope $end
$scope module SB2 $end
$var wire 32 1" x [31:0] $end
$var wire 32 2" y [31:0] $end
$scope module Sbox0 $end
$var wire 8 3" x [7:0] $end
$var wire 8 4" y [7:0] $end
$upscope $end
$scope module Sbox1 $end
$var wire 8 5" x [7:0] $end
$var wire 8 6" y [7:0] $end
$upscope $end
$scope module Sbox2 $end
$var wire 8 7" x [7:0] $end
$var wire 8 8" y [7:0] $end
$upscope $end
$scope module Sbox3 $end
$var wire 8 9" x [7:0] $end
$var wire 8 :" y [7:0] $end
$upscope $end
$upscope $end
$scope module SB3 $end
$var wire 32 ;" x [31:0] $end
$var wire 32 <" y [31:0] $end
$scope module Sbox0 $end
$var wire 8 =" x [7:0] $end
$var wire 8 >" y [7:0] $end
$upscope $end
$scope module Sbox1 $end
$var wire 8 ?" x [7:0] $end
$var wire 8 @" y [7:0] $end
$upscope $end
$scope module Sbox2 $end
$var wire 8 A" x [7:0] $end
$var wire 8 B" y [7:0] $end
$upscope $end
$scope module Sbox3 $end
$var wire 8 C" x [7:0] $end
$var wire 8 D" y [7:0] $end
$upscope $end
$upscope $end
$scope module SBK $end
$var wire 32 E" x [31:0] $end
$var wire 32 F" y [31:0] $end
$scope module Sbox0 $end
$var wire 8 G" x [7:0] $end
$var wire 8 H" y [7:0] $end
$upscope $end
$scope module Sbox1 $end
$var wire 8 I" x [7:0] $end
$var wire 8 J" y [7:0] $end
$upscope $end
$scope module Sbox2 $end
$var wire 8 K" x [7:0] $end
$var wire 8 L" y [7:0] $end
$upscope $end
$scope module Sbox3 $end
$var wire 8 M" x [7:0] $end
$var wire 8 N" y [7:0] $end
$upscope $end
$upscope $end
$upscope $end
$upscope $end
$upscope $end
$upscope $end
$enddefinitions $end
#0
$dumpvars
bx N"
bx M"
bx L"
bx K"
bx J"
bx I"
bx H"
bx G"
bx F"
bx E"
bx D"
bx C"
bx B"
bx A"
bx @"
bx ?"
bx >"
bx ="
bx <"
bx ;"
bx :"
bx 9"
bx 8"
bx 7"
bx 6"
bx 5"
bx 4"
bx 3"
bx 2"
bx 1"
bx 0"
bx /"
bx ."
bx -"
bx ,"
bx +"
bx *"
bx )"
bx ("
bx '"
bx &"
bx %"
bx $"
bx #"
bx ""
bx !"
bx ~
bx }
bx |
bx {
bx z
bx y
bx x
bx w
bx v
bx u
bx t
bx s
bx r
bx q
bx p
bx o
bx n
bx m
bx l
bx k
bx j
bx i
bx h
bx g
bx f
bx e
bx d
bx c
bx b
bx a
bx `
bx _
bx ^
bx ]
bx \
bx [
bx Z
bx Y
bx X
bx W
bx V
bx U
bx T
bx S
bx R
bx Q
bx P
bx O
bx N
bx M
bx L
bx K
bx J
bx I
bx H
bx G
bx F
bx E
bx D
bx C
bx B
bx A
bx @
x?
x>
x=
bx <
x;
x:
x9
z8
bx 7
x6
05
x4
z3
bx 2
bx 1
x0
b100010010001000110011010001000101010101100110011101111000100010011001101010101011101111001100110111011110111011111111 /
x.
bx -
b10000001000000011000001000000010100000110000001110000100000001001000010100000101100001100000011010000111000001111 ,
b10011000100010001110101111111111000111001010001001010000101111111001100000111101001111000101101001101001010110011000011000101 +
x*
x)
x(
bx '
b1101001110001001110000011011000011010100111101100000100001100001101100011001101101101111000000001110000101101001100010101011010 &
1%
x$
bx #
x"
x!
$end
#5000
06
0)
00
0(
0.
0%
#10000
b1100010011000110110001101100011011000100110001101100011011000110110001001100011011000110110001101100010011000110110001101100011 C
b1100010011000110110001101100011011000100110001101100011011000110110001001100011011000110110001101100010011000110110001101100011 Q
b1100011 N"
b1100011 L"
b1100011 J"
b1100011011000110110001101100011 N
b1100011011000110110001101100011 F"
b1100011 H"
0"
0!
04
09
b0 M"
b0 K"
b0 I"
b0 G"
b1 R
b0 E"
0?
0>
0$
0=
0;
0:
b1 H
b1 I
b0 G
b0 L
b0 F
1%
#15000
16
0%
1.
b10000001000000011000001000000010100000110000001110000100000001001000010100000101100001100000011010000111000001111 -
b10000001000000011000001000000010100000110000001110000100000001001000010100000101100001100000011010000111000001111 7
b10000001000000011000001000000010100000110000001110000100000001001000010100000101100001100000011010000111000001111 B
0*
1)
10
#20000
1!
b11010111 N"
b10101011 L"
b1110110 J"
b11010111101010110111011011111110 N
b11010111101010110111011011111110 F"
b11111110 H"
19
b1101 M"
b1110 K"
b1111 I"
b1100 G"
b11010110101010100111010011111101110100101010111101110010111110101101101010100110011110001111000111010110101010110111011011111110 C
b11010110101010100111010011111101110100101010111101110010111110101101101010100110011110001111000111010110101010110111011011111110 Q
b1101000011100000111100001100 E"
1:
b10000001000000011000001000000010100000110000001110000100000001001000010100000101100001100000011010000111000001111 G
b10000001000000011000001000000010100000110000001110000100000001001000010100000101100001100000011010000111000001111 L
b10000001000000011000001000000010100000110000001110000100000001001000010100000101100001100000011010000111000001111 F
1%
#25000
0%
1(
b100010010001000110011010001000101010101100110011101111000100010011001101010101011101111001100110111011110111011111111 '
b100010010001000110011010001000101010101100110011101111000100010011001101010101011101111001100110111011110111011111111 1
b100010010001000110011010001000101010101100110011101111000100010011001101010101011101111001100110111011110111011111111 @
0.
#30000
b1011111011100100110010000010101 v
b10001001110110000001000011101000100001010101101011001110011010000010110100011000010000111101100011001011000100101000111111100100 D
b10001001110110000001000011101000100001010101101011001110011010000010110100011000010000111101100011001011000100101000111111100100 K
b11110111101111100011101100101001 b
b1010111111101011011110010010010 l
b11101111 q
b1101100 r
b1011111011100100110010000010101010101111111010110111100100100101111011110111110001110110010100100011101101110011111100100011010 P
b11101101110011111100100011010 X
b10001100 z
b10000001 i
b11100101 h
b1011101 S
b1110000 V
b10111101 `
b11000111 _
b11100001 o
b10111010 Y
b1110000 d
b1101001 j
b1101 g
b110000 t
b10110011 s
b11010 U
b110111 T
b10011100 ]
b11100110 ^
b10001100 ~
b1001 m
b1100000 n
b100 p
b1100011 w
b1010011 x
b11100000 y
b11001010 Z
b11010000 [
b11100111 \
b11001101 c
b10110111 e
b1010001 f
b11100001 ""
b1001011000001110000100000100 k
b1100011010100111110000010001100 u
b10111010110010101101000011100111 W
b11001101011100001011011101010001 a
b10111010 &"
b10111010011100001110000110001100 |
b1110000 $"
b1100011010100111110000010001100000010010110000011100001000001001100110101110000101101110101000110111010110010101101000011100111 M
b11001101 0"
b1100000 ."
b11100000 ,"
b11001101011000001110000011100111 ("
b11100111 *"
b1100011 D"
b11001010 B"
b10110111 @"
b1100011110010101011011100000100 <"
b100 >"
b1001 :"
b1010011 8"
b11010000 6"
b1100011110010101011011100000100000010010101001111010000010100011100110101100000111000001110011110111010011100001110000110001100 O
b1001010100111101000001010001 2"
b1010001 4"
b111000 L"
b11110110 H"
b1100010 N"
b1100010001110001011101111110110 N
b1100010001110001011101111110110 F"
b10111011 J"
0!
b0 C"
b10000 A"
b100000 ?"
b110000 ="
b1000000 9"
b1010000 7"
b1100000 5"
b1110000 3"
b10000000 /"
b10010000 -"
b10100000 +"
b10110000 )"
b11000000 %"
b11010000 #"
b11100000 !"
b11110000 }
b10101011 M"
b1110110 K"
b11111110 I"
b11010110 G"
b10110110100100101100111100001011011001000011110110111101111100011011111010011011110001010000000001101000001100001011001111111110 C
b10110110100100101100111100001011011001000011110110111101111100011011111010011011110001010000000001101000001100001011001111111110 Q
b100000010000000110000 ;"
b1000000010100000110000001110000 1"
b10000000100100001010000010110000 '"
b11000000110100001110000011110000 {
b10101011011101101111111011010110 E"
b10 R
1?
1$
1=
b100000010000000110000010000000101000001100000011100001000000010010000101000001011000011000000110100001110000011110000 #
b100000010000000110000010000000101000001100000011100001000000010010000101000001011000011000000110100001110000011110000 2
b100000010000000110000010000000101000001100000011100001000000010010000101000001011000011000000110100001110000011110000 <
b100000010000000110000010000000101000001100000011100001000000010010000101000001011000011000000110100001110000011110000 A
b100000010000000110000010000000101000001100000011100001000000010010000101000001011000011000000110100001110000011110000 E
b100000010000000110000010000000101000001100000011100001000000010010000101000001011000011000000110100001110000011110000 J
b11010110101010100111010011111101110100101010111101110010111110101101101010100110011110001111000111010110101010110111011011111110 G
b11010110101010100111010011111101110100101010111101110010111110101101101010100110011110001111000111010110101010110111011011111110 L
b10 H
b10 I
1%
#35000
0%
0(
#40000
b1100100010100010101000111111010 b
b1110111001110101101000000001001 X
b110001110110000110101001010001 l
b11111111100001111001011010000100001100011101100001101010010100010110010001010001010100011111101001110111001110101101000000001001 P
b11111111100001111001011010000100 v
b10001111 ^
b11001010 e
b1000101 f
b10011101 ]
b11 _
b10001 `
b1100001 Z
b1100001 \
b1111110 S
b1111110 V
b11101010 T
b11101010 U
b10101101 n
b10011011 p
b1100 g
b111010 j
b11101000 h
b11011110 i
b10111110 x
b11001 t
b10100100 s
b11001110 q
b1110011 r
b11011000 c
b11001001 d
b11111 Y
b10001011 [
b10010111 m
b1110011 o
b10100111 w
b11010 y
b1101001 z
b11011000110010011100101001000101 a
b11111011000011000101101100001 W
b10010111101011010111001110011011 k
b10100111101111100001101001101001 u
b1100001 B"
b11001010 @"
b10011011 >"
b10111110 8"
b1000101 4"
b10101101 ."
b1100001 *"
b11001001 $"
b10100111101111100001101001101001100101111010110101110011100110111101100011001001110010100100010100011111011000011000101101100001 M
b100 N"
b1101101 L"
b100011011011011101101000101 N
b100011011011011101101000101 F"
b1000101 H"
b10100111011000011100101010011011 <"
b10100111 D"
b10010111 :"
b10010111101111101000101101000101 2"
b10001011 6"
b11011000 0"
b11011000101011010001101001100001 ("
b11010 ,"
b11111 &"
b1110011 ""
b10100111011000011100101010011011100101111011111010001011010001011101100010101101000110100110000100011111110010010111001101101001 O
b11111110010010111001101101001 |
b1101001 ~
b110000 M"
b10110011 K"
b1101000 G"
b10110110111111110111010001001110110100101100001011001001101111110110110001011001000011001011111100000100011010011011111101000001 C
b10110110111111110111010001001110110100101100001011001001101111110110110001011001000011001011111100000100011010011011111101000001 Q
b10001001 C"
b11011000 A"
b10000 ?"
b11101000 ="
b10000101 9"
b1011010 7"
b11001110 5"
b1101000 3"
b101101 /"
b11000 -"
b1000011 +"
b11011000 )"
b11001011 %"
b10010 #"
b10001111 !"
b11100100 }
b1001001000101010101100110001111010101011110010111010111101000001101101011001010100101001111101000011111000010100110001111110111 D
b1001001000101010101100110001111010101011110010111010111101000001101101011001010100101001111101000011111000010100110001111110111 K
b110000101100111111111001101000 E"
b100 R
b10001001110110000001000011101000 ;"
b10000101010110101100111001101000 1"
b101101000110000100001111011000 '"
b11001011000100101000111111100100 {
b10110110100100101100111100001011011001000011110110111101111100011011111010011011110001010000000001101000001100001011001111111110 G
b10110110100100101100111100001011011001000011110110111101111100011011111010011011110001010000000001101000001100001011001111111110 L
b100 H
b100 I
b10001001110110000001000011101000100001010101101011001110011010000010110100011000010000111101100011001011000100101000111111100100 #
b10001001110110000001000011101000100001010101101011001110011010000010110100011000010000111101100011001011000100101000111111100100 2
b10001001110110000001000011101000100001010101101011001110011010000010110100011000010000111101100011001011000100101000111111100100 <
b10001001110110000001000011101000100001010101101011001110011010000010110100011000010000111101100011001011000100101000111111100100 A
b10001001110110000001000011101000100001010101101011001110011010000010110100011000010000111101100011001011000100101000111111100100 E
b10001001110110000001000011101000100001010101101011001110011010000010110100011000010000111101100011001011000100101000111111100100 J
1%
#45000
0%
#50000
b101100001111111000011010001110 b
b1010011010011011111001001010110 X
b11110111011100011111000001110110 l
b1001100100111000001111001100110111101110111000111110000011101100010110000111111100001101000111001010011010011011111001001010110 P
b1001100100111000001111001100110 v
b111011 w
b10001000 j
b11111011 s
b11100000 f
b10110111 ]
b110000 `
b101011 ^
b10101100 _
b101101 \
b11101101 S
b10011001 V
b100011 T
b1010111 U
b11111100 m
b1110100 n
b10001111 i
b10001111 g
b10001000 h
b11100010 t
b1010011 q
b1001010 r
b1010111 c
b1100111 d
b11001011 e
b11000000 Y
b1011001 Z
b1110 [
b11111011 o
b1110011 p
b11011001 x
b100010 y
b1101000 z
b111011 D"
b1010111011001111100101111100000 a
b11000000010110010000111000101101 W
b11111100011101001111101101110011 k
b111011110110010010001001101000 u
b11111100 :"
b11100000 4"
b1110100 ."
b101101 *"
b1100111 $"
b111011110110010010001001101000111111000111010011111011011100110101011101100111110010111110000011000000010110010000111000101101 M
b11111001 N"
b1000 L"
b10000011 J"
b11111001000010001000001111110010 N
b11111001000010001000001111110010 F"
b11110010 H"
b1011001 B"
b11001011 @"
b111011010110011100101101110011 <"
b1110011 >"
b11011001 8"
b11111100110110010000111011100000 2"
b1110 6"
b1010111 0"
b1010111011101000010001000101101 ("
b100010 ,"
b11000000 &"
b11111011 ""
b111011010110011100101101110011111111001101100100001110111000000101011101110100001000100010110111000000011001111111101101101000 O
b11000000011001111111101101101000 |
b1101000 ~
b1101001 M"
b10111111 K"
b1000001 I"
b100 G"
b1000111111101111111011110111100100101010011010100111110000000111111100101101100001100101011110011111101000001011000110111111101 C
b1000111111101111111011110111100100101010011010100111110000000111111100101101100001100101011110011111101000001011000110111111101 Q
b1001001 C"
b10101 A"
b1011001 ?"
b10001111 ="
b1010101 9"
b11100101 7"
b11010111 5"
b10100000 3"
b11011010 /"
b11001010 -"
b10010100 +"
b11111010 )"
b11111 %"
b1010 #"
b1100011 !"
b11110111 }
b11111010011000110110101000101000001001011011001100111001110010010100000001100110100010100011000101010111001001000100110100010111 D
b11111010011000110110101000101000001001011011001100111001110010010100000001100110100010100011000101010111001001000100110100010111 K
b1101001101111110100000100000100 E"
b1000 R
b1001001000101010101100110001111 ;"
b1010101111001011101011110100000 1"
b11011010110010101001010011111010 '"
b11111000010100110001111110111 {
b10110110111111110111010001001110110100101100001011001001101111110110110001011001000011001011111100000100011010011011111101000001 G
b10110110111111110111010001001110110100101100001011001001101111110110110001011001000011001011111100000100011010011011111101000001 L
b1000 H
b1000 I
b1001001000101010101100110001111010101011110010111010111101000001101101011001010100101001111101000011111000010100110001111110111 #
b1001001000101010101100110001111010101011110010111010111101000001101101011001010100101001111101000011111000010100110001111110111 2
b1001001000101010101100110001111010101011110010111010111101000001101101011001010100101001111101000011111000010100110001111110111 <
b1001001000101010101100110001111010101011110010111010111101000001101101011001010100101001111101000011111000010100110001111110111 A
b1001001000101010101100110001111010101011110010111010111101000001101101011001010100101001111101000011111000010100110001111110111 E
b1001001000101010101100110001111010101011110010111010111101000001101101011001010100101001111101000011111000010100110001111110111 J
1%
#55000
0%
#60000
b1100011100001011011011110011111 v
b1110101010001111101011010010001 X
b10010111101111100100011110001110 b
b1100011100001011011011110011111111111000101001110001101111110011001011110111110010001111000111001110101010001111101011010010001 P
b11111100010100111000110111111001 l
b10011 s
b11101001 U
b11010000 i
b11110000 z
b11011101 q
b1000000 t
b10001110 r
b10100000 V
b10011100 S
b11010101 T
b1001 c
b111111 `
b110100 _
b11010100 ]
b11011111 ^
b111111 m
b1100 j
b1011 g
b11010111 h
b101101 w
b1101101 x
b1111110 y
b1011011 Y
b11111011 Z
b10010 [
b11000111 \
b110110 d
b10 e
b11011101 f
b110011 n
b11100011 o
b110100 p
b101101011011010111111011110000 u
b1011011111110110001001011000111 W
b1001001101100000001011011101 a
b111111001100111110001100110100 k
b11110000 ~
b1011101 L"
b111111 :"
b1001 0"
b1011011 &"
b101101011011010111111011110000001111110011001111100011001101000000100100110110000000101101110101011011111110110001001011000111 M
b1101011 N"
b1010100 J"
b1101011010111010101010001010100 N
b1101011010111010101010001010100 F"
b1010100 H"
b101101 D"
b11111011 B"
b10 @"
b101101111110110000001000110100 <"
b110100 >"
b1101101 8"
b10010 6"
b111111011011010001001011011101 2"
b11011101 4"
b110011 ."
b1111110 ,"
b1001001100110111111011000111 ("
b11000111 *"
b110110 $"
b101101111110110000001000110100001111110110110100010010110111010000100100110011011111101100011101011011001101101110001111110000 O
b1011011001101101110001111110000 |
b11100011 ""
b101 M"
b10001101 K"
b11111101 I"
b11111101 G"
b111100101010101010001111101000101010011001111110011101111010110101000011110011101011110101011110101101111101100010001010101010 C
b111100101010101010001111101000101010011001111110011101111010110101000011110011101011110101011110101101111101100010001010101010 Q
b11111010 C"
b1100011 A"
b1101010 ?"
b101000 ="
b100101 9"
b10110011 7"
b111001 5"
b11001001 3"
b1000000 /"
b1100110 -"
b10001010 +"
b110001 )"
b1010111 %"
b100100 #"
b1001101 !"
b10111 }
b100100011100100100000000100011011010010110011010110011111110100110111011010010011101010011001010001000010000100101101101101100 D
b100100011100100100000000100011011010010110011010110011111110100110111011010010011101010011001010001000010000100101101101101100 K
b101100011011111110111111101 E"
b10000 R
b11111010011000110110101000101000 ;"
b100101101100110011100111001001 1"
b1000000011001101000101000110001 '"
b1010111001001000100110100010111 {
b1000111111101111111011110111100100101010011010100111110000000111111100101101100001100101011110011111101000001011000110111111101 G
b1000111111101111111011110111100100101010011010100111110000000111111100101101100001100101011110011111101000001011000110111111101 L
b10000 H
b10000 I
b11111010011000110110101000101000001001011011001100111001110010010100000001100110100010100011000101010111001001000100110100010111 #
b11111010011000110110101000101000001001011011001100111001110010010100000001100110100010100011000101010111001001000100110100010111 2
b11111010011000110110101000101000001001011011001100111001110010010100000001100110100010100011000101010111001001000100110100010111 <
b11111010011000110110101000101000001001011011001100111001110010010100000001100110100010100011000101010111001001000100110100010111 A
b11111010011000110110101000101000001001011011001100111001110010010100000001100110100010100011000101010111001001000100110100010111 E
b11111010011000110110101000101000001001011011001100111001110010010100000001100110100010100011000101010111001001000100110100010111 J
1%
#65000
0%
#70000
b11101110100000011101100111100 X
b1110101111100011101011011000101 b
b110010111001010101010011010000 l
b11110100101111001101010001010100001100101110010101010100110100000111010111110001110101101100010100011101110100000011101100111100 P
b11110100101111001101010001010100 v
b10110011 `
b1001100 j
b10001100 i
b10101110 s
b1101101 [
b101101 U
b10000100 V
b11100111 S
b1001110 T
b1001 e
b100101 _
b10110010 ]
b100100 ^
b11011111 g
b11111 h
b101 t
b1100110 q
b11001101 r
b11000100 Y
b1000000 Z
b100011 \
b10011111 c
b101100 d
b101101 f
b11111001 m
b10110101 n
b111001 o
b100110 p
b110110 w
b110011 x
b10011101 y
b1010000 z
b11000100010000000110110100100011 W
b10011111001011000000100100101101 a
b11111001101101010011100100100110 k
b110110001100111001110101010000 u
b10010101 H"
b1001 @"
b1101101 6"
b110110001100111001110101010000111110011011010100111001001001101001111100101100000010010010110111000100010000000110110100100011 M
b1000010 N"
b10010011 L"
b1000010100100111010110010010101 N
b1000010100100111010110010010101 F"
b10101100 J"
b110110 D"
b1000000 B"
b110110010000000000100100100110 <"
b100110 >"
b11111001 :"
b110011 8"
b11111001001100110110110100101101 2"
b101101 4"
b10011111 0"
b10110101 ."
b10011101 ,"
b10011111101101011001110100100011 ("
b100011 *"
b11000100 &"
b101100 $"
b111001 ""
b110110010000000000100100100110111110010011001101101101001011011001111110110101100111010010001111000100001011000011100101010000 O
b11000100001011000011100101010000 |
b1010000 ~
b11110110 M"
b100010 K"
b10101010 I"
b10101101 G"
b1011110001110010000111101111101111101111010011010010010100101101010011101010101001111011100000100001010101000110001111101101011 C
b1011110001110010000111101111101111101111010011010010010100101101010011101010101001111011100000100001010101000110001111101101011 Q
b100100 C"
b1110010 A"
b1000000 ?"
b100011 ="
b1101001 9"
b1100110 7"
b10110011 5"
b11111010 3"
b1101110 /"
b11010010 -"
b1110101 +"
b110010 )"
b10001000 %"
b1000010 #"
b1011011 !"
b1101100 }
b11001000000101100111011110111100100110110111101011001001001110110010010100000010011110011001001010110000001001100001100110010110 D
b11001000000101100111011110111100100110110111101011001001001110110010010100000010011110011001001010110000001001100001100110010110 K
b11110110001000101010101010101101 E"
b100000 R
b100100011100100100000000100011 ;"
b1101001011001101011001111111010 1"
b1101110110100100111010100110010 '"
b10001000010000100101101101101100 {
b111100101010101010001111101000101010011001111110011101111010110101000011110011101011110101011110101101111101100010001010101010 G
b111100101010101010001111101000101010011001111110011101111010110101000011110011101011110101011110101101111101100010001010101010 L
b100000 H
b100000 I
b100100011100100100000000100011011010010110011010110011111110100110111011010010011101010011001010001000010000100101101101101100 #
b100100011100100100000000100011011010010110011010110011111110100110111011010010011101010011001010001000010000100101101101101100 2
b100100011100100100000000100011011010010110011010110011111110100110111011010010011101010011001010001000010000100101101101101100 <
b100100011100100100000000100011011010010110011010110011111110100110111011010010011101010011001010001000010000100101101101101100 A
b100100011100100100000000100011011010010110011010110011111110100110111011010010011101010011001010001000010000100101101101101100 E
b100100011100100100000000100011011010010110011010110011111110100110111011010010011101010011001010001000010000100101101101101100 J
1%
#75000
0%
#80000
b10001110010110101101000000110110 X
b111110000111111101010101 l
b10011000000101101110111001110100 v
b10011000000101101110111001110100000000001111100001111111010101010110101100101100000001001001110010001110010110101101000000110110 P
b1101011001011000000010010011100 b
b110010 t
b1101100 s
b1001111 \
b10101000 S
b10100000 V
b10010010 T
b10011010 U
b1100011 j
b10100011 i
b1110001 g
b10110001 h
b1111000 q
b100110 r
b11001000 `
b10 _
b11011101 ]
b10111 ^
b11100111 Y
b1000111 Z
b11011101 [
b10100 m
b1110111 n
b11010100 o
b1100101 p
b11101000 w
b11011010 x
b10110110 y
b10010000 z
b111111 c
b11110111 d
b11110101 e
b11100010 f
b11100111010001111101110101001111 W
b10100011101111101010001100101 k
b11101000110110101011011010010000 u
b1001111 *"
b111111111101111111010111100010 a
b10100 :"
b11011101 6"
b1110111 ."
b11100111 &"
b11101000110110101011011010010000000101000111011111010100011001010011111111110111111101011110001011100111010001111101110101001111 M
b11010100 ""
b10010000 ~
b1010 N"
b11000000 L"
b1111111 J"
b1010110000000111111101100111 N
b1010110000000111111101100111 F"
b1100111 H"
b11101000 D"
b1000111 B"
b11110101 @"
b11101000010001111111010101100101 <"
b1100101 >"
b11011010 8"
b10100110110101101110111100010 2"
b11100010 4"
b111111 0"
b111111011101111011011001001111 ("
b10110110 ,"
b11101000010001111111010101100101000101001101101011011101111000100011111101110111101101100100111111100111111101111101010010010000 O
b11100111111101111101010010010000 |
b11110111 $"
b10100011 M"
b11111 K"
b1101011 I"
b1010 G"
b10100111110010111000000011010111000110101111111100010100011000100010000001010110111110100110101001110101010011100000000100110 C
b10100111110010111000000011010111000110101111111100010100011000100010000001010110111110100110101001110101010011100000000100110 Q
b11001000 C"
b10110 A"
b1110111 ?"
b10111100 ="
b10011011 9"
b1111010 7"
b11001001 5"
b111011 3"
b100101 /"
b10 -"
b1111001 +"
b10010010 )"
b10110000 %"
b100110 #"
b11001 !"
b10010110 }
b11000110001011111110000100001001111101110101111011101101110000111100110001111001001110010101110110000100111110011100111101011101 D
b11000110001011111110000100001001111101110101111011101101110000111100110001111001001110010101110110000100111110011100111101011101 K
b10100011000111110110101100001010 E"
b1000000 R
b11001000000101100111011110111100 ;"
b10011011011110101100100100111011 1"
b100101000000100111100110010010 '"
b10110000001001100001100110010110 {
b1011110001110010000111101111101111101111010011010010010100101101010011101010101001111011100000100001010101000110001111101101011 G
b1011110001110010000111101111101111101111010011010010010100101101010011101010101001111011100000100001010101000110001111101101011 L
b1000000 H
b1000000 I
b11001000000101100111011110111100100110110111101011001001001110110010010100000010011110011001001010110000001001100001100110010110 #
b11001000000101100111011110111100100110110111101011001001001110110010010100000010011110011001001010110000001001100001100110010110 2
b11001000000101100111011110111100100110110111101011001001001110110010010100000010011110011001001010110000001001100001100110010110 <
b11001000000101100111011110111100100110110111101011001001001110110010010100000010011110011001001010110000001001100001100110010110 A
b11001000000101100111011110111100100110110111101011001001001110110010010100000010011110011001001010110000001001100001100110010110 E
b11001000000101100111011110111100100110110111101011001001001110110010010100000010011110011001001010110000001001100001100110010110 J
1%
#85000
0%
