data/AES_PPRM1/AES_PPRM1.vcd
$date
	Thu Sep 18 13:02:13 2025
$end
$version
	Icarus Verilog
$end
$timescale
	1ps
$end
$scope module AES_PPRM1_tb_bench $end
$var wire 1 ! hahaha $end
$var reg 1 " DEFAULT_CLOCK $end
$var reg 1 # DEFAULT_RESET $end
$var reg 1 $ clkk $end
$var reg 1 % rstt $end
$scope module AES_PPRM1_tb_ $end
$var wire 1 $ clkk $end
$var wire 1 ! hahaha $end
$var wire 1 % rstt $end
$var wire 1 & Kvld_PPRM1 $end
$var wire 1 ' Dvld_PPRM1 $end
$var wire 128 ( Dout_PPRM1 [127:0] $end
$var wire 1 ) BSY_PPRM1 $end
$var reg 1 * CLK $end
$var reg 128 + CT [127:0] $end
$var reg 128 , Din [127:0] $end
$var reg 1 - Drdy $end
$var reg 1 . EN $end
$var reg 1 / EncDec $end
$var reg 128 0 KD [127:0] $end
$var reg 128 1 KE [127:0] $end
$var reg 128 2 Kin [127:0] $end
$var reg 1 3 Krdy $end
$var reg 128 4 PT [127:0] $end
$var reg 1 5 RSTn $end
$scope module AES_PPRM1 $end
$var wire 1 ) BSY $end
$var wire 1 * CLK $end
$var wire 128 6 Din [127:0] $end
$var wire 128 7 Dout [127:0] $end
$var wire 1 - Drdy $end
$var wire 1 8 Dvld_D $end
$var wire 1 9 Dvld_tmp $end
$var wire 1 . EN $end
$var wire 1 : EN_D $end
$var wire 1 ; EN_E $end
$var wire 128 < Kin [127:0] $end
$var wire 1 3 Krdy $end
$var wire 1 = Kvld_D $end
$var wire 1 > Kvld_tmp $end
$var wire 1 5 RSTn $end
$var wire 1 ? Kvld_E $end
$var wire 1 & Kvld $end
$var wire 1 @ Dvld_E $end
$var wire 1 ' Dvld $end
$var wire 128 A Dout_E [127:0] $end
$var wire 1 B BSY_E $end
$var reg 1 C Dvld_reg $end
$var reg 1 D Kvld_reg $end
$scope module AES_PPRM1_ENC $end
$var wire 1 * CLK $end
$var wire 128 E Din [127:0] $end
$var wire 128 F Dout [127:0] $end
$var wire 1 - Drdy $end
$var wire 1 ; EN $end
$var wire 128 G Kin [127:0] $end
$var wire 1 3 Krdy $end
$var wire 1 5 RSTn $end
$var wire 1 ? Kvld $end
$var wire 128 H Knext [127:0] $end
$var wire 1 @ Dvld $end
$var wire 128 I Dnext [127:0] $end
$var wire 1 B BSY $end
$var reg 1 B BSYrg $end
$var reg 128 J Drg [127:0] $end
$var reg 1 @ Dvldrg $end
$var reg 128 K Krg [127:0] $end
$var reg 128 L KrgX [127:0] $end
$var reg 1 ? Kvldrg $end
$var reg 10 M Rrg [9:0] $end
$scope module EC $end
$var wire 10 N Rrg [9:0] $end
$var wire 128 O di [127:0] $end
$var wire 128 P do [127:0] $end
$var wire 128 Q ki [127:0] $end
$var wire 128 R sr [127:0] $end
$var wire 32 S so [31:0] $end
$var wire 128 T sb [127:0] $end
$var wire 128 U mx [127:0] $end
$var wire 128 V ko [127:0] $end
$scope function rcon $end
$var reg 10 W x [9:0] $end
$upscope $end
$scope module MX0 $end
$var wire 8 X b0 [7:0] $end
$var wire 8 Y b1 [7:0] $end
$var wire 8 Z b2 [7:0] $end
$var wire 8 [ b3 [7:0] $end
$var wire 32 \ x [31:0] $end
$var wire 32 ] y [31:0] $end
$var wire 8 ^ a3 [7:0] $end
$var wire 8 _ a2 [7:0] $end
$var wire 8 ` a1 [7:0] $end
$var wire 8 a a0 [7:0] $end
$upscope $end
$scope module MX1 $end
$var wire 8 b b0 [7:0] $end
$var wire 8 c b1 [7:0] $end
$var wire 8 d b2 [7:0] $end
$var wire 8 e b3 [7:0] $end
$var wire 32 f x [31:0] $end
$var wire 32 g y [31:0] $end
$var wire 8 h a3 [7:0] $end
$var wire 8 i a2 [7:0] $end
$var wire 8 j a1 [7:0] $end
$var wire 8 k a0 [7:0] $end
$upscope $end
$scope module MX2 $end
$var wire 8 l b0 [7:0] $end
$var wire 8 m b1 [7:0] $end
$var wire 8 n b2 [7:0] $end
$var wire 8 o b3 [7:0] $end
$var wire 32 p x [31:0] $end
$var wire 32 q y [31:0] $end
$var wire 8 r a3 [7:0] $end
$var wire 8 s a2 [7:0] $end
$var wire 8 t a1 [7:0] $end
$var wire 8 u a0 [7:0] $end
$upscope $end
$scope module MX3 $end
$var wire 8 v b0 [7:0] $end
$var wire 8 w b1 [7:0] $end
$var wire 8 x b2 [7:0] $end
$var wire 8 y b3 [7:0] $end
$var wire 32 z x [31:0] $end
$var wire 32 { y [31:0] $end
$var wire 8 | a3 [7:0] $end
$var wire 8 } a2 [7:0] $end
$var wire 8 ~ a1 [7:0] $end
$var wire 8 !" a0 [7:0] $end
$upscope $end
$scope module SB0 $end
$var wire 32 "" x [31:0] $end
$var wire 32 #" y [31:0] $end
$scope module Sbox0 $end
$var wire 8 $" x [7:0] $end
$var wire 8 %" y [7:0] $end
$upscope $end
$scope module Sbox1 $end
$var wire 8 &" x [7:0] $end
$var wire 8 '" y [7:0] $end
$upscope $end
$scope module Sbox2 $end
$var wire 8 (" x [7:0] $end
$var wire 8 )" y [7:0] $end
$upscope $end
$scope module Sbox3 $end
$var wire 8 *" x [7:0] $end
$var wire 8 +" y [7:0] $end
$upscope $end
$upscope $end
$scope module SB1 $end
$var wire 32 ," x [31:0] $end
$var wire 32 -" y [31:0] $end
$scope module Sbox0 $end
$var wire 8 ." x [7:0] $end
$var wire 8 /" y [7:0] $end
$upscope $end
$scope module Sbox1 $end
$var wire 8 0" x [7:0] $end
$var wire 8 1" y [7:0] $end
$upscope $end
$scope module Sbox2 $end
$var wire 8 2" x [7:0] $end
$var wire 8 3" y [7:0] $end
$upscope $end
$scope module Sbox3 $end
$var wire 8 4" x [7:0] $end
$var wire 8 5" y [7:0] $end
$upscope $end
$upscope $end
$scope module SB2 $end
$var wire 32 6" x [31:0] $end
$var wire 32 7" y [31:0] $end
$scope module Sbox0 $end
$var wire 8 8" x [7:0] $end
$var wire 8 9" y [7:0] $end
$upscope $end
$scope module Sbox1 $end
$var wire 8 :" x [7:0] $end
$var wire 8 ;" y [7:0] $end
$upscope $end
$scope module Sbox2 $end
$var wire 8 <" x [7:0] $end
$var wire 8 =" y [7:0] $end
$upscope $end
$scope module Sbox3 $end
$var wire 8 >" x [7:0] $end
$var wire 8 ?" y [7:0] $end
$upscope $end
$upscope $end
$scope module SB3 $end
$var wire 32 @" x [31:0] $end
$var wire 32 A" y [31:0] $end
$scope module Sbox0 $end
$var wire 8 B" x [7:0] $end
$var wire 8 C" y [7:0] $end
$upscope $end
$scope module Sbox1 $end
$var wire 8 D" x [7:0] $end
$var wire 8 E" y [7:0] $end
$upscope $end
$scope module Sbox2 $end
$var wire 8 F" x [7:0] $end
$var wire 8 G" y [7:0] $end
$upscope $end
$scope module Sbox3 $end
$var wire 8 H" x [7:0] $end
$var wire 8 I" y [7:0] $end
$upscope $end
$upscope $end
$scope module SBK $end
$var wire 32 J" x [31:0] $end
$var wire 32 K" y [31:0] $end
$scope module Sbox0 $end
$var wire 8 L" x [7:0] $end
$var wire 8 M" y [7:0] $end
$upscope $end
$scope module Sbox1 $end
$var wire 8 N" x [7:0] $end
$var wire 8 O" y [7:0] $end
$upscope $end
$scope module Sbox2 $end
$var wire 8 P" x [7:0] $end
$var wire 8 Q" y [7:0] $end
$upscope $end
$scope module Sbox3 $end
$var wire 8 R" x [7:0] $end
$var wire 8 S" y [7:0] $end
$upscope $end
$upscope $end
$upscope $end
$upscope $end
$upscope $end
$upscope $end
$upscope $end
$enddefinitions $end
#0
$dumpvars
bx S"
bx R"
bx Q"
bx P"
bx O"
bx N"
bx M"
bx L"
bx K"
bx J"
bx I"
bx H"
bx G"
bx F"
bx E"
bx D"
bx C"
bx B"
bx A"
bx @"
bx ?"
bx >"
bx ="
bx <"
bx ;"
bx :"
bx 9"
bx 8"
bx 7"
bx 6"
bx 5"
bx 4"
bx 3"
bx 2"
bx 1"
bx 0"
bx /"
bx ."
bx -"
bx ,"
bx +"
bx *"
bx )"
bx ("
bx '"
bx &"
bx %"
bx $"
bx #"
bx ""
bx !"
bx ~
bx }
bx |
bx {
bx z
bx y
bx x
bx w
bx v
bx u
bx t
bx s
bx r
bx q
bx p
bx o
bx n
bx m
bx l
bx k
bx j
bx i
bx h
bx g
bx f
bx e
bx d
bx c
bx b
bx a
bx `
bx _
bx ^
bx ]
bx \
bx [
bx Z
bx Y
bx X
bx W
bx V
bx U
bx T
bx S
bx R
bx Q
bx P
bx O
bx N
bx M
bx L
bx K
bx J
bx I
bx H
bx G
bx F
bx E
xD
xC
xB
bx A
x@
x?
x>
z=
bx <
x;
0:
x9
z8
bx 7
bx 6
x5
b100010010001000110011010001000101010101100110011101111000100010011001101010101011101111001100110111011110111011111111 4
x3
bx 2
b10000001000000011000001000000010100000110000001110000100000001001000010100000101100001100000011010000111000001111 1
b10011000100010001110101111111111000111001010001001010000101111111001100000111101001111000101101001101001010110011000011000101 0
x/
x.
x-
bx ,
b1101001110001001110000011011000011010100111101100000100001100001101100011001101101101111000000001110000101101001100010101011010 +
1*
x)
bx (
x'
x&
x%
x$
1#
1"
z!
$end
#5000
0;
0.
05
0-
03
0*
#10000
b1100010011000110110001101100011011000100110001101100011011000110110001001100011011000110110001101100010011000110110001101100011 H
b1100010011000110110001101100011011000100110001101100011011000110110001001100011011000110110001101100010011000110110001101100011 V
b1100011 S"
b1100011 Q"
b1100011 O"
b1100011011000110110001101100011 S
b1100011011000110110001101100011 K"
b1100011 M"
0'
0&
09
0>
b0 R"
b0 P"
b0 N"
b0 L"
b1 W
b0 J"
0D
0C
0)
0B
0@
0?
b1 M
b1 N
b0 L
b0 Q
b0 K
1*
#15000
1;
0*
13
b10000001000000011000001000000010100000110000001110000100000001001000010100000101100001100000011010000111000001111 2
b10000001000000011000001000000010100000110000001110000100000001001000010100000101100001100000011010000111000001111 <
b10000001000000011000001000000010100000110000001110000100000001001000010100000101100001100000011010000111000001111 G
0/
1.
15
#20000
1&
b11010111 S"
b10101011 Q"
b1110110 O"
b11010111101010110111011011111110 S
b11010111101010110111011011111110 K"
b11111110 M"
1>
b1101 R"
b1110 P"
b1111 N"
b1100 L"
b11010110101010100111010011111101110100101010111101110010111110101101101010100110011110001111000111010110101010110111011011111110 H
b11010110101010100111010011111101110100101010111101110010111110101101101010100110011110001111000111010110101010110111011011111110 V
b1101000011100000111100001100 J"
1?
b10000001000000011000001000000010100000110000001110000100000001001000010100000101100001100000011010000111000001111 L
b10000001000000011000001000000010100000110000001110000100000001001000010100000101100001100000011010000111000001111 Q
b10000001000000011000001000000010100000110000001110000100000001001000010100000101100001100000011010000111000001111 K
1*
#24000
1%
0$
#25000
0*
1-
b100010010001000110011010001000101010101100110011101111000100010011001101010101011101111001100110111011110111011111111 ,
b100010010001000110011010001000101010101100110011101111000100010011001101010101011101111001100110111011110111011111111 6
b100010010001000110011010001000101010101100110011101111000100010011001101010101011101111001100110111011110111011111111 E
03
0"
#26000
0#
#30000
b1011111011100100110010000010101 {
b10001001110110000001000011101000100001010101101011001110011010000010110100011000010000111101100011001011000100101000111111100100 I
b10001001110110000001000011101000100001010101101011001110011010000010110100011000010000111101100011001011000100101000111111100100 P
b11110111101111100011101100101001 g
b1010111111101011011110010010010 q
b11101111 v
b1101100 w
b1011111011100100110010000010101010101111111010110111100100100101111011110111110001110110010100100011101101110011111100100011010 U
b11101101110011111100100011010 ]
b10001100 !"
b10000001 n
b11100101 m
b1011101 X
b1110000 [
b10111101 e
b11000111 d
b11100001 t
b10111010 ^
b1110000 i
b1101001 o
b1101 l
b110000 y
b10110011 x
b11010 Z
b110111 Y
b10011100 b
b11100110 c
b10001100 %"
b1001 r
b1100000 s
b100 u
b1100011 |
b1010011 }
b11100000 ~
b11001010 _
b11010000 `
b11100111 a
b11001101 h
b10110111 j
b1010001 k
b11100001 '"
b1001011000001110000100000100 p
b1100011010100111110000010001100 z
b10111010110010101101000011100111 \
b11001101011100001011011101010001 f
b10111010 +"
b10111010011100001110000110001100 #"
b1110000 )"
b1100011010100111110000010001100000010010110000011100001000001001100110101110000101101110101000110111010110010101101000011100111 R
b11001101 5"
b1100000 3"
b11100000 1"
b11001101011000001110000011100111 -"
b11100111 /"
b1100011 I"
b11001010 G"
b10110111 E"
b1100011110010101011011100000100 A"
b100 C"
b1001 ?"
b1010011 ="
b11010000 ;"
b1100011110010101011011100000100000010010101001111010000010100011100110101100000111000001110011110111010011100001110000110001100 T
b1001010100111101000001010001 7"
b1010001 9"
b111000 Q"
b11110110 M"
b1100010 S"
b1100010001110001011101111110110 S
b1100010001110001011101111110110 K"
b10111011 O"
0&
b0 H"
b10000 F"
b100000 D"
b110000 B"
b1000000 >"
b1010000 <"
b1100000 :"
b1110000 8"
b10000000 4"
b10010000 2"
b10100000 0"
b10110000 ."
b11000000 *"
b11010000 ("
b11100000 &"
b11110000 $"
b10101011 R"
b1110110 P"
b11111110 N"
b11010110 L"
b10110110100100101100111100001011011001000011110110111101111100011011111010011011110001010000000001101000001100001011001111111110 H
b10110110100100101100111100001011011001000011110110111101111100011011111010011011110001010000000001101000001100001011001111111110 V
b100000010000000110000 @"
b1000000010100000110000001110000 6"
b10000000100100001010000010110000 ,"
b11000000110100001110000011110000 ""
b10101011011101101111111011010110 J"
b10 W
1D
1)
1B
b100000010000000110000010000000101000001100000011100001000000010010000101000001011000011000000110100001110000011110000 (
b100000010000000110000010000000101000001100000011100001000000010010000101000001011000011000000110100001110000011110000 7
b100000010000000110000010000000101000001100000011100001000000010010000101000001011000011000000110100001110000011110000 A
b100000010000000110000010000000101000001100000011100001000000010010000101000001011000011000000110100001110000011110000 F
b100000010000000110000010000000101000001100000011100001000000010010000101000001011000011000000110100001110000011110000 J
b100000010000000110000010000000101000001100000011100001000000010010000101000001011000011000000110100001110000011110000 O
b11010110101010100111010011111101110100101010111101110010111110101101101010100110011110001111000111010110101010110111011011111110 L
b11010110101010100111010011111101110100101010111101110010111110101101101010100110011110001111000111010110101010110111011011111110 Q
b10 M
b10 N
1*
#35000
0*
0-
#40000
b1100100010100010101000111111010 g
b1110111001110101101000000001001 ]
b110001110110000110101001010001 q
b11111111100001111001011010000100001100011101100001101010010100010110010001010001010100011111101001110111001110101101000000001001 U
b11111111100001111001011010000100 {
b10001111 c
b11001010 j
b1000101 k
b10011101 b
b11 d
b10001 e
b1100001 _
b1100001 a
b1111110 X
b1111110 [
b11101010 Y
b11101010 Z
b10101101 s
b10011011 u
b1100 l
b111010 o
b11101000 m
b11011110 n
b10111110 }
b11001 y
b10100100 x
b11001110 v
b1110011 w
b11011000 h
b11001001 i
b11111 ^
b10001011 `
b10010111 r
b1110011 t
b10100111 |
b11010 ~
b1101001 !"
b11011000110010011100101001000101 f
b11111011000011000101101100001 \
b10010111101011010111001110011011 p
b10100111101111100001101001101001 z
b1100001 G"
b11001010 E"
b10011011 C"
b10111110 ="
b1000101 9"
b10101101 3"
b1100001 /"
b11001001 )"
b10100111101111100001101001101001100101111010110101110011100110111101100011001001110010100100010100011111011000011000101101100001 R
b100 S"
b1101101 Q"
b100011011011011101101000101 S
b100011011011011101101000101 K"
b1000101 M"
b10100111011000011100101010011011 A"
b10100111 I"
b10010111 ?"
b10010111101111101000101101000101 7"
b10001011 ;"
b11011000 5"
b11011000101011010001101001100001 -"
b11010 1"
b11111 +"
b1110011 '"
b10100111011000011100101010011011100101111011111010001011010001011101100010101101000110100110000100011111110010010111001101101001 T
b11111110010010111001101101001 #"
b1101001 %"
b110000 R"
b10110011 P"
b1101000 L"
b10110110111111110111010001001110110100101100001011001001101111110110110001011001000011001011111100000100011010011011111101000001 H
b10110110111111110111010001001110110100101100001011001001101111110110110001011001000011001011111100000100011010011011111101000001 V
b10001001 H"
b11011000 F"
b10000 D"
b11101000 B"
b10000101 >"
b1011010 <"
b11001110 :"
b1101000 8"
b101101 4"
b11000 2"
b1000011 0"
b11011000 ."
b11001011 *"
b10010 ("
b10001111 &"
b11100100 $"
b1001001000101010101100110001111010101011110010111010111101000001101101011001010100101001111101000011111000010100110001111110111 I
b1001001000101010101100110001111010101011110010111010111101000001101101011001010100101001111101000011111000010100110001111110111 P
b110000101100111111111001101000 J"
b100 W
b10001001110110000001000011101000 @"
b10000101010110101100111001101000 6"
b101101000110000100001111011000 ,"
b11001011000100101000111111100100 ""
b10110110100100101100111100001011011001000011110110111101111100011011111010011011110001010000000001101000001100001011001111111110 L
b10110110100100101100111100001011011001000011110110111101111100011011111010011011110001010000000001101000001100001011001111111110 Q
b100 M
b100 N
b10001001110110000001000011101000100001010101101011001110011010000010110100011000010000111101100011001011000100101000111111100100 (
b10001001110110000001000011101000100001010101101011001110011010000010110100011000010000111101100011001011000100101000111111100100 7
b10001001110110000001000011101000100001010101101011001110011010000010110100011000010000111101100011001011000100101000111111100100 A
b10001001110110000001000011101000100001010101101011001110011010000010110100011000010000111101100011001011000100101000111111100100 F
b10001001110110000001000011101000100001010101101011001110011010000010110100011000010000111101100011001011000100101000111111100100 J
b10001001110110000001000011101000100001010101101011001110011010000010110100011000010000111101100011001011000100101000111111100100 O
1*
#45000
0*
#50000
b101100001111111000011010001110 g
b1010011010011011111001001010110 ]
b11110111011100011111000001110110 q
b1001100100111000001111001100110111101110111000111110000011101100010110000111111100001101000111001010011010011011111001001010110 U
b1001100100111000001111001100110 {
b111011 |
b10001000 o
b11111011 x
b11100000 k
b10110111 b
b110000 e
b101011 c
b10101100 d
b101101 a
b11101101 X
b10011001 [
b100011 Y
b1010111 Z
b11111100 r
b1110100 s
b10001111 n
b10001111 l
b10001000 m
b11100010 y
b1010011 v
b1001010 w
b1010111 h
b1100111 i
b11001011 j
b11000000 ^
b1011001 _
b1110 `
b11111011 t
b1110011 u
b11011001 }
b100010 ~
b1101000 !"
b111011 I"
b1010111011001111100101111100000 f
b11000000010110010000111000101101 \
b11111100011101001111101101110011 p
b111011110110010010001001101000 z
b11111100 ?"
b11100000 9"
b1110100 3"
b101101 /"
b1100111 )"
b111011110110010010001001101000111111000111010011111011011100110101011101100111110010111110000011000000010110010000111000101101 R
b11111001 S"
b1000 Q"
b10000011 O"
b11111001000010001000001111110010 S
b11111001000010001000001111110010 K"
b11110010 M"
b1011001 G"
b11001011 E"
b111011010110011100101101110011 A"
b1110011 C"
b11011001 ="
b11111100110110010000111011100000 7"
b1110 ;"
b1010111 5"
b1010111011101000010001000101101 -"
b100010 1"
b11000000 +"
b11111011 '"
b111011010110011100101101110011111111001101100100001110111000000101011101110100001000100010110111000000011001111111101101101000 T
b11000000011001111111101101101000 #"
b1101000 %"
b1101001 R"
b10111111 P"
b1000001 N"
b100 L"
b1000111111101111111011110111100100101010011010100111110000000111111100101101100001100101011110011111101000001011000110111111101 H
b1000111111101111111011110111100100101010011010100111110000000111111100101101100001100101011110011111101000001011000110111111101 V
b1001001 H"
b10101 F"
b1011001 D"
b10001111 B"
b1010101 >"
b11100101 <"
b11010111 :"
b10100000 8"
b11011010 4"
b11001010 2"
b10010100 0"
b11111010 ."
b11111 *"
b1010 ("
b1100011 &"
b11110111 $"
b11111010011000110110101000101000001001011011001100111001110010010100000001100110100010100011000101010111001001000100110100010111 I
b11111010011000110110101000101000001001011011001100111001110010010100000001100110100010100011000101010111001001000100110100010111 P
b1101001101111110100000100000100 J"
b1000 W
b1001001000101010101100110001111 @"
b1010101111001011101011110100000 6"
b11011010110010101001010011111010 ,"
b11111000010100110001111110111 ""
b10110110111111110111010001001110110100101100001011001001101111110110110001011001000011001011111100000100011010011011111101000001 L
b10110110111111110111010001001110110100101100001011001001101111110110110001011001000011001011111100000100011010011011111101000001 Q
b1000 M
b1000 N
b1001001000101010101100110001111010101011110010111010111101000001101101011001010100101001111101000011111000010100110001111110111 (
b1001001000101010101100110001111010101011110010111010111101000001101101011001010100101001111101000011111000010100110001111110111 7
b1001001000101010101100110001111010101011110010111010111101000001101101011001010100101001111101000011111000010100110001111110111 A
b1001001000101010101100110001111010101011110010111010111101000001101101011001010100101001111101000011111000010100110001111110111 F
b1001001000101010101100110001111010101011110010111010111101000001101101011001010100101001111101000011111000010100110001111110111 J
b1001001000101010101100110001111010101011110010111010111101000001101101011001010100101001111101000011111000010100110001111110111 O
1*
1"
#55000
0*
#60000
b1100011100001011011011110011111 {
b1110101010001111101011010010001 ]
b10010111101111100100011110001110 g
b1100011100001011011011110011111111111000101001110001101111110011001011110111110010001111000111001110101010001111101011010010001 U
b11111100010100111000110111111001 q
b10011 x
b11101001 Z
b11010000 n
b11110000 !"
b11011101 v
b1000000 y
b10001110 w
b10100000 [
b10011100 X
b11010101 Y
b1001 h
b111111 e
b110100 d
b11010100 b
b11011111 c
b111111 r
b1100 o
b1011 l
b11010111 m
b101101 |
b1101101 }
b1111110 ~
b1011011 ^
b11111011 _
b10010 `
b11000111 a
b110110 i
b10 j
b11011101 k
b110011 s
b11100011 t
b110100 u
b101101011011010111111011110000 z
b1011011111110110001001011000111 \
b1001001101100000001011011101 f
b111111001100111110001100110100 p
b11110000 %"
b1011101 Q"
b111111 ?"
b1001 5"
b1011011 +"
b101101011011010111111011110000001111110011001111100011001101000000100100110110000000101101110101011011111110110001001011000111 R
b1101011 S"
b1010100 O"
b1101011010111010101010001010100 S
b1101011010111010101010001010100 K"
b1010100 M"
b101101 I"
b11111011 G"
b10 E"
b101101111110110000001000110100 A"
b110100 C"
b1101101 ="
b10010 ;"
b111111011011010001001011011101 7"
b11011101 9"
b110011 3"
b1111110 1"
b1001001100110111111011000111 -"
b11000111 /"
b110110 )"
b101101111110110000001000110100001111110110110100010010110111010000100100110011011111101100011101011011001101101110001111110000 T
b1011011001101101110001111110000 #"
b11100011 '"
b101 R"
b10001101 P"
b11111101 N"
b11111101 L"
b111100101010101010001111101000101010011001111110011101111010110101000011110011101011110101011110101101111101100010001010101010 H
b111100101010101010001111101000101010011001111110011101111010110101000011110011101011110101011110101101111101100010001010101010 V
b11111010 H"
b1100011 F"
b1101010 D"
b101000 B"
b100101 >"
b10110011 <"
b111001 :"
b11001001 8"
b1000000 4"
b1100110 2"
b10001010 0"
b110001 ."
b1010111 *"
b100100 ("
b1001101 &"
b10111 $"
b100100011100100100000000100011011010010110011010110011111110100110111011010010011101010011001010001000010000100101101101101100 I
b100100011100100100000000100011011010010110011010110011111110100110111011010010011101010011001010001000010000100101101101101100 P
b101100011011111110111111101 J"
b10000 W
b11111010011000110110101000101000 @"
b100101101100110011100111001001 6"
b1000000011001101000101000110001 ,"
b1010111001001000100110100010111 ""
b1000111111101111111011110111100100101010011010100111110000000111111100101101100001100101011110011111101000001011000110111111101 L
b1000111111101111111011110111100100101010011010100111110000000111111100101101100001100101011110011111101000001011000110111111101 Q
b10000 M
b10000 N
b11111010011000110110101000101000001001011011001100111001110010010100000001100110100010100011000101010111001001000100110100010111 (
b11111010011000110110101000101000001001011011001100111001110010010100000001100110100010100011000101010111001001000100110100010111 7
b11111010011000110110101000101000001001011011001100111001110010010100000001100110100010100011000101010111001001000100110100010111 A
b11111010011000110110101000101000001001011011001100111001110010010100000001100110100010100011000101010111001001000100110100010111 F
b11111010011000110110101000101000001001011011001100111001110010010100000001100110100010100011000101010111001001000100110100010111 J
b11111010011000110110101000101000001001011011001100111001110010010100000001100110100010100011000101010111001001000100110100010111 O
1*
#65000
0*
#70000
b11101110100000011101100111100 ]
b1110101111100011101011011000101 g
b110010111001010101010011010000 q
b11110100101111001101010001010100001100101110010101010100110100000111010111110001110101101100010100011101110100000011101100111100 U
b11110100101111001101010001010100 {
b10110011 e
b1001100 o
b10001100 n
b10101110 x
b1101101 `
b101101 Z
b10000100 [
b11100111 X
b1001110 Y
b1001 j
b100101 d
b10110010 b
b100100 c
b11011111 l
b11111 m
b101 y
b1100110 v
b11001101 w
b11000100 ^
b1000000 _
b100011 a
b10011111 h
b101100 i
b101101 k
b11111001 r
b10110101 s
b111001 t
b100110 u
b110110 |
b110011 }
b10011101 ~
b1010000 !"
b11000100010000000110110100100011 \
b10011111001011000000100100101101 f
b11111001101101010011100100100110 p
b110110001100111001110101010000 z
b10010101 M"
b1001 E"
b1101101 ;"
b110110001100111001110101010000111110011011010100111001001001101001111100101100000010010010110111000100010000000110110100100011 R
b1000010 S"
b10010011 Q"
b1000010100100111010110010010101 S
b1000010100100111010110010010101 K"
b10101100 O"
b110110 I"
b1000000 G"
b110110010000000000100100100110 A"
b100110 C"
b11111001 ?"
b110011 ="
b11111001001100110110110100101101 7"
b101101 9"
b10011111 5"
b10110101 3"
b10011101 1"
b10011111101101011001110100100011 -"
b100011 /"
b11000100 +"
b101100 )"
b111001 '"
b110110010000000000100100100110111110010011001101101101001011011001111110110101100111010010001111000100001011000011100101010000 T
b11000100001011000011100101010000 #"
b1010000 %"
b11110110 R"
b100010 P"
b10101010 N"
b10101101 L"
b1011110001110010000111101111101111101111010011010010010100101101010011101010101001111011100000100001010101000110001111101101011 H
b1011110001110010000111101111101111101111010011010010010100101101010011101010101001111011100000100001010101000110001111101101011 V
b100100 H"
b1110010 F"
b1000000 D"
b100011 B"
b1101001 >"
b1100110 <"
b10110011 :"
b11111010 8"
b1101110 4"
b11010010 2"
b1110101 0"
b110010 ."
b10001000 *"
b1000010 ("
b1011011 &"
b1101100 $"
b11001000000101100111011110111100100110110111101011001001001110110010010100000010011110011001001010110000001001100001100110010110 I
b11001000000101100111011110111100100110110111101011001001001110110010010100000010011110011001001010110000001001100001100110010110 P
b11110110001000101010101010101101 J"
b100000 W
b100100011100100100000000100011 @"
b1101001011001101011001111111010 6"
b1101110110100100111010100110010 ,"
b10001000010000100101101101101100 ""
b111100101010101010001111101000101010011001111110011101111010110101000011110011101011110101011110101101111101100010001010101010 L
b111100101010101010001111101000101010011001111110011101111010110101000011110011101011110101011110101101111101100010001010101010 Q
b100000 M
b100000 N
b100100011100100100000000100011011010010110011010110011111110100110111011010010011101010011001010001000010000100101101101101100 (
b100100011100100100000000100011011010010110011010110011111110100110111011010010011101010011001010001000010000100101101101101100 7
b100100011100100100000000100011011010010110011010110011111110100110111011010010011101010011001010001000010000100101101101101100 A
b100100011100100100000000100011011010010110011010110011111110100110111011010010011101010011001010001000010000100101101101101100 F
b100100011100100100000000100011011010010110011010110011111110100110111011010010011101010011001010001000010000100101101101101100 J
b100100011100100100000000100011011010010110011010110011111110100110111011010010011101010011001010001000010000100101101101101100 O
1*
#74000
1$
#75000
0*
0"
#80000
b10001110010110101101000000110110 ]
b111110000111111101010101 q
b10011000000101101110111001110100 {
b10011000000101101110111001110100000000001111100001111111010101010110101100101100000001001001110010001110010110101101000000110110 U
b1101011001011000000010010011100 g
b110010 y
b1101100 x
b1001111 a
b10101000 X
b10100000 [
b10010010 Y
b10011010 Z
b1100011 o
b10100011 n
b1110001 l
b10110001 m
b1111000 v
b100110 w
b11001000 e
b10 d
b11011101 b
b10111 c
b11100111 ^
b1000111 _
b11011101 `
b10100 r
b1110111 s
b11010100 t
b1100101 u
b11101000 |
b11011010 }
b10110110 ~
b10010000 !"
b111111 h
b11110111 i
b11110101 j
b11100010 k
b11100111010001111101110101001111 \
b10100011101111101010001100101 p
b11101000110110101011011010010000 z
b1001111 /"
b111111111101111111010111100010 f
b10100 ?"
b11011101 ;"
b1110111 3"
b11100111 +"
b11101000110110101011011010010000000101000111011111010100011001010011111111110111111101011110001011100111010001111101110101001111 R
b11010100 '"
b10010000 %"
b1010 S"
b11000000 Q"
b1111111 O"
b1010110000000111111101100111 S
b1010110000000111111101100111 K"
b1100111 M"
b11101000 I"
b1000111 G"
b11110101 E"
b11101000010001111111010101100101 A"
b1100101 C"
b11011010 ="
b10100110110101101110111100010 7"
b11100010 9"
b111111 5"
b111111011101111011011001001111 -"
b10110110 1"
b11101000010001111111010101100101000101001101101011011101111000100011111101110111101101100100111111100111111101111101010010010000 T
b11100111111101111101010010010000 #"
b11110111 )"
b10100011 R"
b11111 P"
b1101011 N"
b1010 L"
b10100111110010111000000011010111000110101111111100010100011000100010000001010110111110100110101001110101010011100000000100110 H
b10100111110010111000000011010111000110101111111100010100011000100010000001010110111110100110101001110101010011100000000100110 V
b11001000 H"
b10110 F"
b1110111 D"
b10111100 B"
b10011011 >"
b1111010 <"
b11001001 :"
b111011 8"
b100101 4"
b10 2"
b1111001 0"
b10010010 ."
b10110000 *"
b100110 ("
b11001 &"
b10010110 $"
b11000110001011111110000100001001111101110101111011101101110000111100110001111001001110010101110110000100111110011100111101011101 I
b11000110001011111110000100001001111101110101111011101101110000111100110001111001001110010101110110000100111110011100111101011101 P
b10100011000111110110101100001010 J"
b1000000 W
b11001000000101100111011110111100 @"
b10011011011110101100100100111011 6"
b100101000000100111100110010010 ,"
b10110000001001100001100110010110 ""
b1011110001110010000111101111101111101111010011010010010100101101010011101010101001111011100000100001010101000110001111101101011 L
b1011110001110010000111101111101111101111010011010010010100101101010011101010101001111011100000100001010101000110001111101101011 Q
b1000000 M
b1000000 N
b11001000000101100111011110111100100110110111101011001001001110110010010100000010011110011001001010110000001001100001100110010110 (
b11001000000101100111011110111100100110110111101011001001001110110010010100000010011110011001001010110000001001100001100110010110 7
b11001000000101100111011110111100100110110111101011001001001110110010010100000010011110011001001010110000001001100001100110010110 A
b11001000000101100111011110111100100110110111101011001001001110110010010100000010011110011001001010110000001001100001100110010110 F
b11001000000101100111011110111100100110110111101011001001001110110010010100000010011110011001001010110000001001100001100110010110 J
b11001000000101100111011110111100100110110111101011001001001110110010010100000010011110011001001010110000001001100001100110010110 O
1*
#85000
0*
