data/PRESENT/PRESENT.vcd
$date
	Wed Oct  8 15:09:48 2025
$end
$version
	Icarus Verilog
$end
$timescale
	1ps
$end
$scope module PRESENT_ENCRYPT_TB $end
$var wire 64 ! odat [63:0] $end
$var reg 1 " clk $end
$var reg 64 # idat [63:0] $end
$var reg 80 $ key [79:0] $end
$var reg 1 % load $end
$var reg 1 & reset $end
$scope module dut $end
$var wire 1 " clk $end
$var wire 64 ' dat1 [63:0] $end
$var wire 64 ( idat [63:0] $end
$var wire 80 ) key [79:0] $end
$var wire 1 % load $end
$var wire 64 * odat [63:0] $end
$var wire 80 + kdat2 [79:0] $end
$var wire 80 , kdat1 [79:0] $end
$var wire 64 - dat3 [63:0] $end
$var wire 64 . dat2 [63:0] $end
$var reg 64 / dreg [63:0] $end
$var reg 80 0 kreg [79:0] $end
$var reg 5 1 round [4:0] $end
$scope begin sbox_loop[0] $end
$scope module USBOX $end
$var wire 4 2 idat [3:0] $end
$var reg 4 3 odat [3:0] $end
$upscope $end
$upscope $end
$scope begin sbox_loop[4] $end
$scope module USBOX $end
$var wire 4 4 idat [3:0] $end
$var reg 4 5 odat [3:0] $end
$upscope $end
$upscope $end
$scope begin sbox_loop[8] $end
$scope module USBOX $end
$var wire 4 6 idat [3:0] $end
$var reg 4 7 odat [3:0] $end
$upscope $end
$upscope $end
$scope begin sbox_loop[12] $end
$scope module USBOX $end
$var wire 4 8 idat [3:0] $end
$var reg 4 9 odat [3:0] $end
$upscope $end
$upscope $end
$scope begin sbox_loop[16] $end
$scope module USBOX $end
$var wire 4 : idat [3:0] $end
$var reg 4 ; odat [3:0] $end
$upscope $end
$upscope $end
$scope begin sbox_loop[20] $end
$scope module USBOX $end
$var wire 4 < idat [3:0] $end
$var reg 4 = odat [3:0] $end
$upscope $end
$upscope $end
$scope begin sbox_loop[24] $end
$scope module USBOX $end
$var wire 4 > idat [3:0] $end
$var reg 4 ? odat [3:0] $end
$upscope $end
$upscope $end
$scope begin sbox_loop[28] $end
$scope module USBOX $end
$var wire 4 @ idat [3:0] $end
$var reg 4 A odat [3:0] $end
$upscope $end
$upscope $end
$scope begin sbox_loop[32] $end
$scope module USBOX $end
$var wire 4 B idat [3:0] $end
$var reg 4 C odat [3:0] $end
$upscope $end
$upscope $end
$scope begin sbox_loop[36] $end
$scope module USBOX $end
$var wire 4 D idat [3:0] $end
$var reg 4 E odat [3:0] $end
$upscope $end
$upscope $end
$scope begin sbox_loop[40] $end
$scope module USBOX $end
$var wire 4 F idat [3:0] $end
$var reg 4 G odat [3:0] $end
$upscope $end
$upscope $end
$scope begin sbox_loop[44] $end
$scope module USBOX $end
$var wire 4 H idat [3:0] $end
$var reg 4 I odat [3:0] $end
$upscope $end
$upscope $end
$scope begin sbox_loop[48] $end
$scope module USBOX $end
$var wire 4 J idat [3:0] $end
$var reg 4 K odat [3:0] $end
$upscope $end
$upscope $end
$scope begin sbox_loop[52] $end
$scope module USBOX $end
$var wire 4 L idat [3:0] $end
$var reg 4 M odat [3:0] $end
$upscope $end
$upscope $end
$scope begin sbox_loop[56] $end
$scope module USBOX $end
$var wire 4 N idat [3:0] $end
$var reg 4 O odat [3:0] $end
$upscope $end
$upscope $end
$scope begin sbox_loop[60] $end
$scope module USBOX $end
$var wire 4 P idat [3:0] $end
$var reg 4 Q odat [3:0] $end
$upscope $end
$upscope $end
$scope module UPBOX $end
$var wire 64 R idat [63:0] $end
$var wire 64 S odat [63:0] $end
$upscope $end
$scope module USBOXKEY $end
$var wire 4 T idat [3:0] $end
$var reg 4 U odat [3:0] $end
$upscope $end
$upscope $end
$upscope $end
$enddefinitions $end
#0
$dumpvars
bx U
bx T
bx S
bx R
bx Q
bx P
bx O
bx N
bx M
bx L
bx K
bx J
bx I
bx H
bx G
bx F
bx E
bx D
bx C
bx B
bx A
bx @
bx ?
bx >
bx =
bx <
bx ;
bx :
bx 9
bx 8
bx 7
bx 6
bx 5
bx 4
bx 3
bx 2
bx 1
bx 0
bx /
bx .
bx -
bx ,
bx +
bx *
b0 )
b0 (
bx '
0&
0%
b0 $
b0 #
0"
bx !
$end
#5000
1"
#10000
0"
1%
#15000
b1111111111111111111111111111111100000000000000000000000000000000 -
b1111111111111111111111111111111100000000000000000000000000000000 S
b1100 3
b1100 5
b1100 7
b1100 9
b1100 ;
b1100 =
b1100 ?
b1100 A
b1100 C
b1100 E
b1100 G
b1100 I
b1100 K
b1100 M
b1100 O
b1100110011001100110011001100110011001100110011001100110011001100 .
b1100110011001100110011001100110011001100110011001100110011001100 R
b1100 Q
b0 2
b0 4
b0 6
b0 8
b0 :
b0 <
b0 >
b0 @
b0 B
b0 D
b0 F
b0 H
b0 J
b0 L
b0 N
b0 P
b1100 U
b0 !
b0 *
b0 '
b0 T
b11000000000000000000000000000000000000000000000000000000000000001000000000000000 +
b0 ,
b1 1
b0 0
b0 /
1"
#20000
0"
0%
#25000
b1000000011111111000000001111111111111111000000001000000000000000 -
b1000000011111111000000001111111111111111000000001000000000000000 S
b10 C
b10 E
b10 G
b10 I
b10 K
b10 M
b10 O
b1011001000100010001000100010001011001100110011001100110011001100 .
b1011001000100010001000100010001011001100110011001100110011001100 R
b1011 Q
b101 U
b1111 B
b1111 D
b1111 F
b1111 H
b1111 J
b1111 L
b1111 N
b11 P
b1 T
b11111111111111111111111111111100000000000000000000000000000000 !
b11111111111111111111111111111100000000000000000000000000000000 *
b11111111111111111111111111111100000000000000000000000000000000 '
b10000000000000001100000000000000000000000000000000000000000000000000000000000 ,
b1010000000000000001100000000000000000000000000000000000000000010000000000000000 +
b1111111111111111111111111111111100000000000000000000000000000000 /
b11000000000000000000000000000000000000000000000000000000000000001000000000000000 0
b10 1
1"
#30000
0"
#35000
b101 3
b100000000110110110010000011011110110111110010001000110000001001 -
b100000000110110110010000011011110110111110010001000110000001001 S
b1 2
b110 U
b11 9
b10 ?
b10 A
b11 G
b101 I
b1100 O
b111110000100010010100110010001000100010110011000011110011000101 .
b111110000100010010100110010001000100010110011000011110011000101 R
b111 Q
b10 T
b1000 8
b1111 >
b1111 @
b1000 F
b1 H
b0 N
b1101 P
b1100000000000000000101000000000000000110000000000000000000000011000000000000000 +
b100000000000000000101000000000000000110000000000000000000000000000000000000000 ,
b1101000011111111000110001111111111111111000000001000000000000001 !
b1101000011111111000110001111111111111111000000001000000000000001 *
b1101000011111111000110001111111111111111000000001000000000000001 '
b11 1
b1010000000000000001100000000000000000000000000000000000000000010000000000000000 0
b1000000011111111000000001111111111111111000000001000000000000000 /
1"
#40000
0"
#45000
b111001111000010110011010010011010110110000110010010001101011001 -
b111001111000010110011010010011010110110000110010010001101011001 S
b11 3
b100 7
b11 ;
b100 =
b1001 ?
b1000 A
b1101 C
b1011 E
b110 G
b100 I
b1010 K
b1011 M
b110110010111010010001101011110110001001010000110011010011000011 .
b110110010111010010001101011110110001001010000110011010011000011 R
b110 Q
b1011 U
b1000 2
b1100 6
b1000 :
b1100 <
b100 >
b1011 @
b111 B
b11 D
b10 F
b1100 H
b110 J
b11 L
b10 P
b11 T
b10000000110110110000100011011110110100110010001000110000001000 !
b10000000110110110000100011011110110100110010001000110000001000 *
b10000000110110110000100011011110110100110010001000110000001000 '
b110000000000000000110000000000000000010100000000000000011000000000000000000000 ,
b10110000000000000000110000000000000000010100000000000000011000100000000000000000 +
b100000000110110110010000011011110110111110010001000110000001001 /
b1100000000000000000101000000000000000110000000000000000000000011000000000000000 0
b100 1
1"
#50000
0"
#55000
b1000 3
b100000111010111101111100101100001010011000111100100010001000110 -
b100000111010111101111100101100001010011000111100100010001000110 S
b1011 2
b1001 U
b1011 5
b1011 7
b110 9
b1110 ;
b0 =
b1101 ?
b1010 C
b110 E
b101 G
b110 K
b100 M
b1011 O
b100101101000110010001010110101010001101000011100110101110111000 .
b100101101000110010001010110101010001101000011100110101110111000 R
b100 Q
b100 T
b11 4
b11 6
b10 8
b1001 :
b101 <
b111 >
b110 B
b10 D
b1 F
b10 J
b1100 L
b11 N
b1100 P
b10010000000000000001011000000000000000011000000000000000001010101000000000001100 +
b1000000000000000001011000000000000000011000000000000000001010000000000000001100 ,
b1100001111000010110000010010011010110111010110010010001100111011 !
b1100001111000010110000010010011010110111010110010010001100111011 *
b1100001111000010110000010010011010110111010110010010001100111011 '
b101 1
b10110000000000000000110000000000000000010100000000000000011000100000000000000000 0
b111001111000010110011010010011010110110000110010010001101011001 /
1"
#60000
0"
#65000
b1100000101110111110000110000110101101011000101111110100011100 -
b1100000101110111110000110000110101101011000101111110100011100 S
b100 3
b1010 5
b1001 7
b1001 9
b1 ;
b1110 =
b110 ?
b0 A
b11 C
b0 E
b11 G
b1111 I
b1101 K
b111 M
b101 O
b111010101111101111100110000001100000110111000011001100110100100 .
b111010101111101111100110000001100000110111000011001100110100100 R
b111 Q
b0 U
b1100 2
b110 4
b100 6
b100 8
b1110 :
b1001 <
b10 >
b101 @
b1000 B
b101 D
b1000 F
b1010 H
b111 J
b1101 L
b1 N
b1101 P
b101 T
b1101000111010111101010000101100001010010100111100100010001101100 !
b1101000111010111101010000101100001010010100111100100010001101100 *
b1101000111010111101010000101100001010010100111100100010001101100 '
b1010000000000011001001000000000000000101100000000000000001100000000000000000101 ,
b11001001000000000000000101100000000000000001100110000000000000101 +
b100000111010111101111100101100001010011000111100100010001000110 /
b10010000000000000001011000000000000000011000000000000000001010101000000000001100 0
b110 1
1"
#70000
0"
#75000
b111010100000101001011011011001111110111111111100010110100100 -
b111010100000101001011011011001111110111111111100010110100100 S
b1010 U
b10 3
b110 5
b111 7
b10 9
b110 ;
b1111 =
b10 ?
b1111 A
b101 C
b1010 E
b1111 G
b1010 I
b10 K
b110 M
b11 O
b101001101100010101011111010010111110010111101100010011101100010 .
b101001101100010101011111010010111110010111101100010011101100010 R
b101 Q
b110 T
b1111 2
b10 4
b1101 6
b1111 8
b10 :
b1010 <
b1111 >
b1010 @
b1 B
b110 D
b1010 F
b110 H
b1111 J
b10 L
b1000 N
b1 P
b10100000000000001010000000000000001100100100000000000000010110111000000000000110 +
b1100000000000001010000000000000001100100100000000000000010110000000000000000110 ,
b1100000101111011010100110000110101111101000101111110100101111 !
b1100000101111011010100110000110101111101000101111110100101111 *
b1100000101111011010100110000110101111101000101111110100101111 '
b111 1
b11001001000000000000000101100000000000000001100110000000000000101 0
b1100000101110111110000110000110101101011000101111110100011100 /
1"
#80000
0"
#85000
b1011101110100000101110000100100010100001000100111110000010000000 -
b1011101110100000101110000100100010100001000100111110000010000000 S
b10 5
b0 7
b100 9
b10 ;
b1000 =
b100 ?
b1001 A
b1010 C
b1000 E
b0 G
b1100 I
b1100 K
b1111 M
b1 O
b1111000111111100110000001000101010010100100000100100000000100010 .
b1111000111111100110000001000101010010100100000100100000000100010 R
b1111 Q
b1101 U
b1111 4
b101 6
b1100 8
b1111 :
b1011 <
b1100 >
b100 @
b110 B
b1011 D
b101 F
b0 H
b0 J
b1010 L
b1110 N
b1010 P
b111 T
b1010111010100000000001011011011001001100101111111100010111111111 !
b1010111010100000000001011011011001001100101111111100010111111111 *
b1010111010100000000001011011011001001100101111111100010111111111 '
b1110000000000001101010000000000000101000000000000000110010010000000000000001011 ,
b11010000000000001101010000000000000101000000000000000110010011000000000000001011 +
b111010100000101001011011011001111110111111111100010110100100 /
b10100000000000001010000000000000001100100100000000000000010110111000000000000110 0
b1000 1
1"
#90000
0"
#95000
b1111101010010100001101000010001110101001000101000010001100111000 -
b1111101010010100001101000010001110101001000101000010001100111000 S
b11 U
b100 3
b100 5
b1010 7
b1 9
b1011 ;
b101 =
b0 ?
b1000 A
b11 C
b1001 E
b100 G
b1010 I
b1000 O
b1010100011111100101001001001001110000000010110110001101001000100 .
b1010100011111100101001001001001110000000010110110001101001000100 R
b1010 Q
b1000 T
b1100 2
b1100 4
b110 6
b1110 8
b11 :
b1 <
b101 >
b1011 @
b1000 B
b100 D
b1100 F
b110 H
b1011 N
b110 P
b110000000000010111101000000000000110101000000000000010100001001000000011001001 +
b10000000000000010111101000000000000110101000000000000010100000000000000011001001 ,
b110101110100000011011000100100010110101000100111110011011001100 !
b110101110100000011011000100100010110101000100111110011011001100 *
b110101110100000011011000100100010110101000100111110011011001100 '
b1001 1
b11010000000000001101010000000000000101000000000000000110010011000000000000001011 0
b1011101110100000101110000100100010100001000100111110000010000000 /
1"
#100000
0"
#105000
b110100111110010111000100010110101100011011010000100110101010100 -
b110100111110010111000100010110101100011011010000100110101010100 S
b1000 5
b101 7
b110 9
b1001 ;
b1110 =
b1011 ?
b1011 C
b110 E
b1 G
b1001 I
b0 K
b1110 M
b1111 O
b100111111100000100100010110101110001011111010010110010110000100 .
b100111111100000100100010110101110001011111010010110010110000100 R
b100 Q
b1110 U
b1011 4
b1 6
b10 8
b100 :
b1001 <
b11 >
b11 B
b10 D
b1110 F
b100 H
b101 J
b1001 L
b1010 N
b1100 P
b1001 T
b1100101010010101010011100010001110110011100101000010000110111100 !
b1100101010010101010011100010001110110011100101000010000110111100 *
b1100101010010101010011100010001110110011100101000010000110111100 '
b10010000000110010010011000000000001011110100000000000011010100000000000001010000 ,
b11100000000110010010011000000000001011110100000000000011010101010000000001010000 +
b1111101010010100001101000010001110101001000101000010001100111000 /
b110000000000010111101000000000000110101000000000000010100001001000000011001001 0
b1010 1
1"
#110000
0"
#115000
b101010010001010010010110110001111000011001100001010010110011101 -
b101010010001010010010110110001111000011001100001010010110011101 S
b1111 U
b101 3
b1100 5
b1 7
b1001 9
b11 ;
b110 =
b100 ?
b1001 A
b111 C
b1001 G
b100 I
b1000 K
b1 M
b1110 O
b11111000011000010010010110011110010100011000111001000111000101 .
b11111000011000010010010110011110010100011000111001000111000101 R
b11 Q
b1010 T
b1 2
b0 4
b1110 6
b100 8
b1000 :
b10 <
b1100 >
b100 @
b1101 B
b100 F
b1100 H
b1011 J
b1110 L
b1001 N
b1000 P
b11110000000010100001110000000011001001001100000000000101111011011000000001101010 +
b10100000000010100001110000000011001001001100000000000101111010000000000001101010 ,
b1000100111101011110001000010110101001100001010000100111000000001 !
b1000100111101011110001000010110101001100001010000100111000000001 *
b1000100111101011110001000010110101001100001010000100111000000001 '
b1011 1
b11100000000110010010011000000000001011110100000000000011010101010000000001010000 0
b110100111110010111000100010110101100011011010000100110101010100 /
1"
#120000
0"
#125000
b1101011101011111100101010101111110100010001010001110010011001010 -
b1101011101011111100101010101111110100010001010001110010011001010 S
b1100 3
b1101 5
b1100 7
b1111 9
b1100 ;
b10 =
b1101 ?
b1 A
b1100 C
b1010 E
b1101 G
b0 I
b1100 K
b11 M
b1001 O
b1111100100111100000011011010110000011101001011001111110011011100 .
b1111100100111100000011011010110000011101001011001111110011011100 R
b1111 Q
b1000 U
b0 2
b111 4
b0 6
b1010 8
b0 :
b1111 <
b111 >
b1110 @
b0 B
b110 D
b111 F
b101 H
b0 J
b1000 L
b100 N
b1010 P
b1011 T
b1010010010000000010101110110000011100111111100001010000001110000 !
b1010010010000000010101110110000011100111111100001010000001110000 *
b1010010010000000010101110110000011100111111100001010000001110000 '
b10110000000011010101111000000001010000111000000001100100100110000000000010111101 ,
b10000000000011010101111000000001010000111000000001100100100111100000000010111101 +
b101010010001010010010110110001111000011001100001010010110011101 /
b11110000000010100001110000000011001001001100000000000101111011011000000001101010 0
b1100 1
1"
#130000
0"
#135000
b100010000100101010110000110010000010000001110000100000111111001 -
b100010000100101010110000110010000010000001110000100000111111001 S
b100 U
b1001 3
b0 5
b1100 7
b11 9
b11 ;
b1111 =
b101 ?
b1 A
b1 C
b0 E
b1000 G
b100 I
b110 K
b0 M
b1101 O
b110100000110010010000000000100010101111100110011110000001001 .
b110100000110010010000000000100010101111100110011110000001001 R
b0 Q
b1100 T
b100 2
b101 4
b0 6
b1000 8
b1000 :
b1010 <
b1 >
b1110 @
b1110 B
b101 D
b1011 F
b1100 H
b10 J
b101 L
b111 N
b101 P
b1000000000101111011000000000001101010111100000000101000011101101000110010010011 +
b11000000000101111011000000000001101010111100000000101000011100000000110010010011 ,
b101011101010010110010110101111011100001101010001000000001010100 !
b101011101010010110010110101111011100001101010001000000001010100 *
b101011101010010110010110101111011100001101010001000000001010100 '
b1101 1
b10000000000011010101111000000001010000111000000001100100100111100000000010111101 0
b1101011101011111100101010101111110100010001010001110010011001010 /
1"
#140000
0"
#145000
b1110001011001100100100000000010000110110001111110110110000010010 -
b1110001011001100100100000000010000110110001111110110110000010010 S
b10 3
b11 5
b1110 7
b1010 9
b10 =
b1000 ?
b1000 A
b0 C
b1010 E
b11 G
b1 I
b1011 M
b1001 O
b1100100110110110000100111010000010001000001000111010111000110010 .
b1100100110110110000100111010000010001000001000111010111000110010 R
b1100 Q
b111 U
b1111 2
b1000 4
b1001 6
b110 8
b1111 <
b1011 >
b1011 @
b101 B
b110 D
b1000 F
b1110 H
b11 L
b100 N
b0 P
b1101 T
b10000110010111010000110010110111011111110000110100110001111 !
b10000110010111010000110010110111011111110000110100110001111 *
b10000110010111010000110010110111011111110000110100110001111 '
b11010001100100100110100000000010111101100000000000110101011110000000010100001110 ,
b1110001100100100110100000000010111101100000000000110101011111110000010100001110 +
b100010000100101010110000110010000010000001110000100000111111001 /
b1000000000101111011000000000001101010111100000000101000011101101000110010010011 0
b1110 1
1"
#150000
0"
#155000
b1011 =
b1010 C
b1100001101100110100000101100010111001101001101110101010000100001 -
b1100001101100110100000101100010111001101001101110101010000100001 S
b11 <
b110 B
b1 U
b111 3
b1010 5
b1110 7
b0 9
b10 ;
b1100 ?
b100 A
b1100 E
b11 G
b10 I
b1 K
b0 M
b1011 O
b1110101100000001001000111100101001001100101100100000111010100111 .
b1110101100000001001000111100101001001100101100100000111010100111 R
b1110 Q
b1110 T
b1101 2
b110 4
b1001 6
b101 8
b1111 :
b0 >
b1100 @
b0 D
b1000 F
b1111 H
b1110 J
b101 L
b11 N
b1001 P
b10000101000011100111000110010010011010000000001011110110001111000011010101111 +
b11100000101000011100111000110010010011010000000001011110110000000000011010101111 ,
b1001001101011110111110000000011011000000001111110101100101101101 !
b1001001101011110111110000000011011000000001111110101100101101101 *
b1001001101011110111110000000011011000000001111110101100101101101 '
b1111 1
b1110001100100100110100000000010111101100000000000110101011111110000010100001110 0
b1110001011001100100100000000010000110110001111110110110000010010 /
1"
#160000
0"
#165000
b101100101111101101101010101110011000010101001011101100110110110 -
b101100101111101101101010101110011000010101001011101100110110110 S
b1010 3
b1 5
b1111 7
b1100 9
b1101 ;
b11 A
b1101 C
b10 E
b100 G
b1001 I
b1101 K
b100 M
b111101101001101100101000010110100111100101111011100111100011010 .
b111101101001101100101000010110100111100101111011100111100011010 R
b111 Q
b10 U
b110 2
b1110 4
b1010 6
b0 8
b111 :
b1000 @
b111 B
b1111 D
b1100 F
b100 H
b111 J
b1100 L
b1101 P
b1111 T
b1101001111000111010011001111011110000000001101110000101011100110 !
b1101001111000111010011001111011110000000001101110000101011100110 *
b1101001111000111010011001111011110000000001101110000101011100110 '
b11110000110101011110001000010100001110011100011001001001101000000000101111011000 ,
b100000110101011110001000010100001110011100011001001001101010000000101111011000 +
b1100001101100110100000101100010111001101001101110101010000100001 /
b10000101000011100111000110010010011010000000001011110110001111000011010101111 0
b10000 1
1"
#170000
0"
#175000
b10 A
b1110011001111100111001000000111001110001101110001011011100010011 -
b1110011001111100111001000000111001110001101110001011011100010011 S
b1111 @
b1100 U
b1 3
b101 5
b1100 7
b1110 9
b1011 ;
b1010 =
b1000 ?
b11 C
b1001 E
b1101 G
b0 I
b11 K
b1111 M
b1110 O
b1101111011110011000011011001001100101000101010111110110001010001 .
b1101111011110011000011011001001100101000101010111110110001010001 R
b1101 Q
b0 T
b1110 2
b1 4
b0 6
b1001 8
b11 :
b110 <
b1011 >
b1000 B
b100 D
b111 F
b101 H
b1000 J
b1010 L
b1001 N
b111 P
b11000001011110110000010000011010101111000100001010000111001100000100100100110101 +
b1011110110000010000011010101111000100001010000111001110001100100100110101 ,
b111100110101000010101110100100011111011011000111001000000011110 !
b111100110101000010101110100100011111011011000111001000000011110 *
b111100110101000010101110100100011111011011000111001000000011110 '
b10001 1
b100000110101011110001000010100001110011100011001001001101010000000101111011000 0
b101100101111101101101010101110011000010101001011101100110110110 /
1"
#180000
0"
#185000
b111010100011101111101101101011010000000011110110101101101011001 -
b111010100011101111101101101011010000000011110110101101101011001 S
b1011 3
b110 5
b1011 9
b1111 ;
b10 =
b111 ?
b100 A
b1001 C
b101 E
b1100 G
b1 I
b1101 K
b1100 M
b1101 O
b110110111001101000111000101100101000111001011111011110001101011 .
b110110111001101000111000101100101000111001011111011110001101011 R
b110 Q
b11 2
b10 4
b11 8
b1010 :
b1111 <
b1101 >
b1100 @
b100 B
b1 D
b0 F
b1110 H
b111 J
b0 L
b111 N
b10 P
b10011100000111111000000001010011001101111110100011000000100011 !
b10011100000111111000000001010011001101111110100011000000100011 *
b10011100000111111000000001010011001101111110100011000000100011 '
b1001001001101011100000101111011000001000001101010111100010000101000011100110 ,
b11001001001001101011100000101111011000001000001101010111100000010101000011100110 +
b1110011001111100111001000000111001110001101110001011011100010011 /
b11000001011110110000010000011010101111000100001010000111001100000100100100110101 0
b10010 1
1"
#190000
0"
#195000
b1011100101001000010000010100111000100011001100110010110010010011 -
b1011100101001000010000010100111000100011001100110010110010010011 S
b110 U
b11 3
b111 5
b100 7
b1100 9
b11 ;
b10 =
b1100 ?
b1 A
b1110 C
b10 E
b1 G
b1001 I
b1000 K
b1011 M
b100 O
b1000010010111000100100010010111000011100001000111100010001110011 .
b1000010010111000100100010010111000011100001000111100010001110011 R
b1000 Q
b10 T
b1000 2
b1101 4
b1100 6
b0 8
b1000 :
b1111 <
b0 >
b1110 @
b1001 B
b1111 D
b1110 F
b100 H
b1011 J
b11 L
b1100 N
b1011 P
b1101010000111001101100100100100110101110000010111101100000110011110101011110000 +
b101010000111001101100100100100110101110000010111101100000100000110101011110000 ,
b1011110000111011010011101111100111100000111110000000110011011000 !
b1011110000111011010011101111100111100000111110000000110011011000 *
b1011110000111011010011101111100111100000111110000000110011011000 '
b10011 1
b11001001001001101011100000101111011000001000001101010111100000010101000011100110 0
b111010100011101111101101101011010000000011110110101101101011001 /
1"
#200000
0"
#205000
b101101101110101100010010000110111001111101100111101010101100011 -
b101101101110101100010010000110111001111101100111101010101100011 S
b1111 3
b11 5
b1100 7
b100 9
b1010 ;
b1011 =
b1001 ?
b10 A
b1111 C
b1010 E
b11 G
b1110 I
b1001 K
b0 M
b1011 O
b111101100001001111000111010111100101001101110100100110000111111 .
b111101100001001111000111010111100101001101110100100110000111111 R
b111 Q
b1011 U
b1010 2
b1000 4
b0 6
b1100 8
b110 :
b11 <
b100 >
b1111 @
b1010 B
b110 D
b1000 F
b1001 H
b100 J
b101 L
b11 N
b1101 P
b11 T
b1101001101010100100110000110101011110100001101101100000010001010 !
b1101001101010100100110000110101011110100001101101100000010001010 *
b1101001101010100100110000110101011110100001101101100000010001010 '
b111101010111100000110101000011100110110010010010011010111000001011110110000011 ,
b10111101010111100000110101000011100110110010010010011010111010101011110110000011 +
b1011100101001000010000010100111000100011001100110010110010010011 /
b1101010000111001101100100100100110101110000010111101100000110011110101011110000 0
b10100 1
1"
#210000
0"
#215000
b1110 3
b1101 ;
b101011001111001001000000011000101101000001001111000111101011010 -
b101011001111001001000000011000101101000001001111000111101011010 S
b1001 2
b111 :
b0 U
b11 5
b10 7
b1001 9
b1110 =
b1001 ?
b0 A
b1 C
b1001 E
b1001 G
b11 I
b1000 K
b110 M
b1010 O
b1101001101000001110011001000100001001111011011001001000111110 .
b1101001101000001110011001000100001001111011011001001000111110 R
b1 Q
b101 T
b1000 4
b1111 6
b100 8
b1001 <
b100 >
b101 @
b1110 B
b100 D
b100 F
b1000 H
b1011 J
b10 L
b110 N
b1110 P
b111101100000111011110101011110000011010100001110011011011100001001101011101 +
b1010111101100000111011110101011110000011010100001110011011001001001001101011101 ,
b1110011000101011100001000100111001010100100101110100111110001001 !
b1110011000101011100001000100111001010100100101110100111110001001 *
b1110011000101011100001000100111001010100100101110100111110001001 '
b10101 1
b10111101010111100000110101000011100110110010010010011010111010101011110110000011 0
b101101101110101100010010000110111001111101100111101010101100011 /
1"
#220000
0"
#225000
b1011111000011011101111100010000010011111110100100010110100011 -
b1011111000011011101111100010000010011111110100100010110100011 S
b1001 3
b1011 5
b100 7
b10 9
b10 ;
b11 =
b1110 ?
b1111 A
b1111 C
b1110 E
b1101 G
b0 I
b1110 K
b100 M
b101 O
b10101001110000011011110111111111110001100100010010010111001 .
b10101001110000011011110111111111110001100100010010010111001 R
b0 Q
b100 U
b100 2
b11 4
b1100 6
b1111 8
b1111 :
b1000 <
b1001 >
b1010 @
b1010 B
b1001 D
b111 F
b101 H
b1001 J
b1100 L
b1 N
b101 P
b1100 T
b101000111001001010101111001101010101001100011111111110000110100 !
b101000111001001010101111001101010101001100011111111110000110100 *
b101000111001001010101111001101010101001100011111111110000110100 '
b11000010011010111010000011110110000011101111010101111000001101010000111001101101 ,
b1000010011010111010000011110110000011101111010101111000001111100000111001101101 +
b101011001111001001000000011000101101000001001111000111101011010 /
b111101100000111011110101011110000011010100001110011011011100001001101011101 0
b10110 1
1"
#230000
0"
#235000
b10011000101010001011011110011100111011010111110011111011001101 -
b10011000101010001011011110011100111011010111110011111011001101 S
b111 3
b1110 5
b111 7
b1011 9
b10 ;
b1100 =
b111 ?
b101 A
b110 C
b1011 E
b1101 G
b111 I
b11 K
b1111 M
b0 O
b11110011011111011011011001010111110000101011011111100111 .
b11110011011111011011011001010111110000101011011111100111 R
b0 Q
b1101 2
b1001 4
b1101 6
b11 8
b1111 :
b0 <
b1101 >
b1 @
b10 B
b11 D
b111 F
b1101 H
b1000 J
b1010 L
b101 N
b101 P
b1000001110011011010100001001101011101000001111011000001110101010010111100000111 +
b11000001110011011010100001001101011101000001111011000001110111101010111100000111 ,
b101010110101000110101110011001000011101000011110011110110011101 !
b101010110101000110101110011001000011101000011110011110110011101 *
b101010110101000110101110011001000011101000011110011110110011101 '
b10111 1
b1000010011010111010000011110110000011101111010101111000001111100000111001101101 0
b1011111000011011101111100010000010011111110100100010110100011 /
1"
#240000
0"
#245000
b1101001110100000010100110001001010001011010011010111101110110011 -
b1101001110100000010100110001001010001011010011010111101110110011 S
b11 3
b101 5
b10 7
b10 9
b101 ;
b1001 =
b10 ?
b1001 A
b1111 C
b1111 E
b0 G
b11 I
b1101 K
b1 M
b1101 O
b1010110100011101001100001111111110010010100101010010001001010011 .
b1010110100011101001100001111111110010010100101010010001001010011 R
b1010 Q
b1111 U
b1000 2
b1 4
b1111 6
b1111 8
b1 :
b100 <
b1111 >
b100 @
b1010 B
b1010 D
b101 F
b1000 H
b111 J
b1110 L
b111 N
b110 P
b1010 T
b110011111100111100001011010101001001111010000011111111100011000 !
b110011111100111100001011010101001001111010000011111111100011000 *
b110011111100111100001011010101001001111010000011111111100011000 '
b10100101111000001110100000111001101101010000100110101110100000111101100000111010 ,
b11110101111000001110100000111001101101010000100110101110100011111101100000111010 +
b10011000101010001011011110011100111011010111110011111011001101 /
b1000001110011011010100001001101011101000001111011000001110101010010111100000111 0
b11000 1
1"
#250000
0"
#255000
b1 ?
b111110110110010100100100000100111000010100010100010000011111010 -
b111110110110010100100100000100111000010100010100010000011111010 S
b1110 >
b10 U
b100 3
b1011 5
b0 7
b111 9
b1001 ;
b1001 =
b1011 A
b1000 C
b110 E
b1000 G
b1000 I
b1100 K
b1001 M
b1010 O
b110101010011100100010000110100010110001100110010111000010110100 .
b110101010011100100010000110100010110001100110010111000010110100 R
b110 Q
b1111 T
b1100 2
b11 4
b101 6
b1101 8
b100 :
b100 <
b11 @
b1011 B
b10 D
b1011 F
b1011 H
b0 J
b100 L
b110 N
b10 P
b101011000001110101111010111100000111010000011100110110101011011011010111010001 +
b11111011000001110101111010111100000111010000011100110110101000010011010111010001 ,
b10011001000000101110110010101100111110010001001101010100111100 !
b10011001000000101110110010101100111110010001001101010100111100 *
b10011001000000101110110010101100111110010001001101010100111100 '
b11001 1
b11110101111000001110100000111001101101010000100110101110100011111101100000111010 0
b1101001110100000010100110001001010001011010011010111101110110011 /
1"
#260000
0"
#265000
b110001000000101000011001001100101000000111101000000000010111001 -
b110001000000101000011001001100101000000111101000000000010111001 S
b1101 3
b0 5
b1010 7
b101 9
b111 ;
b11 =
b10 ?
b111 A
b0 C
b1000 E
b100 G
b100 I
b0 K
b1000 M
b101010000000010001001000000001110010001101110101101000001101 .
b101010000000010001001000000001110010001101110101101000001101 R
b0 Q
b1000 U
b111 2
b101 4
b110 6
b1 8
b1101 :
b1000 <
b1111 >
b1101 @
b101 B
b1011 D
b1100 F
b1100 H
b101 J
b1011 L
b101 P
b1011 T
b101011010110101110011001011010111011111100011010001011001010111 !
b101011010110101110011001011010111011111100011010001011001010111 *
b101011010110101110011001011010111011111100011010001011001010111 '
b10110110101110100010010101100000111010111101011110000011101000001110011011010101 ,
b10000110101110100010010101100000111010111101011110000011101011011110011011010101 +
b111110110110010100100100000100111000010100010100010000011111010 /
b101011000001110101111010111100000111010000011100110110101011011011010111010001 0
b11010 1
1"
#270000
0"
