data/AES_PPRM3/AES_PPRM3.vcd
$date
	Mon Sep 29 16:58:01 2025
$end
$version
	Icarus Verilog
$end
$timescale
	1ps
$end
$scope module AES_PPRM3_bench $end
$var wire 1 ! Kvld_PPRM3 $end
$var wire 1 " Dvld_PPRM3 $end
$var wire 128 # Dout_PPRM3 [127:0] $end
$var wire 1 $ BSY_PPRM3 $end
$var reg 1 % CLK $end
$var reg 128 & CT [127:0] $end
$var reg 128 ' Din [127:0] $end
$var reg 1 ( Drdy $end
$var reg 1 ) EN $end
$var reg 1 * EncDec $end
$var reg 128 + KD [127:0] $end
$var reg 128 , KE [127:0] $end
$var reg 128 - Kin [127:0] $end
$var reg 1 . Krdy $end
$var reg 128 / PT [127:0] $end
$var reg 1 0 RSTn $end
$scope module AES_PPRM3 $end
$var wire 1 $ BSY $end
$var wire 1 % CLK $end
$var wire 128 1 Din [127:0] $end
$var wire 128 2 Dout [127:0] $end
$var wire 1 ( Drdy $end
$var wire 1 3 Dvld_D $end
$var wire 1 4 Dvld_tmp $end
$var wire 1 ) EN $end
$var wire 1 5 EN_D $end
$var wire 1 6 EN_E $end
$var wire 128 7 Kin [127:0] $end
$var wire 1 . Krdy $end
$var wire 1 8 Kvld_D $end
$var wire 1 9 Kvld_tmp $end
$var wire 1 0 RSTn $end
$var wire 1 : Kvld_E $end
$var wire 1 ! Kvld $end
$var wire 1 ; Dvld_E $end
$var wire 1 " Dvld $end
$var wire 128 < Dout_E [127:0] $end
$var wire 1 = BSY_E $end
$var reg 1 > Dvld_reg $end
$var reg 1 ? Kvld_reg $end
$scope module AES_PPRM3_ENC $end
$var wire 1 % CLK $end
$var wire 128 @ Din [127:0] $end
$var wire 128 A Dout [127:0] $end
$var wire 1 ( Drdy $end
$var wire 1 6 EN $end
$var wire 128 B Kin [127:0] $end
$var wire 1 . Krdy $end
$var wire 1 0 RSTn $end
$var wire 1 : Kvld $end
$var wire 128 C Knext [127:0] $end
$var wire 1 ; Dvld $end
$var wire 128 D Dnext [127:0] $end
$var wire 1 = BSY $end
$var reg 1 = BSYrg $end
$var reg 128 E Drg [127:0] $end
$var reg 1 ; Dvldrg $end
$var reg 128 F Krg [127:0] $end
$var reg 128 G KrgX [127:0] $end
$var reg 1 : Kvldrg $end
$var reg 10 H Rrg [9:0] $end
$scope module EC $end
$var wire 10 I Rrg [9:0] $end
$var wire 128 J di [127:0] $end
$var wire 128 K do [127:0] $end
$var wire 128 L ki [127:0] $end
$var wire 128 M sr [127:0] $end
$var wire 32 N so [31:0] $end
$var wire 128 O sb [127:0] $end
$var wire 128 P mx [127:0] $end
$var wire 128 Q ko [127:0] $end
$scope function rcon $end
$var reg 10 R x [9:0] $end
$upscope $end
$scope module MX0 $end
$var wire 8 S b0 [7:0] $end
$var wire 8 T b1 [7:0] $end
$var wire 8 U b2 [7:0] $end
$var wire 8 V b3 [7:0] $end
$var wire 32 W x [31:0] $end
$var wire 32 X y [31:0] $end
$var wire 8 Y a3 [7:0] $end
$var wire 8 Z a2 [7:0] $end
$var wire 8 [ a1 [7:0] $end
$var wire 8 \ a0 [7:0] $end
$upscope $end
$scope module MX1 $end
$var wire 8 ] b0 [7:0] $end
$var wire 8 ^ b1 [7:0] $end
$var wire 8 _ b2 [7:0] $end
$var wire 8 ` b3 [7:0] $end
$var wire 32 a x [31:0] $end
$var wire 32 b y [31:0] $end
$var wire 8 c a3 [7:0] $end
$var wire 8 d a2 [7:0] $end
$var wire 8 e a1 [7:0] $end
$var wire 8 f a0 [7:0] $end
$upscope $end
$scope module MX2 $end
$var wire 8 g b0 [7:0] $end
$var wire 8 h b1 [7:0] $end
$var wire 8 i b2 [7:0] $end
$var wire 8 j b3 [7:0] $end
$var wire 32 k x [31:0] $end
$var wire 32 l y [31:0] $end
$var wire 8 m a3 [7:0] $end
$var wire 8 n a2 [7:0] $end
$var wire 8 o a1 [7:0] $end
$var wire 8 p a0 [7:0] $end
$upscope $end
$scope module MX3 $end
$var wire 8 q b0 [7:0] $end
$var wire 8 r b1 [7:0] $end
$var wire 8 s b2 [7:0] $end
$var wire 8 t b3 [7:0] $end
$var wire 32 u x [31:0] $end
$var wire 32 v y [31:0] $end
$var wire 8 w a3 [7:0] $end
$var wire 8 x a2 [7:0] $end
$var wire 8 y a1 [7:0] $end
$var wire 8 z a0 [7:0] $end
$upscope $end
$scope module SB0 $end
$var wire 32 { x [31:0] $end
$var wire 32 | y [31:0] $end
$scope module Sbox0 $end
$var wire 8 } x [7:0] $end
$var wire 8 ~ y [7:0] $end
$var wire 4 !" d [3:0] $end
$var wire 4 "" c [3:0] $end
$var wire 4 #" b [3:0] $end
$var wire 4 $" a [3:0] $end
$upscope $end
$scope module Sbox1 $end
$var wire 8 %" x [7:0] $end
$var wire 8 &" y [7:0] $end
$var wire 4 '" d [3:0] $end
$var wire 4 (" c [3:0] $end
$var wire 4 )" b [3:0] $end
$var wire 4 *" a [3:0] $end
$upscope $end
$scope module Sbox2 $end
$var wire 8 +" x [7:0] $end
$var wire 8 ," y [7:0] $end
$var wire 4 -" d [3:0] $end
$var wire 4 ." c [3:0] $end
$var wire 4 /" b [3:0] $end
$var wire 4 0" a [3:0] $end
$upscope $end
$scope module Sbox3 $end
$var wire 8 1" x [7:0] $end
$var wire 8 2" y [7:0] $end
$var wire 4 3" d [3:0] $end
$var wire 4 4" c [3:0] $end
$var wire 4 5" b [3:0] $end
$var wire 4 6" a [3:0] $end
$upscope $end
$upscope $end
$scope module SB1 $end
$var wire 32 7" x [31:0] $end
$var wire 32 8" y [31:0] $end
$scope module Sbox0 $end
$var wire 8 9" x [7:0] $end
$var wire 8 :" y [7:0] $end
$var wire 4 ;" d [3:0] $end
$var wire 4 <" c [3:0] $end
$var wire 4 =" b [3:0] $end
$var wire 4 >" a [3:0] $end
$upscope $end
$scope module Sbox1 $end
$var wire 8 ?" x [7:0] $end
$var wire 8 @" y [7:0] $end
$var wire 4 A" d [3:0] $end
$var wire 4 B" c [3:0] $end
$var wire 4 C" b [3:0] $end
$var wire 4 D" a [3:0] $end
$upscope $end
$scope module Sbox2 $end
$var wire 8 E" x [7:0] $end
$var wire 8 F" y [7:0] $end
$var wire 4 G" d [3:0] $end
$var wire 4 H" c [3:0] $end
$var wire 4 I" b [3:0] $end
$var wire 4 J" a [3:0] $end
$upscope $end
$scope module Sbox3 $end
$var wire 8 K" x [7:0] $end
$var wire 8 L" y [7:0] $end
$var wire 4 M" d [3:0] $end
$var wire 4 N" c [3:0] $end
$var wire 4 O" b [3:0] $end
$var wire 4 P" a [3:0] $end
$upscope $end
$upscope $end
$scope module SB2 $end
$var wire 32 Q" x [31:0] $end
$var wire 32 R" y [31:0] $end
$scope module Sbox0 $end
$var wire 8 S" x [7:0] $end
$var wire 8 T" y [7:0] $end
$var wire 4 U" d [3:0] $end
$var wire 4 V" c [3:0] $end
$var wire 4 W" b [3:0] $end
$var wire 4 X" a [3:0] $end
$upscope $end
$scope module Sbox1 $end
$var wire 8 Y" x [7:0] $end
$var wire 8 Z" y [7:0] $end
$var wire 4 [" d [3:0] $end
$var wire 4 \" c [3:0] $end
$var wire 4 ]" b [3:0] $end
$var wire 4 ^" a [3:0] $end
$upscope $end
$scope module Sbox2 $end
$var wire 8 _" x [7:0] $end
$var wire 8 `" y [7:0] $end
$var wire 4 a" d [3:0] $end
$var wire 4 b" c [3:0] $end
$var wire 4 c" b [3:0] $end
$var wire 4 d" a [3:0] $end
$upscope $end
$scope module Sbox3 $end
$var wire 8 e" x [7:0] $end
$var wire 8 f" y [7:0] $end
$var wire 4 g" d [3:0] $end
$var wire 4 h" c [3:0] $end
$var wire 4 i" b [3:0] $end
$var wire 4 j" a [3:0] $end
$upscope $end
$upscope $end
$scope module SB3 $end
$var wire 32 k" x [31:0] $end
$var wire 32 l" y [31:0] $end
$scope module Sbox0 $end
$var wire 8 m" x [7:0] $end
$var wire 8 n" y [7:0] $end
$var wire 4 o" d [3:0] $end
$var wire 4 p" c [3:0] $end
$var wire 4 q" b [3:0] $end
$var wire 4 r" a [3:0] $end
$upscope $end
$scope module Sbox1 $end
$var wire 8 s" x [7:0] $end
$var wire 8 t" y [7:0] $end
$var wire 4 u" d [3:0] $end
$var wire 4 v" c [3:0] $end
$var wire 4 w" b [3:0] $end
$var wire 4 x" a [3:0] $end
$upscope $end
$scope module Sbox2 $end
$var wire 8 y" x [7:0] $end
$var wire 8 z" y [7:0] $end
$var wire 4 {" d [3:0] $end
$var wire 4 |" c [3:0] $end
$var wire 4 }" b [3:0] $end
$var wire 4 ~" a [3:0] $end
$upscope $end
$scope module Sbox3 $end
$var wire 8 !# x [7:0] $end
$var wire 8 "# y [7:0] $end
$var wire 4 ## d [3:0] $end
$var wire 4 $# c [3:0] $end
$var wire 4 %# b [3:0] $end
$var wire 4 &# a [3:0] $end
$upscope $end
$upscope $end
$scope module SBK $end
$var wire 32 '# x [31:0] $end
$var wire 32 (# y [31:0] $end
$scope module Sbox0 $end
$var wire 8 )# x [7:0] $end
$var wire 8 *# y [7:0] $end
$var wire 4 +# d [3:0] $end
$var wire 4 ,# c [3:0] $end
$var wire 4 -# b [3:0] $end
$var wire 4 .# a [3:0] $end
$upscope $end
$scope module Sbox1 $end
$var wire 8 /# x [7:0] $end
$var wire 8 0# y [7:0] $end
$var wire 4 1# d [3:0] $end
$var wire 4 2# c [3:0] $end
$var wire 4 3# b [3:0] $end
$var wire 4 4# a [3:0] $end
$upscope $end
$scope module Sbox2 $end
$var wire 8 5# x [7:0] $end
$var wire 8 6# y [7:0] $end
$var wire 4 7# d [3:0] $end
$var wire 4 8# c [3:0] $end
$var wire 4 9# b [3:0] $end
$var wire 4 :# a [3:0] $end
$upscope $end
$scope module Sbox3 $end
$var wire 8 ;# x [7:0] $end
$var wire 8 <# y [7:0] $end
$var wire 4 =# d [3:0] $end
$var wire 4 ># c [3:0] $end
$var wire 4 ?# b [3:0] $end
$var wire 4 @# a [3:0] $end
$upscope $end
$upscope $end
$upscope $end
$upscope $end
$upscope $end
$upscope $end
$enddefinitions $end
#0
$dumpvars
bx @#
bx ?#
bx >#
bx =#
bx <#
bx ;#
bx :#
bx 9#
bx 8#
bx 7#
bx 6#
bx 5#
bx 4#
bx 3#
bx 2#
bx 1#
bx 0#
bx /#
bx .#
bx -#
bx ,#
bx +#
bx *#
bx )#
bx (#
bx '#
bx &#
bx %#
bx $#
bx ##
bx "#
bx !#
bx ~"
bx }"
bx |"
bx {"
bx z"
bx y"
bx x"
bx w"
bx v"
bx u"
bx t"
bx s"
bx r"
bx q"
bx p"
bx o"
bx n"
bx m"
bx l"
bx k"
bx j"
bx i"
bx h"
bx g"
bx f"
bx e"
bx d"
bx c"
bx b"
bx a"
bx `"
bx _"
bx ^"
bx ]"
bx \"
bx ["
bx Z"
bx Y"
bx X"
bx W"
bx V"
bx U"
bx T"
bx S"
bx R"
bx Q"
bx P"
bx O"
bx N"
bx M"
bx L"
bx K"
bx J"
bx I"
bx H"
bx G"
bx F"
bx E"
bx D"
bx C"
bx B"
bx A"
bx @"
bx ?"
bx >"
bx ="
bx <"
bx ;"
bx :"
bx 9"
bx 8"
bx 7"
bx 6"
bx 5"
bx 4"
bx 3"
bx 2"
bx 1"
bx 0"
bx /"
bx ."
bx -"
bx ,"
bx +"
bx *"
bx )"
bx ("
bx '"
bx &"
bx %"
bx $"
bx #"
bx ""
bx !"
bx ~
bx }
bx |
bx {
bx z
bx y
bx x
bx w
bx v
bx u
bx t
bx s
bx r
bx q
bx p
bx o
bx n
bx m
bx l
bx k
bx j
bx i
bx h
bx g
bx f
bx e
bx d
bx c
bx b
bx a
bx `
bx _
bx ^
bx ]
bx \
bx [
bx Z
bx Y
bx X
bx W
bx V
bx U
bx T
bx S
bx R
bx Q
bx P
bx O
bx N
bx M
bx L
bx K
bx J
bx I
bx H
bx G
bx F
bx E
bx D
bx C
bx B
bx A
bx @
x?
x>
x=
bx <
x;
x:
x9
z8
bx 7
x6
05
x4
z3
bx 2
bx 1
x0
b100010010001000110011010001000101010101100110011101111000100010011001101010101011101111001100110111011110111011111111 /
x.
bx -
b10000001000000011000001000000010100000110000001110000100000001001000010100000101100001100000011010000111000001111 ,
b10011000100010001110101111111111000111001010001001010000101111111001100000111101001111000101101001101001010110011000011000101 +
x*
x)
x(
bx '
b1101001110001001110000011011000011010100111101100000100001100001101100011001101101101111000000001110000101101001100010101011010 &
1%
x$
bx #
x"
x!
$end
#5000
06
0)
00
0(
0.
0%
#10000
b0 =#
b0 7#
b0 1#
b0 +#
b0 >#
b0 8#
b0 2#
b0 ,#
b1100010011000110110001101100011011000100110001101100011011000110110001001100011011000110110001101100010011000110110001101100011 C
b1100010011000110110001101100011011000100110001101100011011000110110001001100011011000110110001101100010011000110110001101100011 Q
b1100011 <#
b1100011 6#
b1100011 0#
b1100011011000110110001101100011 N
b1100011011000110110001101100011 (#
b1100011 *#
0"
0!
b0 @#
b0 :#
b0 4#
b0 .#
b0 ?#
b0 9#
b0 3#
b0 -#
04
09
b0 ;#
b0 5#
b0 /#
b0 )#
b1 R
b0 '#
0?
0>
0$
0=
0;
0:
b1 H
b1 I
b0 G
b0 L
b0 F
1%
#15000
16
0%
1.
b10000001000000011000001000000010100000110000001110000100000001001000010100000101100001100000011010000111000001111 -
b10000001000000011000001000000010100000110000001110000100000001001000010100000101100001100000011010000111000001111 7
b10000001000000011000001000000010100000110000001110000100000001001000010100000101100001100000011010000111000001111 B
0*
1)
10
#20000
b1110110 0#
b10101011 6#
b11111110 *#
b11010111101010110111011011111110 N
b11010111101010110111011011111110 (#
b11010111 <#
b101 7#
b1110 +#
b101 =#
b1010 1#
1!
b1100 8#
b1000 -#
b1101 ,#
b0 @#
b1001 ?#
b1100 >#
b101 :#
b10 9#
b101 4#
b11 3#
b1000 2#
b0 .#
19
b1101 ;#
b1110 5#
b1111 /#
b1100 )#
b11010110101010100111010011111101110100101010111101110010111110101101101010100110011110001111000111010110101010110111011011111110 C
b11010110101010100111010011111101110100101010111101110010111110101101101010100110011110001111000111010110101010110111011011111110 Q
b1101000011100000111100001100 '#
1:
b10000001000000011000001000000010100000110000001110000100000001001000010100000101100001100000011010000111000001111 G
b10000001000000011000001000000010100000110000001110000100000001001000010100000101100001100000011010000111000001111 L
b10000001000000011000001000000010100000110000001110000100000001001000010100000101100001100000011010000111000001111 F
1%
#25000
0%
1(
b100010010001000110011010001000101010101100110011101111000100010011001101010101011101111001100110111011110111011111111 '
b100010010001000110011010001000101010101100110011101111000100010011001101010101011101111001100110111011110111011111111 1
b100010010001000110011010001000101010101100110011101111000100010011001101010101011101111001100110111011110111011111111 @
0.
#30000
b11101101110011111100100011010 X
b1010111111101011011110010010010 l
b10001001110110000001000011101000100001010101101011001110011010000010110100011000010000111101100011001011000100101000111111100100 D
b10001001110110000001000011101000100001010101101011001110011010000010110100011000010000111101100011001011000100101000111111100100 K
b1011111011100100110010000010101 v
b1011111011100100110010000010101010101111111010110111100100100101111011110111110001110110010100100011101101110011111100100011010 P
b11110111101111100011101100101001 b
b10011100 ]
b11100110 ^
b1010001 f
b1110000 V
b11010 U
b1011101 S
b110111 T
b10111101 `
b11000111 _
b1101 g
b1101001 j
b11100101 h
b10000001 i
b10110011 s
b11101111 q
b1101100 r
b11001010 Z
b11010000 [
b11001101 c
b1110000 d
b10110111 e
b1001 m
b10001100 z
b1010001 T"
b11001101011100001011011101010001 a
b100 p
b11001010 z"
b10110111 t"
b1001 f"
b11010000 Z"
b11001101 L"
b10111010 Y
b1110000 ,"
b10001100 ~
b1100000 n
b100 n"
b10111010 2"
b11100000 y
b1100000 F"
b11100000 @"
b1110 ["
b101 U"
b110 G"
b101 !"
b111 o"
b1000 a"
b100 A"
b1101 ;"
b0 ##
b11 {"
b10 u"
b1 g"
b11 M"
b1001 3"
b1111 -"
b1111 '"
b110000 t
b11100111 \
b11100001 o
b1010011 x
b10111010110010101101000011100111 W
b1001011000001110000100000100 k
b1001010100111101000001010001 R"
b1010011 `"
b11001101011000001110000011100111 8"
b11100111 :"
b10111010011100001110000110001100 |
b11100001 &"
b1100011 w
b0 $#
b10 |"
b11 v"
b1011 p"
b1 h"
b1010 b"
b1101 \"
b1100 V"
b10 N"
b1001 H"
b1111 B"
b1110 <"
b110 4"
b100 ."
b100 ("
b1100 ""
b1100011010100111110000010001100 u
b1100011010100111110000010001100000010010110000011100001000001001100110101110000101101110101000110111010110010101101000011100111 M
b1100011110010101011011100000100000010010101001111010000010100011100110101100000111000001110011110111010011100001110000110001100 O
b1100011110010101011011100000100 l"
b1100011 "#
b1100010 <#
b111000 6#
b1 4#
b10111011 0#
b1100010001110001011101111110110 N
b1100010001110001011101111110110 (#
b11110110 *#
b1011 +#
b1 =#
b1011 7#
b100 1#
b111 ,#
b0 &#
b100 ~"
b1011 x"
b1111 r"
b100 j"
b0 d"
b1111 ^"
b1011 X"
b1111 P"
b1011 J"
b100 D"
b0 >"
b1011 6"
b1111 0"
b0 *"
b100 $"
b110 @#
b0 ?#
b1 >#
b1001 :#
b111 8#
b1111 2#
b1101 .#
0!
b0 %#
b10 }"
b1011 w"
b1001 q"
b1111 i"
b1101 c"
b100 ]"
b110 W"
b11 O"
b1 I"
b1000 C"
b1010 ="
b1100 5"
b1110 /"
b111 )"
b101 #"
b111 9#
b111 3#
b1111 -#
b0 !#
b10000 y"
b100000 s"
b110000 m"
b1000000 e"
b1010000 _"
b1100000 Y"
b1110000 S"
b10000000 K"
b10010000 E"
b10100000 ?"
b10110000 9"
b11000000 1"
b11010000 +"
b11100000 %"
b11110000 }
b10101011 ;#
b1110110 5#
b11111110 /#
b11010110 )#
b10110110100100101100111100001011011001000011110110111101111100011011111010011011110001010000000001101000001100001011001111111110 C
b10110110100100101100111100001011011001000011110110111101111100011011111010011011110001010000000001101000001100001011001111111110 Q
b100000010000000110000 k"
b1000000010100000110000001110000 Q"
b10000000100100001010000010110000 7"
b11000000110100001110000011110000 {
b10101011011101101111111011010110 '#
b10 R
1?
1$
1=
b100000010000000110000010000000101000001100000011100001000000010010000101000001011000011000000110100001110000011110000 #
b100000010000000110000010000000101000001100000011100001000000010010000101000001011000011000000110100001110000011110000 2
b100000010000000110000010000000101000001100000011100001000000010010000101000001011000011000000110100001110000011110000 <
b100000010000000110000010000000101000001100000011100001000000010010000101000001011000011000000110100001110000011110000 A
b100000010000000110000010000000101000001100000011100001000000010010000101000001011000011000000110100001110000011110000 E
b100000010000000110000010000000101000001100000011100001000000010010000101000001011000011000000110100001110000011110000 J
b11010110101010100111010011111101110100101010111101110010111110101101101010100110011110001111000111010110101010110111011011111110 G
b11010110101010100111010011111101110100101010111101110010111110101101101010100110011110001111000111010110101010110111011011111110 L
b10 H
b10 I
1%
#35000
0%
0(
#40000
b10001111 ^
b11001010 e
b1000101 f
b1100100010100010101000111111010 b
b11111111100001111001011010000100 v
b1110111001110101101000000001001 X
b11111111100001111001011010000100001100011101100001101010010100010110010001010001010100011111101001110111001110101101000000001001 P
b110001110110000110101001010001 l
b11001 t
b10100111 w
b10111110 x
b10001011 [
b10011101 ]
b11 _
b10001 `
b10100100 s
b11001110 q
b1110011 r
b11101010 U
b1111110 V
b1111110 S
b11101010 T
b10101101 n
b111010 j
b11011110 i
b1100 g
b11101000 h
b11001010 t"
b1000101 T"
b11011000 c
b11001001 d
b11010 y
b1101001 z
b11111 Y
b1100001 Z
b1100001 \
b10010111 m
b1110011 o
b10011011 p
b10100111 "#
b10111110 `"
b11011000110010011100101001000101 a
b10100111101111100001101001101001 u
b11111011000011000101101100001 W
b110 -"
b10010111101011010111001110011011 k
b10001011 Z"
b10101101 F"
b11001001 ,"
b10100111101111100001101001101001100101111010110101110011100110111101100011001001110010100100010100011111011000011000101101100001 M
b1101001 ~
b100 <#
b1101101 6#
b100011011011011101101000101 N
b100011011011011101101000101 (#
b1000101 *#
b1100001 z"
b10 {"
b10100111011000011100101010011011 l"
b10011011 n"
b1 o"
b10010111101111101000101101000101 R"
b10010111 f"
b1001 a"
b101 U"
b11011000 L"
b1 I"
b1001 G"
b11010 @"
b11011000101011010001101001100001 8"
b1100001 :"
b11111 2"
b1001 ."
b10100111011000011100101010011011100101111011111010001011010001011101100010101101000110100110000100011111110010010111001101101001 O
b11111110010010111001101101001 |
b1110011 &"
b10 !"
b111 =#
b1 7#
b101 +#
b1101 ##
b11 u"
b1101 g"
b1001 ["
b1110 M"
b1101 A"
b10 ;"
b11 3"
b100 '"
b11 |"
b10 w"
b1 p"
b110 b"
b1000 X"
b111 W"
b1100 V"
b110 H"
b1100 #"
b11 ""
b1111 @#
b1001 ?#
b1011 >#
b101 :#
b1 8#
b1000 .#
b111 -#
b1100 ,#
b1000 &#
b1 %#
b1110 $#
b1000 ~"
b100 x"
b10 v"
b111 r"
b1000 j"
b1110 h"
b10 d"
b100 c"
b1110 ^"
b1110 ]"
b110 \"
b1011 P"
b10 O"
b1101 N"
b11 J"
b1 D"
b1110 B"
b1000 >"
b11 <"
b1001 6"
b100 5"
b10 4"
b1 0"
b1010 *"
b1111 ("
b111 $"
b1 9#
b1101 }"
b100 q"
b1001 i"
b100 C"
b1101 ="
b1000 /"
b0 )"
b110000 ;#
b10110011 5#
b1101000 )#
b10110110111111110111010001001110110100101100001011001001101111110110110001011001000011001011111100000100011010011011111101000001 C
b10110110111111110111010001001110110100101100001011001001101111110110110001011001000011001011111100000100011010011011111101000001 Q
b10001001 !#
b11011000 y"
b10000 s"
b11101000 m"
b10000101 e"
b1011010 _"
b11001110 Y"
b1101000 S"
b101101 K"
b11000 E"
b1000011 ?"
b11011000 9"
b11001011 1"
b10010 +"
b10001111 %"
b11100100 }
b1001001000101010101100110001111010101011110010111010111101000001101101011001010100101001111101000011111000010100110001111110111 D
b1001001000101010101100110001111010101011110010111010111101000001101101011001010100101001111101000011111000010100110001111110111 K
b110000101100111111111001101000 '#
b100 R
b10001001110110000001000011101000 k"
b10000101010110101100111001101000 Q"
b101101000110000100001111011000 7"
b11001011000100101000111111100100 {
b10110110100100101100111100001011011001000011110110111101111100011011111010011011110001010000000001101000001100001011001111111110 G
b10110110100100101100111100001011011001000011110110111101111100011011111010011011110001010000000001101000001100001011001111111110 L
b100 H
b100 I
b10001001110110000001000011101000100001010101101011001110011010000010110100011000010000111101100011001011000100101000111111100100 #
b10001001110110000001000011101000100001010101101011001110011010000010110100011000010000111101100011001011000100101000111111100100 2
b10001001110110000001000011101000100001010101101011001110011010000010110100011000010000111101100011001011000100101000111111100100 <
b10001001110110000001000011101000100001010101101011001110011010000010110100011000010000111101100011001011000100101000111111100100 A
b10001001110110000001000011101000100001010101101011001110011010000010110100011000010000111101100011001011000100101000111111100100 E
b10001001110110000001000011101000100001010101101011001110011010000010110100011000010000111101100011001011000100101000111111100100 J
1%
#45000
0%
#50000
b101100001111111000011010001110 b
b1001100100111000001111001100110 v
b1010011010011011111001001010110 X
b1100111 d
b1001100100111000001111001100110111101110111000111110000011101100010110000111111100001101000111001010011010011011111001001010110 P
b11110111011100011111000001110110 l
b110000 `
b10101100 _
b10110111 ]
b101011 ^
b11100010 t
b11111011 s
b1010011 q
b1001010 r
b101101 \
b11101101 S
b10011001 V
b100011 T
b1010111 U
b10001000 j
b10001111 i
b10001111 g
b10001000 h
b1010111 c
b11001011 e
b11100000 f
b111011 w
b11011001 x
b100010 y
b1101000 z
b11000000 Y
b1011001 Z
b1110 [
b1100111 ,"
b11111100 m
b1110100 n
b11111011 o
b1110011 p
b10000011 0#
b1010111011001111100101111100000 a
b111011110110010010001001101000 u
b11000000010110010000111000101101 W
b11111100011101001111101101110011 k
b1000 6#
b101101 :"
b111011110110010010001001101000111111000111010011111011011100110101011101100111110010111110000011000000010110010000111000101101 M
b1101000 ~
b11111001 <#
b100 7#
b11111001000010001000001111110010 N
b11111001000010001000001111110010 (#
b11110010 *#
b111011 "#
b1100 ##
b1011001 z"
b11001011 t"
b111011010110011100101101110011 l"
b1110011 n"
b11111100 f"
b1110 g"
b11011001 `"
b1110 Z"
b11111100110110010000111011100000 R"
b11100000 T"
b100 U"
b1010111 L"
b1110100 F"
b1000 G"
b1010111011101000010001000101101 8"
b100010 @"
b11000000 2"
b101 3"
b1000 -"
b111011010110011100101101110011111111001101100100001110111000000101011101110100001000100010110111000000011001111111101101101000 O
b11000000011001111111101101101000 |
b11111011 &"
b1100 =#
b1111 1#
b10 +#
b1110 {"
b100 u"
b100 o"
b1100 a"
b111 ["
b1111 M"
b11 A"
b10 ;"
b1 '"
b1101 !"
b1000 @#
b1001 9#
b1111 8#
b101 $#
b111 x"
b1101 h"
b1101 ^"
b1111 V"
b1010 H"
b1100 4"
b10 0"
b1001 /"
b1010 ."
b101 >#
b101 :#
b100 4#
b1110 3#
b100 2#
b111 .#
b11 ,#
b11 &#
b11 ~"
b1101 |"
b1111 v"
b1010 r"
b1111 p"
b111 j"
b111 d"
b1101 c"
b101 b"
b1110 ]"
b1011 \"
b100 X"
b1101 P"
b100 N"
b1001 J"
b1100 D"
b10 B"
b110 >"
b1100 ="
b11 <"
b1 6"
b1010 *"
b1 ("
b110 $"
b101 #"
b1110 ""
b110 ?#
b1011 -#
b1101 %#
b1000 }"
b1111 w"
b0 q"
b111 i"
b1000 W"
b111 O"
b101 I"
b1010 C"
b1 5"
b1111 )"
b1101001 ;#
b10111111 5#
b1000001 /#
b100 )#
b1000111111101111111011110111100100101010011010100111110000000111111100101101100001100101011110011111101000001011000110111111101 C
b1000111111101111111011110111100100101010011010100111110000000111111100101101100001100101011110011111101000001011000110111111101 Q
b1001001 !#
b10101 y"
b1011001 s"
b10001111 m"
b1010101 e"
b11100101 _"
b11010111 Y"
b10100000 S"
b11011010 K"
b11001010 E"
b10010100 ?"
b11111010 9"
b11111 1"
b1010 +"
b1100011 %"
b11110111 }
b11111010011000110110101000101000001001011011001100111001110010010100000001100110100010100011000101010111001001000100110100010111 D
b11111010011000110110101000101000001001011011001100111001110010010100000001100110100010100011000101010111001001000100110100010111 K
b1101001101111110100000100000100 '#
b1000 R
b1001001000101010101100110001111 k"
b1010101111001011101011110100000 Q"
b11011010110010101001010011111010 7"
b11111000010100110001111110111 {
b10110110111111110111010001001110110100101100001011001001101111110110110001011001000011001011111100000100011010011011111101000001 G
b10110110111111110111010001001110110100101100001011001001101111110110110001011001000011001011111100000100011010011011111101000001 L
b1000 H
b1000 I
b1001001000101010101100110001111010101011110010111010111101000001101101011001010100101001111101000011111000010100110001111110111 #
b1001001000101010101100110001111010101011110010111010111101000001101101011001010100101001111101000011111000010100110001111110111 2
b1001001000101010101100110001111010101011110010111010111101000001101101011001010100101001111101000011111000010100110001111110111 <
b1001001000101010101100110001111010101011110010111010111101000001101101011001010100101001111101000011111000010100110001111110111 A
b1001001000101010101100110001111010101011110010111010111101000001101101011001010100101001111101000011111000010100110001111110111 E
b1001001000101010101100110001111010101011110010111010111101000001101101011001010100101001111101000011111000010100110001111110111 J
1%
#55000
0%
