data/AES_PPRM3/AES_PPRM3.vcd
$date
	Thu Sep 18 13:07:35 2025
$end
$version
	Icarus Verilog
$end
$timescale
	1ps
$end
$scope module AES_PPRM3_tb_bench $end
$var wire 1 ! hahaha $end
$var reg 1 " DEFAULT_CLOCK $end
$var reg 1 # DEFAULT_RESET $end
$var reg 1 $ clkk $end
$var reg 1 % rstt $end
$scope module AES_PPRM3_tb_ $end
$var wire 1 $ clkk $end
$var wire 1 ! hahaha $end
$var wire 1 % rstt $end
$var wire 1 & Kvld_PPRM3 $end
$var wire 1 ' Dvld_PPRM3 $end
$var wire 128 ( Dout_PPRM3 [127:0] $end
$var wire 1 ) BSY_PPRM3 $end
$var reg 1 * CLK $end
$var reg 128 + CT [127:0] $end
$var reg 128 , Din [127:0] $end
$var reg 1 - Drdy $end
$var reg 1 . EN $end
$var reg 1 / EncDec $end
$var reg 128 0 KD [127:0] $end
$var reg 128 1 KE [127:0] $end
$var reg 128 2 Kin [127:0] $end
$var reg 1 3 Krdy $end
$var reg 128 4 PT [127:0] $end
$var reg 1 5 RSTn $end
$scope module AES_PPRM3 $end
$var wire 1 ) BSY $end
$var wire 1 * CLK $end
$var wire 128 6 Din [127:0] $end
$var wire 128 7 Dout [127:0] $end
$var wire 1 - Drdy $end
$var wire 1 8 Dvld_D $end
$var wire 1 9 Dvld_tmp $end
$var wire 1 . EN $end
$var wire 1 : EN_D $end
$var wire 1 ; EN_E $end
$var wire 128 < Kin [127:0] $end
$var wire 1 3 Krdy $end
$var wire 1 = Kvld_D $end
$var wire 1 > Kvld_tmp $end
$var wire 1 5 RSTn $end
$var wire 1 ? Kvld_E $end
$var wire 1 & Kvld $end
$var wire 1 @ Dvld_E $end
$var wire 1 ' Dvld $end
$var wire 128 A Dout_E [127:0] $end
$var wire 1 B BSY_E $end
$var reg 1 C Dvld_reg $end
$var reg 1 D Kvld_reg $end
$scope module AES_PPRM3_ENC $end
$var wire 1 * CLK $end
$var wire 128 E Din [127:0] $end
$var wire 128 F Dout [127:0] $end
$var wire 1 - Drdy $end
$var wire 1 ; EN $end
$var wire 128 G Kin [127:0] $end
$var wire 1 3 Krdy $end
$var wire 1 5 RSTn $end
$var wire 1 ? Kvld $end
$var wire 128 H Knext [127:0] $end
$var wire 1 @ Dvld $end
$var wire 128 I Dnext [127:0] $end
$var wire 1 B BSY $end
$var reg 1 B BSYrg $end
$var reg 128 J Drg [127:0] $end
$var reg 1 @ Dvldrg $end
$var reg 128 K Krg [127:0] $end
$var reg 128 L KrgX [127:0] $end
$var reg 1 ? Kvldrg $end
$var reg 10 M Rrg [9:0] $end
$scope module EC $end
$var wire 10 N Rrg [9:0] $end
$var wire 128 O di [127:0] $end
$var wire 128 P do [127:0] $end
$var wire 128 Q ki [127:0] $end
$var wire 128 R sr [127:0] $end
$var wire 32 S so [31:0] $end
$var wire 128 T sb [127:0] $end
$var wire 128 U mx [127:0] $end
$var wire 128 V ko [127:0] $end
$scope function rcon $end
$var reg 10 W x [9:0] $end
$upscope $end
$scope module MX0 $end
$var wire 8 X b0 [7:0] $end
$var wire 8 Y b1 [7:0] $end
$var wire 8 Z b2 [7:0] $end
$var wire 8 [ b3 [7:0] $end
$var wire 32 \ x [31:0] $end
$var wire 32 ] y [31:0] $end
$var wire 8 ^ a3 [7:0] $end
$var wire 8 _ a2 [7:0] $end
$var wire 8 ` a1 [7:0] $end
$var wire 8 a a0 [7:0] $end
$upscope $end
$scope module MX1 $end
$var wire 8 b b0 [7:0] $end
$var wire 8 c b1 [7:0] $end
$var wire 8 d b2 [7:0] $end
$var wire 8 e b3 [7:0] $end
$var wire 32 f x [31:0] $end
$var wire 32 g y [31:0] $end
$var wire 8 h a3 [7:0] $end
$var wire 8 i a2 [7:0] $end
$var wire 8 j a1 [7:0] $end
$var wire 8 k a0 [7:0] $end
$upscope $end
$scope module MX2 $end
$var wire 8 l b0 [7:0] $end
$var wire 8 m b1 [7:0] $end
$var wire 8 n b2 [7:0] $end
$var wire 8 o b3 [7:0] $end
$var wire 32 p x [31:0] $end
$var wire 32 q y [31:0] $end
$var wire 8 r a3 [7:0] $end
$var wire 8 s a2 [7:0] $end
$var wire 8 t a1 [7:0] $end
$var wire 8 u a0 [7:0] $end
$upscope $end
$scope module MX3 $end
$var wire 8 v b0 [7:0] $end
$var wire 8 w b1 [7:0] $end
$var wire 8 x b2 [7:0] $end
$var wire 8 y b3 [7:0] $end
$var wire 32 z x [31:0] $end
$var wire 32 { y [31:0] $end
$var wire 8 | a3 [7:0] $end
$var wire 8 } a2 [7:0] $end
$var wire 8 ~ a1 [7:0] $end
$var wire 8 !" a0 [7:0] $end
$upscope $end
$scope module SB0 $end
$var wire 32 "" x [31:0] $end
$var wire 32 #" y [31:0] $end
$scope module Sbox0 $end
$var wire 8 $" x [7:0] $end
$var wire 8 %" y [7:0] $end
$var wire 4 &" d [3:0] $end
$var wire 4 '" c [3:0] $end
$var wire 4 (" b [3:0] $end
$var wire 4 )" a [3:0] $end
$upscope $end
$scope module Sbox1 $end
$var wire 8 *" x [7:0] $end
$var wire 8 +" y [7:0] $end
$var wire 4 ," d [3:0] $end
$var wire 4 -" c [3:0] $end
$var wire 4 ." b [3:0] $end
$var wire 4 /" a [3:0] $end
$upscope $end
$scope module Sbox2 $end
$var wire 8 0" x [7:0] $end
$var wire 8 1" y [7:0] $end
$var wire 4 2" d [3:0] $end
$var wire 4 3" c [3:0] $end
$var wire 4 4" b [3:0] $end
$var wire 4 5" a [3:0] $end
$upscope $end
$scope module Sbox3 $end
$var wire 8 6" x [7:0] $end
$var wire 8 7" y [7:0] $end
$var wire 4 8" d [3:0] $end
$var wire 4 9" c [3:0] $end
$var wire 4 :" b [3:0] $end
$var wire 4 ;" a [3:0] $end
$upscope $end
$upscope $end
$scope module SB1 $end
$var wire 32 <" x [31:0] $end
$var wire 32 =" y [31:0] $end
$scope module Sbox0 $end
$var wire 8 >" x [7:0] $end
$var wire 8 ?" y [7:0] $end
$var wire 4 @" d [3:0] $end
$var wire 4 A" c [3:0] $end
$var wire 4 B" b [3:0] $end
$var wire 4 C" a [3:0] $end
$upscope $end
$scope module Sbox1 $end
$var wire 8 D" x [7:0] $end
$var wire 8 E" y [7:0] $end
$var wire 4 F" d [3:0] $end
$var wire 4 G" c [3:0] $end
$var wire 4 H" b [3:0] $end
$var wire 4 I" a [3:0] $end
$upscope $end
$scope module Sbox2 $end
$var wire 8 J" x [7:0] $end
$var wire 8 K" y [7:0] $end
$var wire 4 L" d [3:0] $end
$var wire 4 M" c [3:0] $end
$var wire 4 N" b [3:0] $end
$var wire 4 O" a [3:0] $end
$upscope $end
$scope module Sbox3 $end
$var wire 8 P" x [7:0] $end
$var wire 8 Q" y [7:0] $end
$var wire 4 R" d [3:0] $end
$var wire 4 S" c [3:0] $end
$var wire 4 T" b [3:0] $end
$var wire 4 U" a [3:0] $end
$upscope $end
$upscope $end
$scope module SB2 $end
$var wire 32 V" x [31:0] $end
$var wire 32 W" y [31:0] $end
$scope module Sbox0 $end
$var wire 8 X" x [7:0] $end
$var wire 8 Y" y [7:0] $end
$var wire 4 Z" d [3:0] $end
$var wire 4 [" c [3:0] $end
$var wire 4 \" b [3:0] $end
$var wire 4 ]" a [3:0] $end
$upscope $end
$scope module Sbox1 $end
$var wire 8 ^" x [7:0] $end
$var wire 8 _" y [7:0] $end
$var wire 4 `" d [3:0] $end
$var wire 4 a" c [3:0] $end
$var wire 4 b" b [3:0] $end
$var wire 4 c" a [3:0] $end
$upscope $end
$scope module Sbox2 $end
$var wire 8 d" x [7:0] $end
$var wire 8 e" y [7:0] $end
$var wire 4 f" d [3:0] $end
$var wire 4 g" c [3:0] $end
$var wire 4 h" b [3:0] $end
$var wire 4 i" a [3:0] $end
$upscope $end
$scope module Sbox3 $end
$var wire 8 j" x [7:0] $end
$var wire 8 k" y [7:0] $end
$var wire 4 l" d [3:0] $end
$var wire 4 m" c [3:0] $end
$var wire 4 n" b [3:0] $end
$var wire 4 o" a [3:0] $end
$upscope $end
$upscope $end
$scope module SB3 $end
$var wire 32 p" x [31:0] $end
$var wire 32 q" y [31:0] $end
$scope module Sbox0 $end
$var wire 8 r" x [7:0] $end
$var wire 8 s" y [7:0] $end
$var wire 4 t" d [3:0] $end
$var wire 4 u" c [3:0] $end
$var wire 4 v" b [3:0] $end
$var wire 4 w" a [3:0] $end
$upscope $end
$scope module Sbox1 $end
$var wire 8 x" x [7:0] $end
$var wire 8 y" y [7:0] $end
$var wire 4 z" d [3:0] $end
$var wire 4 {" c [3:0] $end
$var wire 4 |" b [3:0] $end
$var wire 4 }" a [3:0] $end
$upscope $end
$scope module Sbox2 $end
$var wire 8 ~" x [7:0] $end
$var wire 8 !# y [7:0] $end
$var wire 4 "# d [3:0] $end
$var wire 4 ## c [3:0] $end
$var wire 4 $# b [3:0] $end
$var wire 4 %# a [3:0] $end
$upscope $end
$scope module Sbox3 $end
$var wire 8 &# x [7:0] $end
$var wire 8 '# y [7:0] $end
$var wire 4 (# d [3:0] $end
$var wire 4 )# c [3:0] $end
$var wire 4 *# b [3:0] $end
$var wire 4 +# a [3:0] $end
$upscope $end
$upscope $end
$scope module SBK $end
$var wire 32 ,# x [31:0] $end
$var wire 32 -# y [31:0] $end
$scope module Sbox0 $end
$var wire 8 .# x [7:0] $end
$var wire 8 /# y [7:0] $end
$var wire 4 0# d [3:0] $end
$var wire 4 1# c [3:0] $end
$var wire 4 2# b [3:0] $end
$var wire 4 3# a [3:0] $end
$upscope $end
$scope module Sbox1 $end
$var wire 8 4# x [7:0] $end
$var wire 8 5# y [7:0] $end
$var wire 4 6# d [3:0] $end
$var wire 4 7# c [3:0] $end
$var wire 4 8# b [3:0] $end
$var wire 4 9# a [3:0] $end
$upscope $end
$scope module Sbox2 $end
$var wire 8 :# x [7:0] $end
$var wire 8 ;# y [7:0] $end
$var wire 4 <# d [3:0] $end
$var wire 4 =# c [3:0] $end
$var wire 4 ># b [3:0] $end
$var wire 4 ?# a [3:0] $end
$upscope $end
$scope module Sbox3 $end
$var wire 8 @# x [7:0] $end
$var wire 8 A# y [7:0] $end
$var wire 4 B# d [3:0] $end
$var wire 4 C# c [3:0] $end
$var wire 4 D# b [3:0] $end
$var wire 4 E# a [3:0] $end
$upscope $end
$upscope $end
$upscope $end
$upscope $end
$upscope $end
$upscope $end
$upscope $end
$enddefinitions $end
#0
$dumpvars
bx E#
bx D#
bx C#
bx B#
bx A#
bx @#
bx ?#
bx >#
bx =#
bx <#
bx ;#
bx :#
bx 9#
bx 8#
bx 7#
bx 6#
bx 5#
bx 4#
bx 3#
bx 2#
bx 1#
bx 0#
bx /#
bx .#
bx -#
bx ,#
bx +#
bx *#
bx )#
bx (#
bx '#
bx &#
bx %#
bx $#
bx ##
bx "#
bx !#
bx ~"
bx }"
bx |"
bx {"
bx z"
bx y"
bx x"
bx w"
bx v"
bx u"
bx t"
bx s"
bx r"
bx q"
bx p"
bx o"
bx n"
bx m"
bx l"
bx k"
bx j"
bx i"
bx h"
bx g"
bx f"
bx e"
bx d"
bx c"
bx b"
bx a"
bx `"
bx _"
bx ^"
bx ]"
bx \"
bx ["
bx Z"
bx Y"
bx X"
bx W"
bx V"
bx U"
bx T"
bx S"
bx R"
bx Q"
bx P"
bx O"
bx N"
bx M"
bx L"
bx K"
bx J"
bx I"
bx H"
bx G"
bx F"
bx E"
bx D"
bx C"
bx B"
bx A"
bx @"
bx ?"
bx >"
bx ="
bx <"
bx ;"
bx :"
bx 9"
bx 8"
bx 7"
bx 6"
bx 5"
bx 4"
bx 3"
bx 2"
bx 1"
bx 0"
bx /"
bx ."
bx -"
bx ,"
bx +"
bx *"
bx )"
bx ("
bx '"
bx &"
bx %"
bx $"
bx #"
bx ""
bx !"
bx ~
bx }
bx |
bx {
bx z
bx y
bx x
bx w
bx v
bx u
bx t
bx s
bx r
bx q
bx p
bx o
bx n
bx m
bx l
bx k
bx j
bx i
bx h
bx g
bx f
bx e
bx d
bx c
bx b
bx a
bx `
bx _
bx ^
bx ]
bx \
bx [
bx Z
bx Y
bx X
bx W
bx V
bx U
bx T
bx S
bx R
bx Q
bx P
bx O
bx N
bx M
bx L
bx K
bx J
bx I
bx H
bx G
bx F
bx E
xD
xC
xB
bx A
x@
x?
x>
z=
bx <
x;
0:
x9
z8
bx 7
bx 6
x5
b100010010001000110011010001000101010101100110011101111000100010011001101010101011101111001100110111011110111011111111 4
x3
bx 2
b10000001000000011000001000000010100000110000001110000100000001001000010100000101100001100000011010000111000001111 1
b10011000100010001110101111111111000111001010001001010000101111111001100000111101001111000101101001101001010110011000011000101 0
x/
x.
x-
bx ,
b1101001110001001110000011011000011010100111101100000100001100001101100011001101101101111000000001110000101101001100010101011010 +
1*
x)
bx (
x'
x&
x%
x$
1#
1"
z!
$end
#5000
0;
0.
05
0-
03
0*
#10000
b0 B#
b0 <#
b0 6#
b0 0#
b0 C#
b0 =#
b0 7#
b0 1#
b1100010011000110110001101100011011000100110001101100011011000110110001001100011011000110110001101100010011000110110001101100011 H
b1100010011000110110001101100011011000100110001101100011011000110110001001100011011000110110001101100010011000110110001101100011 V
b1100011 A#
b1100011 ;#
b1100011 5#
b1100011011000110110001101100011 S
b1100011011000110110001101100011 -#
b1100011 /#
0'
0&
b0 E#
b0 ?#
b0 9#
b0 3#
b0 D#
b0 >#
b0 8#
b0 2#
09
0>
b0 @#
b0 :#
b0 4#
b0 .#
b1 W
b0 ,#
0D
0C
0)
0B
0@
0?
b1 M
b1 N
b0 L
b0 Q
b0 K
1*
#15000
1;
0*
13
b10000001000000011000001000000010100000110000001110000100000001001000010100000101100001100000011010000111000001111 2
b10000001000000011000001000000010100000110000001110000100000001001000010100000101100001100000011010000111000001111 <
b10000001000000011000001000000010100000110000001110000100000001001000010100000101100001100000011010000111000001111 G
0/
1.
15
#20000
b1110110 5#
b10101011 ;#
b11111110 /#
b11010111101010110111011011111110 S
b11010111101010110111011011111110 -#
b11010111 A#
b101 <#
b1110 0#
b101 B#
b1010 6#
1&
b1100 =#
b1000 2#
b1101 1#
b0 E#
b1001 D#
b1100 C#
b101 ?#
b10 >#
b101 9#
b11 8#
b1000 7#
b0 3#
1>
b1101 @#
b1110 :#
b1111 4#
b1100 .#
b11010110101010100111010011111101110100101010111101110010111110101101101010100110011110001111000111010110101010110111011011111110 H
b11010110101010100111010011111101110100101010111101110010111110101101101010100110011110001111000111010110101010110111011011111110 V
b1101000011100000111100001100 ,#
1?
b10000001000000011000001000000010100000110000001110000100000001001000010100000101100001100000011010000111000001111 L
b10000001000000011000001000000010100000110000001110000100000001001000010100000101100001100000011010000111000001111 Q
b10000001000000011000001000000010100000110000001110000100000001001000010100000101100001100000011010000111000001111 K
1*
#24000
1%
0$
#25000
0*
1-
b100010010001000110011010001000101010101100110011101111000100010011001101010101011101111001100110111011110111011111111 ,
b100010010001000110011010001000101010101100110011101111000100010011001101010101011101111001100110111011110111011111111 6
b100010010001000110011010001000101010101100110011101111000100010011001101010101011101111001100110111011110111011111111 E
03
0"
#26000
0#
#30000
b11101101110011111100100011010 ]
b1010111111101011011110010010010 q
b10001001110110000001000011101000100001010101101011001110011010000010110100011000010000111101100011001011000100101000111111100100 I
b10001001110110000001000011101000100001010101101011001110011010000010110100011000010000111101100011001011000100101000111111100100 P
b1011111011100100110010000010101 {
b1011111011100100110010000010101010101111111010110111100100100101111011110111110001110110010100100011101101110011111100100011010 U
b11110111101111100011101100101001 g
b10011100 b
b11100110 c
b1010001 k
b1110000 [
b11010 Z
b1011101 X
b110111 Y
b10111101 e
b11000111 d
b1101 l
b1101001 o
b11100101 m
b10000001 n
b10110011 x
b11101111 v
b1101100 w
b11001010 _
b11010000 `
b11001101 h
b1110000 i
b10110111 j
b1001 r
b10001100 !"
b1010001 Y"
b11001101011100001011011101010001 f
b100 u
b11001010 !#
b10110111 y"
b1001 k"
b11010000 _"
b11001101 Q"
b10111010 ^
b1110000 1"
b10001100 %"
b1100000 s
b100 s"
b10111010 7"
b11100000 ~
b1100000 K"
b11100000 E"
b1110 `"
b101 Z"
b110 L"
b101 &"
b111 t"
b1000 f"
b100 F"
b1101 @"
b0 (#
b11 "#
b10 z"
b1 l"
b11 R"
b1001 8"
b1111 2"
b1111 ,"
b110000 y
b11100111 a
b11100001 t
b1010011 }
b10111010110010101101000011100111 \
b1001011000001110000100000100 p
b1001010100111101000001010001 W"
b1010011 e"
b11001101011000001110000011100111 ="
b11100111 ?"
b10111010011100001110000110001100 #"
b11100001 +"
b1100011 |
b0 )#
b10 ##
b11 {"
b1011 u"
b1 m"
b1010 g"
b1101 a"
b1100 ["
b10 S"
b1001 M"
b1111 G"
b1110 A"
b110 9"
b100 3"
b100 -"
b1100 '"
b1100011010100111110000010001100 z
b1100011010100111110000010001100000010010110000011100001000001001100110101110000101101110101000110111010110010101101000011100111 R
b1100011110010101011011100000100000010010101001111010000010100011100110101100000111000001110011110111010011100001110000110001100 T
b1100011110010101011011100000100 q"
b1100011 '#
b1100010 A#
b111000 ;#
b1 9#
b10111011 5#
b1100010001110001011101111110110 S
b1100010001110001011101111110110 -#
b11110110 /#
b1011 0#
b1 B#
b1011 <#
b100 6#
b111 1#
b0 +#
b100 %#
b1011 }"
b1111 w"
b100 o"
b0 i"
b1111 c"
b1011 ]"
b1111 U"
b1011 O"
b100 I"
b0 C"
b1011 ;"
b1111 5"
b0 /"
b100 )"
b110 E#
b0 D#
b1 C#
b1001 ?#
b111 =#
b1111 7#
b1101 3#
0&
b0 *#
b10 $#
b1011 |"
b1001 v"
b1111 n"
b1101 h"
b100 b"
b110 \"
b11 T"
b1 N"
b1000 H"
b1010 B"
b1100 :"
b1110 4"
b111 ."
b101 ("
b111 >#
b111 8#
b1111 2#
b0 &#
b10000 ~"
b100000 x"
b110000 r"
b1000000 j"
b1010000 d"
b1100000 ^"
b1110000 X"
b10000000 P"
b10010000 J"
b10100000 D"
b10110000 >"
b11000000 6"
b11010000 0"
b11100000 *"
b11110000 $"
b10101011 @#
b1110110 :#
b11111110 4#
b11010110 .#
b10110110100100101100111100001011011001000011110110111101111100011011111010011011110001010000000001101000001100001011001111111110 H
b10110110100100101100111100001011011001000011110110111101111100011011111010011011110001010000000001101000001100001011001111111110 V
b100000010000000110000 p"
b1000000010100000110000001110000 V"
b10000000100100001010000010110000 <"
b11000000110100001110000011110000 ""
b10101011011101101111111011010110 ,#
b10 W
1D
1)
1B
b100000010000000110000010000000101000001100000011100001000000010010000101000001011000011000000110100001110000011110000 (
b100000010000000110000010000000101000001100000011100001000000010010000101000001011000011000000110100001110000011110000 7
b100000010000000110000010000000101000001100000011100001000000010010000101000001011000011000000110100001110000011110000 A
b100000010000000110000010000000101000001100000011100001000000010010000101000001011000011000000110100001110000011110000 F
b100000010000000110000010000000101000001100000011100001000000010010000101000001011000011000000110100001110000011110000 J
b100000010000000110000010000000101000001100000011100001000000010010000101000001011000011000000110100001110000011110000 O
b11010110101010100111010011111101110100101010111101110010111110101101101010100110011110001111000111010110101010110111011011111110 L
b11010110101010100111010011111101110100101010111101110010111110101101101010100110011110001111000111010110101010110111011011111110 Q
b10 M
b10 N
1*
#35000
0*
0-
#40000
b10001111 c
b11001010 j
b1000101 k
b1100100010100010101000111111010 g
b11111111100001111001011010000100 {
b1110111001110101101000000001001 ]
b11111111100001111001011010000100001100011101100001101010010100010110010001010001010100011111101001110111001110101101000000001001 U
b110001110110000110101001010001 q
b11001 y
b10100111 |
b10111110 }
b10001011 `
b10011101 b
b11 d
b10001 e
b10100100 x
b11001110 v
b1110011 w
b11101010 Z
b1111110 [
b1111110 X
b11101010 Y
b10101101 s
b111010 o
b11011110 n
b1100 l
b11101000 m
b11001010 y"
b1000101 Y"
b11011000 h
b11001001 i
b11010 ~
b1101001 !"
b11111 ^
b1100001 _
b1100001 a
b10010111 r
b1110011 t
b10011011 u
b10100111 '#
b10111110 e"
b11011000110010011100101001000101 f
b10100111101111100001101001101001 z
b11111011000011000101101100001 \
b110 2"
b10010111101011010111001110011011 p
b10001011 _"
b10101101 K"
b11001001 1"
b10100111101111100001101001101001100101111010110101110011100110111101100011001001110010100100010100011111011000011000101101100001 R
b1101001 %"
b100 A#
b1101101 ;#
b100011011011011101101000101 S
b100011011011011101101000101 -#
b1000101 /#
b1100001 !#
b10 "#
b10100111011000011100101010011011 q"
b10011011 s"
b1 t"
b10010111101111101000101101000101 W"
b10010111 k"
b1001 f"
b101 Z"
b11011000 Q"
b1 N"
b1001 L"
b11010 E"
b11011000101011010001101001100001 ="
b1100001 ?"
b11111 7"
b1001 3"
b10100111011000011100101010011011100101111011111010001011010001011101100010101101000110100110000100011111110010010111001101101001 T
b11111110010010111001101101001 #"
b1110011 +"
b10 &"
b111 B#
b1 <#
b101 0#
b1101 (#
b11 z"
b1101 l"
b1001 `"
b1110 R"
b1101 F"
b10 @"
b11 8"
b100 ,"
b11 ##
b10 |"
b1 u"
b110 g"
b1000 ]"
b111 \"
b1100 ["
b110 M"
b1100 ("
b11 '"
b1111 E#
b1001 D#
b1011 C#
b101 ?#
b1 =#
b1000 3#
b111 2#
b1100 1#
b1000 +#
b1 *#
b1110 )#
b1000 %#
b100 }"
b10 {"
b111 w"
b1000 o"
b1110 m"
b10 i"
b100 h"
b1110 c"
b1110 b"
b110 a"
b1011 U"
b10 T"
b1101 S"
b11 O"
b1 I"
b1110 G"
b1000 C"
b11 A"
b1001 ;"
b100 :"
b10 9"
b1 5"
b1010 /"
b1111 -"
b111 )"
b1 >#
b1101 $#
b100 v"
b1001 n"
b100 H"
b1101 B"
b1000 4"
b0 ."
b110000 @#
b10110011 :#
b1101000 .#
b10110110111111110111010001001110110100101100001011001001101111110110110001011001000011001011111100000100011010011011111101000001 H
b10110110111111110111010001001110110100101100001011001001101111110110110001011001000011001011111100000100011010011011111101000001 V
b10001001 &#
b11011000 ~"
b10000 x"
b11101000 r"
b10000101 j"
b1011010 d"
b11001110 ^"
b1101000 X"
b101101 P"
b11000 J"
b1000011 D"
b11011000 >"
b11001011 6"
b10010 0"
b10001111 *"
b11100100 $"
b1001001000101010101100110001111010101011110010111010111101000001101101011001010100101001111101000011111000010100110001111110111 I
b1001001000101010101100110001111010101011110010111010111101000001101101011001010100101001111101000011111000010100110001111110111 P
b110000101100111111111001101000 ,#
b100 W
b10001001110110000001000011101000 p"
b10000101010110101100111001101000 V"
b101101000110000100001111011000 <"
b11001011000100101000111111100100 ""
b10110110100100101100111100001011011001000011110110111101111100011011111010011011110001010000000001101000001100001011001111111110 L
b10110110100100101100111100001011011001000011110110111101111100011011111010011011110001010000000001101000001100001011001111111110 Q
b100 M
b100 N
b10001001110110000001000011101000100001010101101011001110011010000010110100011000010000111101100011001011000100101000111111100100 (
b10001001110110000001000011101000100001010101101011001110011010000010110100011000010000111101100011001011000100101000111111100100 7
b10001001110110000001000011101000100001010101101011001110011010000010110100011000010000111101100011001011000100101000111111100100 A
b10001001110110000001000011101000100001010101101011001110011010000010110100011000010000111101100011001011000100101000111111100100 F
b10001001110110000001000011101000100001010101101011001110011010000010110100011000010000111101100011001011000100101000111111100100 J
b10001001110110000001000011101000100001010101101011001110011010000010110100011000010000111101100011001011000100101000111111100100 O
1*
#45000
0*
#50000
b101100001111111000011010001110 g
b1001100100111000001111001100110 {
b1010011010011011111001001010110 ]
b1100111 i
b1001100100111000001111001100110111101110111000111110000011101100010110000111111100001101000111001010011010011011111001001010110 U
b11110111011100011111000001110110 q
b110000 e
b10101100 d
b10110111 b
b101011 c
b11100010 y
b11111011 x
b1010011 v
b1001010 w
b101101 a
b11101101 X
b10011001 [
b100011 Y
b1010111 Z
b10001000 o
b10001111 n
b10001111 l
b10001000 m
b1010111 h
b11001011 j
b11100000 k
b111011 |
b11011001 }
b100010 ~
b1101000 !"
b11000000 ^
b1011001 _
b1110 `
b1100111 1"
b11111100 r
b1110100 s
b11111011 t
b1110011 u
b10000011 5#
b1010111011001111100101111100000 f
b111011110110010010001001101000 z
b11000000010110010000111000101101 \
b11111100011101001111101101110011 p
b1000 ;#
b101101 ?"
b111011110110010010001001101000111111000111010011111011011100110101011101100111110010111110000011000000010110010000111000101101 R
b1101000 %"
b11111001 A#
b100 <#
b11111001000010001000001111110010 S
b11111001000010001000001111110010 -#
b11110010 /#
b111011 '#
b1100 (#
b1011001 !#
b11001011 y"
b111011010110011100101101110011 q"
b1110011 s"
b11111100 k"
b1110 l"
b11011001 e"
b1110 _"
b11111100110110010000111011100000 W"
b11100000 Y"
b100 Z"
b1010111 Q"
b1110100 K"
b1000 L"
b1010111011101000010001000101101 ="
b100010 E"
b11000000 7"
b101 8"
b1000 2"
b111011010110011100101101110011111111001101100100001110111000000101011101110100001000100010110111000000011001111111101101101000 T
b11000000011001111111101101101000 #"
b11111011 +"
b1100 B#
b1111 6#
b10 0#
b1110 "#
b100 z"
b100 t"
b1100 f"
b111 `"
b1111 R"
b11 F"
b10 @"
b1 ,"
b1101 &"
b1000 E#
b1001 >#
b1111 =#
b101 )#
b111 }"
b1101 m"
b1101 c"
b1111 ["
b1010 M"
b1100 9"
b10 5"
b1001 4"
b1010 3"
b101 C#
b101 ?#
b100 9#
b1110 8#
b100 7#
b111 3#
b11 1#
b11 +#
b11 %#
b1101 ##
b1111 {"
b1010 w"
b1111 u"
b111 o"
b111 i"
b1101 h"
b101 g"
b1110 b"
b1011 a"
b100 ]"
b1101 U"
b100 S"
b1001 O"
b1100 I"
b10 G"
b110 C"
b1100 B"
b11 A"
b1 ;"
b1010 /"
b1 -"
b110 )"
b101 ("
b1110 '"
b110 D#
b1011 2#
b1101 *#
b1000 $#
b1111 |"
b0 v"
b111 n"
b1000 \"
b111 T"
b101 N"
b1010 H"
b1 :"
b1111 ."
b1101001 @#
b10111111 :#
b1000001 4#
b100 .#
b1000111111101111111011110111100100101010011010100111110000000111111100101101100001100101011110011111101000001011000110111111101 H
b1000111111101111111011110111100100101010011010100111110000000111111100101101100001100101011110011111101000001011000110111111101 V
b1001001 &#
b10101 ~"
b1011001 x"
b10001111 r"
b1010101 j"
b11100101 d"
b11010111 ^"
b10100000 X"
b11011010 P"
b11001010 J"
b10010100 D"
b11111010 >"
b11111 6"
b1010 0"
b1100011 *"
b11110111 $"
b11111010011000110110101000101000001001011011001100111001110010010100000001100110100010100011000101010111001001000100110100010111 I
b11111010011000110110101000101000001001011011001100111001110010010100000001100110100010100011000101010111001001000100110100010111 P
b1101001101111110100000100000100 ,#
b1000 W
b1001001000101010101100110001111 p"
b1010101111001011101011110100000 V"
b11011010110010101001010011111010 <"
b11111000010100110001111110111 ""
b10110110111111110111010001001110110100101100001011001001101111110110110001011001000011001011111100000100011010011011111101000001 L
b10110110111111110111010001001110110100101100001011001001101111110110110001011001000011001011111100000100011010011011111101000001 Q
b1000 M
b1000 N
b1001001000101010101100110001111010101011110010111010111101000001101101011001010100101001111101000011111000010100110001111110111 (
b1001001000101010101100110001111010101011110010111010111101000001101101011001010100101001111101000011111000010100110001111110111 7
b1001001000101010101100110001111010101011110010111010111101000001101101011001010100101001111101000011111000010100110001111110111 A
b1001001000101010101100110001111010101011110010111010111101000001101101011001010100101001111101000011111000010100110001111110111 F
b1001001000101010101100110001111010101011110010111010111101000001101101011001010100101001111101000011111000010100110001111110111 J
b1001001000101010101100110001111010101011110010111010111101000001101101011001010100101001111101000011111000010100110001111110111 O
1*
1"
#55000
0*
