data/AES_TBL/AES_TBL.vcd
$date
	Thu Sep 18 13:09:52 2025
$end
$version
	Icarus Verilog
$end
$timescale
	1ps
$end
$scope module AES_TBL_tb_bench $end
$var wire 1 ! hahaha $end
$var reg 1 " DEFAULT_CLOCK $end
$var reg 1 # DEFAULT_RESET $end
$var reg 1 $ clkk $end
$var reg 1 % rstt $end
$scope module AES_TBL_tb_ $end
$var wire 1 $ clkk $end
$var wire 1 ! hahaha $end
$var wire 1 % rstt $end
$var wire 1 & Kvld_TBL $end
$var wire 1 ' Dvld_TBL $end
$var wire 128 ( Dout_TBL [127:0] $end
$var wire 1 ) BSY_TBL $end
$var reg 1 * CLK $end
$var reg 128 + CT [127:0] $end
$var reg 128 , Din [127:0] $end
$var reg 1 - Drdy $end
$var reg 1 . EN $end
$var reg 1 / EncDec $end
$var reg 128 0 KD [127:0] $end
$var reg 128 1 KE [127:0] $end
$var reg 128 2 Kin [127:0] $end
$var reg 1 3 Krdy $end
$var reg 128 4 PT [127:0] $end
$var reg 1 5 RSTn $end
$scope module AES_TBL $end
$var wire 1 ) BSY $end
$var wire 1 * CLK $end
$var wire 128 6 Din [127:0] $end
$var wire 128 7 Dout [127:0] $end
$var wire 1 - Drdy $end
$var wire 1 8 Dvld_D $end
$var wire 1 9 Dvld_tmp $end
$var wire 1 . EN $end
$var wire 1 : EN_D $end
$var wire 1 ; EN_E $end
$var wire 128 < Kin [127:0] $end
$var wire 1 3 Krdy $end
$var wire 1 = Kvld_D $end
$var wire 1 > Kvld_tmp $end
$var wire 1 5 RSTn $end
$var wire 1 ? Kvld_E $end
$var wire 1 & Kvld $end
$var wire 1 @ Dvld_E $end
$var wire 1 ' Dvld $end
$var wire 128 A Dout_E [127:0] $end
$var wire 1 B BSY_E $end
$var reg 1 C Dvld_reg $end
$var reg 1 D Kvld_reg $end
$scope module AES_TBL_ENC $end
$var wire 1 * CLK $end
$var wire 128 E Din [127:0] $end
$var wire 128 F Dout [127:0] $end
$var wire 1 - Drdy $end
$var wire 1 ; EN $end
$var wire 128 G Kin [127:0] $end
$var wire 1 3 Krdy $end
$var wire 1 5 RSTn $end
$var wire 1 ? Kvld $end
$var wire 128 H Knext [127:0] $end
$var wire 1 @ Dvld $end
$var wire 128 I Dnext [127:0] $end
$var wire 1 B BSY $end
$var reg 1 B BSYrg $end
$var reg 128 J Drg [127:0] $end
$var reg 1 @ Dvldrg $end
$var reg 128 K Krg [127:0] $end
$var reg 128 L KrgX [127:0] $end
$var reg 1 ? Kvldrg $end
$var reg 10 M Rrg [9:0] $end
$scope module EC $end
$var wire 10 N Rrg [9:0] $end
$var wire 128 O di [127:0] $end
$var wire 128 P do [127:0] $end
$var wire 128 Q ki [127:0] $end
$var wire 128 R sr [127:0] $end
$var wire 32 S so [31:0] $end
$var wire 128 T sb [127:0] $end
$var wire 128 U mx [127:0] $end
$var wire 128 V ko [127:0] $end
$scope function rcon $end
$var reg 10 W x [9:0] $end
$upscope $end
$scope module MX0 $end
$var wire 8 X b0 [7:0] $end
$var wire 8 Y b1 [7:0] $end
$var wire 8 Z b2 [7:0] $end
$var wire 8 [ b3 [7:0] $end
$var wire 32 \ x [31:0] $end
$var wire 32 ] y [31:0] $end
$var wire 8 ^ a3 [7:0] $end
$var wire 8 _ a2 [7:0] $end
$var wire 8 ` a1 [7:0] $end
$var wire 8 a a0 [7:0] $end
$upscope $end
$scope module MX1 $end
$var wire 8 b b0 [7:0] $end
$var wire 8 c b1 [7:0] $end
$var wire 8 d b2 [7:0] $end
$var wire 8 e b3 [7:0] $end
$var wire 32 f x [31:0] $end
$var wire 32 g y [31:0] $end
$var wire 8 h a3 [7:0] $end
$var wire 8 i a2 [7:0] $end
$var wire 8 j a1 [7:0] $end
$var wire 8 k a0 [7:0] $end
$upscope $end
$scope module MX2 $end
$var wire 8 l b0 [7:0] $end
$var wire 8 m b1 [7:0] $end
$var wire 8 n b2 [7:0] $end
$var wire 8 o b3 [7:0] $end
$var wire 32 p x [31:0] $end
$var wire 32 q y [31:0] $end
$var wire 8 r a3 [7:0] $end
$var wire 8 s a2 [7:0] $end
$var wire 8 t a1 [7:0] $end
$var wire 8 u a0 [7:0] $end
$upscope $end
$scope module MX3 $end
$var wire 8 v b0 [7:0] $end
$var wire 8 w b1 [7:0] $end
$var wire 8 x b2 [7:0] $end
$var wire 8 y b3 [7:0] $end
$var wire 32 z x [31:0] $end
$var wire 32 { y [31:0] $end
$var wire 8 | a3 [7:0] $end
$var wire 8 } a2 [7:0] $end
$var wire 8 ~ a1 [7:0] $end
$var wire 8 !" a0 [7:0] $end
$upscope $end
$scope module SB0 $end
$var wire 32 "" x [31:0] $end
$var wire 32 #" y [31:0] $end
$scope function S $end
$var reg 8 $" x [7:0] $end
$upscope $end
$upscope $end
$scope module SB1 $end
$var wire 32 %" x [31:0] $end
$var wire 32 &" y [31:0] $end
$scope function S $end
$var reg 8 '" x [7:0] $end
$upscope $end
$upscope $end
$scope module SB2 $end
$var wire 32 (" x [31:0] $end
$var wire 32 )" y [31:0] $end
$scope function S $end
$var reg 8 *" x [7:0] $end
$upscope $end
$upscope $end
$scope module SB3 $end
$var wire 32 +" x [31:0] $end
$var wire 32 ," y [31:0] $end
$scope function S $end
$var reg 8 -" x [7:0] $end
$upscope $end
$upscope $end
$scope module SBK $end
$var wire 32 ." x [31:0] $end
$var wire 32 /" y [31:0] $end
$scope function S $end
$var reg 8 0" x [7:0] $end
$upscope $end
$upscope $end
$upscope $end
$upscope $end
$upscope $end
$upscope $end
$upscope $end
$enddefinitions $end
#0
$dumpvars
bx 0"
bx /"
bx ."
bx -"
bx ,"
bx +"
bx *"
bx )"
bx ("
bx '"
bx &"
bx %"
bx $"
bx #"
bx ""
bx !"
bx ~
bx }
bx |
bx {
bx z
bx y
bx x
bx w
bx v
bx u
bx t
bx s
bx r
bx q
bx p
bx o
bx n
bx m
bx l
bx k
bx j
bx i
bx h
bx g
bx f
bx e
bx d
bx c
bx b
bx a
bx `
bx _
bx ^
bx ]
bx \
bx [
bx Z
bx Y
bx X
bx W
bx V
bx U
bx T
bx S
bx R
bx Q
bx P
bx O
bx N
bx M
bx L
bx K
bx J
bx I
bx H
bx G
bx F
bx E
xD
xC
xB
bx A
x@
x?
x>
z=
bx <
x;
0:
x9
z8
bx 7
bx 6
x5
b100010010001000110011010001000101010101100110011101111000100010011001101010101011101111001100110111011110111011111111 4
x3
bx 2
b10000001000000011000001000000010100000110000001110000100000001001000010100000101100001100000011010000111000001111 1
b10011000100010001110101111111111000111001010001001010000101111111001100000111101001111000101101001101001010110011000011000101 0
x/
x.
x-
bx ,
b1101001110001001110000011011000011010100111101100000100001100001101100011001101101101111000000001110000101101001100010101011010 +
1*
x)
bx (
x'
x&
x%
x$
1#
1"
z!
$end
#5000
0;
0.
05
0-
03
0*
#10000
0'
0&
b1100010011000110110001101100011011000100110001101100011011000110110001001100011011000110110001101100010011000110110001101100011 H
b1100010011000110110001101100011011000100110001101100011011000110110001001100011011000110110001101100010011000110110001101100011 V
b1100011011000110110001101100011 S
b1100011011000110110001101100011 /"
b0 0"
09
0>
b1 W
b0 ."
0D
0C
0)
0B
0@
0?
b1 M
b1 N
b0 L
b0 Q
b0 K
1*
#15000
1;
0*
13
b10000001000000011000001000000010100000110000001110000100000001001000010100000101100001100000011010000111000001111 2
b10000001000000011000001000000010100000110000001110000100000001001000010100000101100001100000011010000111000001111 <
b10000001000000011000001000000010100000110000001110000100000001001000010100000101100001100000011010000111000001111 G
0/
1.
15
#20000
1&
b11010111101010110111011011111110 S
b11010111101010110111011011111110 /"
b1101 0"
1>
b11010110101010100111010011111101110100101010111101110010111110101101101010100110011110001111000111010110101010110111011011111110 H
b11010110101010100111010011111101110100101010111101110010111110101101101010100110011110001111000111010110101010110111011011111110 V
b1101000011100000111100001100 ."
1?
b10000001000000011000001000000010100000110000001110000100000001001000010100000101100001100000011010000111000001111 L
b10000001000000011000001000000010100000110000001110000100000001001000010100000101100001100000011010000111000001111 Q
b10000001000000011000001000000010100000110000001110000100000001001000010100000101100001100000011010000111000001111 K
1*
#24000
1%
0$
#25000
0*
1-
b100010010001000110011010001000101010101100110011101111000100010011001101010101011101111001100110111011110111011111111 ,
b100010010001000110011010001000101010101100110011101111000100010011001101010101011101111001100110111011110111011111111 6
b100010010001000110011010001000101010101100110011101111000100010011001101010101011101111001100110111011110111011111111 E
03
0"
#26000
0#
#30000
b10001001110110000001000011101000100001010101101011001110011010000010110100011000010000111101100011001011000100101000111111100100 I
b10001001110110000001000011101000100001010101101011001110011010000010110100011000010000111101100011001011000100101000111111100100 P
b11101101110011111100100011010 ]
b11110111101111100011101100101001 g
b1010111111101011011110010010010 q
b1011111011100100110010000010101010101111111010110111100100100101111011110111110001110110010100100011101101110011111100100011010 U
b1011111011100100110010000010101 {
b1110000 [
b11010 Z
b1011101 X
b110111 Y
b10111101 e
b11000111 d
b10011100 b
b11100110 c
b1101001 o
b10000001 n
b1101 l
b11100101 m
b110000 y
b10110011 x
b11101111 v
b1101100 w
b10111010 ^
b11001010 _
b11010000 `
b11100111 a
b11001101 h
b1110000 i
b10110111 j
b1010001 k
b1001 r
b1100000 s
b11100001 t
b100 u
b1100011 |
b1010011 }
b11100000 ~
b10001100 !"
b10111010110010101101000011100111 \
b11001101011100001011011101010001 f
b1001011000001110000100000100 p
b1100011010100111110000010001100 z
b1100011010100111110000010001100000010010110000011100001000001001100110101110000101101110101000110111010110010101101000011100111 R
0&
b1100011110010101011011100000100 ,"
b0 -"
b1001010100111101000001010001 )"
b1000000 *"
b11001101011000001110000011100111 &"
b10000000 '"
b1100011110010101011011100000100000010010101001111010000010100011100110101100000111000001110011110111010011100001110000110001100 T
b10111010011100001110000110001100 #"
b11000000 $"
b1100010001110001011101111110110 S
b1100010001110001011101111110110 /"
b10101011 0"
b10110110100100101100111100001011011001000011110110111101111100011011111010011011110001010000000001101000001100001011001111111110 H
b10110110100100101100111100001011011001000011110110111101111100011011111010011011110001010000000001101000001100001011001111111110 V
b100000010000000110000 +"
b1000000010100000110000001110000 ("
b10000000100100001010000010110000 %"
b11000000110100001110000011110000 ""
b10101011011101101111111011010110 ."
b10 W
1D
1)
1B
b100000010000000110000010000000101000001100000011100001000000010010000101000001011000011000000110100001110000011110000 (
b100000010000000110000010000000101000001100000011100001000000010010000101000001011000011000000110100001110000011110000 7
b100000010000000110000010000000101000001100000011100001000000010010000101000001011000011000000110100001110000011110000 A
b100000010000000110000010000000101000001100000011100001000000010010000101000001011000011000000110100001110000011110000 F
b100000010000000110000010000000101000001100000011100001000000010010000101000001011000011000000110100001110000011110000 J
b100000010000000110000010000000101000001100000011100001000000010010000101000001011000011000000110100001110000011110000 O
b11010110101010100111010011111101110100101010111101110010111110101101101010100110011110001111000111010110101010110111011011111110 L
b11010110101010100111010011111101110100101010111101110010111110101101101010100110011110001111000111010110101010110111011011111110 Q
b10 M
b10 N
1*
#35000
0*
0-
#40000
b1110111001110101101000000001001 ]
b1100100010100010101000111111010 g
b110001110110000110101001010001 q
b11111111100001111001011010000100001100011101100001101010010100010110010001010001010100011111101001110111001110101101000000001001 U
b11111111100001111001011010000100 {
b1111110 [
b11101010 Z
b1111110 X
b11101010 Y
b10001 e
b11 d
b10011101 b
b10001111 c
b111010 o
b11011110 n
b1100 l
b11101000 m
b11001 y
b10100100 x
b11001110 v
b1110011 w
b11111 ^
b1100001 _
b10001011 `
b1100001 a
b11011000 h
b11001001 i
b11001010 j
b1000101 k
b10010111 r
b10101101 s
b1110011 t
b10011011 u
b10100111 |
b10111110 }
b11010 ~
b1101001 !"
b11111011000011000101101100001 \
b11011000110010011100101001000101 f
b10010111101011010111001110011011 p
b10100111101111100001101001101001 z
b10100111101111100001101001101001100101111010110101110011100110111101100011001001110010100100010100011111011000011000101101100001 R
b100011011011011101101000101 S
b100011011011011101101000101 /"
b110000 0"
b10100111011000011100101010011011 ,"
b10001001 -"
b10010111101111101000101101000101 )"
b10000101 *"
b11011000101011010001101001100001 &"
b101101 '"
b10100111011000011100101010011011100101111011111010001011010001011101100010101101000110100110000100011111110010010111001101101001 T
b11111110010010111001101101001 #"
b11001011 $"
b10110110111111110111010001001110110100101100001011001001101111110110110001011001000011001011111100000100011010011011111101000001 H
b10110110111111110111010001001110110100101100001011001001101111110110110001011001000011001011111100000100011010011011111101000001 V
b1001001000101010101100110001111010101011110010111010111101000001101101011001010100101001111101000011111000010100110001111110111 I
b1001001000101010101100110001111010101011110010111010111101000001101101011001010100101001111101000011111000010100110001111110111 P
b110000101100111111111001101000 ."
b100 W
b10001001110110000001000011101000 +"
b10000101010110101100111001101000 ("
b101101000110000100001111011000 %"
b11001011000100101000111111100100 ""
b10110110100100101100111100001011011001000011110110111101111100011011111010011011110001010000000001101000001100001011001111111110 L
b10110110100100101100111100001011011001000011110110111101111100011011111010011011110001010000000001101000001100001011001111111110 Q
b100 M
b100 N
b10001001110110000001000011101000100001010101101011001110011010000010110100011000010000111101100011001011000100101000111111100100 (
b10001001110110000001000011101000100001010101101011001110011010000010110100011000010000111101100011001011000100101000111111100100 7
b10001001110110000001000011101000100001010101101011001110011010000010110100011000010000111101100011001011000100101000111111100100 A
b10001001110110000001000011101000100001010101101011001110011010000010110100011000010000111101100011001011000100101000111111100100 F
b10001001110110000001000011101000100001010101101011001110011010000010110100011000010000111101100011001011000100101000111111100100 J
b10001001110110000001000011101000100001010101101011001110011010000010110100011000010000111101100011001011000100101000111111100100 O
1*
#45000
0*
#50000
b1010011010011011111001001010110 ]
b101100001111111000011010001110 g
b11110111011100011111000001110110 q
b1001100100111000001111001100110111101110111000111110000011101100010110000111111100001101000111001010011010011011111001001010110 U
b1001100100111000001111001100110 {
b10011001 [
b1010111 Z
b11101101 X
b100011 Y
b110000 e
b10101100 d
b10110111 b
b101011 c
b10001000 o
b10001111 n
b10001111 l
b10001000 m
b11100010 y
b11111011 x
b1010011 v
b1001010 w
b11000000 ^
b1011001 _
b1110 `
b101101 a
b1010111 h
b1100111 i
b11001011 j
b11100000 k
b11111100 r
b1110100 s
b11111011 t
b1110011 u
b111011 |
b11011001 }
b100010 ~
b1101000 !"
b11000000010110010000111000101101 \
b1010111011001111100101111100000 f
b11111100011101001111101101110011 p
b111011110110010010001001101000 z
b111011110110010010001001101000111111000111010011111011011100110101011101100111110010111110000011000000010110010000111000101101 R
b11111001000010001000001111110010 S
b11111001000010001000001111110010 /"
b1101001 0"
b111011010110011100101101110011 ,"
b1001001 -"
b11111100110110010000111011100000 )"
b1010101 *"
b1010111011101000010001000101101 &"
b11011010 '"
b111011010110011100101101110011111111001101100100001110111000000101011101110100001000100010110111000000011001111111101101101000 T
b11000000011001111111101101101000 #"
b11111 $"
b1000111111101111111011110111100100101010011010100111110000000111111100101101100001100101011110011111101000001011000110111111101 H
b1000111111101111111011110111100100101010011010100111110000000111111100101101100001100101011110011111101000001011000110111111101 V
b11111010011000110110101000101000001001011011001100111001110010010100000001100110100010100011000101010111001001000100110100010111 I
b11111010011000110110101000101000001001011011001100111001110010010100000001100110100010100011000101010111001001000100110100010111 P
b1101001101111110100000100000100 ."
b1000 W
b1001001000101010101100110001111 +"
b1010101111001011101011110100000 ("
b11011010110010101001010011111010 %"
b11111000010100110001111110111 ""
b10110110111111110111010001001110110100101100001011001001101111110110110001011001000011001011111100000100011010011011111101000001 L
b10110110111111110111010001001110110100101100001011001001101111110110110001011001000011001011111100000100011010011011111101000001 Q
b1000 M
b1000 N
b1001001000101010101100110001111010101011110010111010111101000001101101011001010100101001111101000011111000010100110001111110111 (
b1001001000101010101100110001111010101011110010111010111101000001101101011001010100101001111101000011111000010100110001111110111 7
b1001001000101010101100110001111010101011110010111010111101000001101101011001010100101001111101000011111000010100110001111110111 A
b1001001000101010101100110001111010101011110010111010111101000001101101011001010100101001111101000011111000010100110001111110111 F
b1001001000101010101100110001111010101011110010111010111101000001101101011001010100101001111101000011111000010100110001111110111 J
b1001001000101010101100110001111010101011110010111010111101000001101101011001010100101001111101000011111000010100110001111110111 O
1*
1"
#55000
0*
#60000
b1110101010001111101011010010001 ]
b10010111101111100100011110001110 g
b11111100010100111000110111111001 q
b1100011100001011011011110011111111111000101001110001101111110011001011110111110010001111000111001110101010001111101011010010001 U
b1100011100001011011011110011111 {
b10100000 [
b11101001 Z
b10011100 X
b11010101 Y
b111111 e
b110100 d
b11010100 b
b11011111 c
b1100 o
b11010000 n
b1011 l
b11010111 m
b1000000 y
b10011 x
b11011101 v
b10001110 w
b1011011 ^
b11111011 _
b10010 `
b11000111 a
b1001 h
b110110 i
b10 j
b11011101 k
b111111 r
b110011 s
b11100011 t
b110100 u
b101101 |
b1101101 }
b1111110 ~
b11110000 !"
b1011011111110110001001011000111 \
b1001001101100000001011011101 f
b111111001100111110001100110100 p
b101101011011010111111011110000 z
b101101011011010111111011110000001111110011001111100011001101000000100100110110000000101101110101011011111110110001001011000111 R
b1101011010111010101010001010100 S
b1101011010111010101010001010100 /"
b101 0"
b101101111110110000001000110100 ,"
b11111010 -"
b111111011011010001001011011101 )"
b100101 *"
b1001001100110111111011000111 &"
b1000000 '"
b101101111110110000001000110100001111110110110100010010110111010000100100110011011111101100011101011011001101101110001111110000 T
b1011011001101101110001111110000 #"
b1010111 $"
b111100101010101010001111101000101010011001111110011101111010110101000011110011101011110101011110101101111101100010001010101010 H
b111100101010101010001111101000101010011001111110011101111010110101000011110011101011110101011110101101111101100010001010101010 V
b100100011100100100000000100011011010010110011010110011111110100110111011010010011101010011001010001000010000100101101101101100 I
b100100011100100100000000100011011010010110011010110011111110100110111011010010011101010011001010001000010000100101101101101100 P
b101100011011111110111111101 ."
b10000 W
b11111010011000110110101000101000 +"
b100101101100110011100111001001 ("
b1000000011001101000101000110001 %"
b1010111001001000100110100010111 ""
b1000111111101111111011110111100100101010011010100111110000000111111100101101100001100101011110011111101000001011000110111111101 L
b1000111111101111111011110111100100101010011010100111110000000111111100101101100001100101011110011111101000001011000110111111101 Q
b10000 M
b10000 N
b11111010011000110110101000101000001001011011001100111001110010010100000001100110100010100011000101010111001001000100110100010111 (
b11111010011000110110101000101000001001011011001100111001110010010100000001100110100010100011000101010111001001000100110100010111 7
b11111010011000110110101000101000001001011011001100111001110010010100000001100110100010100011000101010111001001000100110100010111 A
b11111010011000110110101000101000001001011011001100111001110010010100000001100110100010100011000101010111001001000100110100010111 F
b11111010011000110110101000101000001001011011001100111001110010010100000001100110100010100011000101010111001001000100110100010111 J
b11111010011000110110101000101000001001011011001100111001110010010100000001100110100010100011000101010111001001000100110100010111 O
1*
#65000
0*
#70000
b11101110100000011101100111100 ]
b1110101111100011101011011000101 g
b110010111001010101010011010000 q
b11110100101111001101010001010100001100101110010101010100110100000111010111110001110101101100010100011101110100000011101100111100 U
b11110100101111001101010001010100 {
b10000100 [
b101101 Z
b11100111 X
b1001110 Y
b10110011 e
b100101 d
b10110010 b
b100100 c
b1001100 o
b10001100 n
b11011111 l
b11111 m
b101 y
b10101110 x
b1100110 v
b11001101 w
b11000100 ^
b1000000 _
b1101101 `
b100011 a
b10011111 h
b101100 i
b1001 j
b101101 k
b11111001 r
b10110101 s
b111001 t
b100110 u
b110110 |
b110011 }
b10011101 ~
b1010000 !"
b11000100010000000110110100100011 \
b10011111001011000000100100101101 f
b11111001101101010011100100100110 p
b110110001100111001110101010000 z
b110110001100111001110101010000111110011011010100111001001001101001111100101100000010010010110111000100010000000110110100100011 R
b1000010100100111010110010010101 S
b1000010100100111010110010010101 /"
b11110110 0"
b110110010000000000100100100110 ,"
b100100 -"
b11111001001100110110110100101101 )"
b1101001 *"
b10011111101101011001110100100011 &"
b1101110 '"
b110110010000000000100100100110111110010011001101101101001011011001111110110101100111010010001111000100001011000011100101010000 T
b11000100001011000011100101010000 #"
b10001000 $"
b1011110001110010000111101111101111101111010011010010010100101101010011101010101001111011100000100001010101000110001111101101011 H
b1011110001110010000111101111101111101111010011010010010100101101010011101010101001111011100000100001010101000110001111101101011 V
b11001000000101100111011110111100100110110111101011001001001110110010010100000010011110011001001010110000001001100001100110010110 I
b11001000000101100111011110111100100110110111101011001001001110110010010100000010011110011001001010110000001001100001100110010110 P
b11110110001000101010101010101101 ."
b100000 W
b100100011100100100000000100011 +"
b1101001011001101011001111111010 ("
b1101110110100100111010100110010 %"
b10001000010000100101101101101100 ""
b111100101010101010001111101000101010011001111110011101111010110101000011110011101011110101011110101101111101100010001010101010 L
b111100101010101010001111101000101010011001111110011101111010110101000011110011101011110101011110101101111101100010001010101010 Q
b100000 M
b100000 N
b100100011100100100000000100011011010010110011010110011111110100110111011010010011101010011001010001000010000100101101101101100 (
b100100011100100100000000100011011010010110011010110011111110100110111011010010011101010011001010001000010000100101101101101100 7
b100100011100100100000000100011011010010110011010110011111110100110111011010010011101010011001010001000010000100101101101101100 A
b100100011100100100000000100011011010010110011010110011111110100110111011010010011101010011001010001000010000100101101101101100 F
b100100011100100100000000100011011010010110011010110011111110100110111011010010011101010011001010001000010000100101101101101100 J
b100100011100100100000000100011011010010110011010110011111110100110111011010010011101010011001010001000010000100101101101101100 O
1*
#74000
1$
#75000
0*
0"
#80000
b10001110010110101101000000110110 ]
b1101011001011000000010010011100 g
b111110000111111101010101 q
b10011000000101101110111001110100000000001111100001111111010101010110101100101100000001001001110010001110010110101101000000110110 U
b10011000000101101110111001110100 {
b10100000 [
b10011010 Z
b10101000 X
b10010010 Y
b11001000 e
b10 d
b11011101 b
b10111 c
b1100011 o
b10100011 n
b1110001 l
b10110001 m
b110010 y
b1101100 x
b1111000 v
b100110 w
b11100111 ^
b1000111 _
b11011101 `
b1001111 a
b111111 h
b11110111 i
b11110101 j
b11100010 k
b10100 r
b1110111 s
b11010100 t
b1100101 u
b11101000 |
b11011010 }
b10110110 ~
b10010000 !"
b11100111010001111101110101001111 \
b111111111101111111010111100010 f
b10100011101111101010001100101 p
b11101000110110101011011010010000 z
b11101000110110101011011010010000000101000111011111010100011001010011111111110111111101011110001011100111010001111101110101001111 R
b1010110000000111111101100111 S
b1010110000000111111101100111 /"
b10100011 0"
b11101000010001111111010101100101 ,"
b11001000 -"
b10100110110101101110111100010 )"
b10011011 *"
b111111011101111011011001001111 &"
b100101 '"
b11101000010001111111010101100101000101001101101011011101111000100011111101110111101101100100111111100111111101111101010010010000 T
b11100111111101111101010010010000 #"
b10110000 $"
b10100111110010111000000011010111000110101111111100010100011000100010000001010110111110100110101001110101010011100000000100110 H
b10100111110010111000000011010111000110101111111100010100011000100010000001010110111110100110101001110101010011100000000100110 V
b11000110001011111110000100001001111101110101111011101101110000111100110001111001001110010101110110000100111110011100111101011101 I
b11000110001011111110000100001001111101110101111011101101110000111100110001111001001110010101110110000100111110011100111101011101 P
b10100011000111110110101100001010 ."
b1000000 W
b11001000000101100111011110111100 +"
b10011011011110101100100100111011 ("
b100101000000100111100110010010 %"
b10110000001001100001100110010110 ""
b1011110001110010000111101111101111101111010011010010010100101101010011101010101001111011100000100001010101000110001111101101011 L
b1011110001110010000111101111101111101111010011010010010100101101010011101010101001111011100000100001010101000110001111101101011 Q
b1000000 M
b1000000 N
b11001000000101100111011110111100100110110111101011001001001110110010010100000010011110011001001010110000001001100001100110010110 (
b11001000000101100111011110111100100110110111101011001001001110110010010100000010011110011001001010110000001001100001100110010110 7
b11001000000101100111011110111100100110110111101011001001001110110010010100000010011110011001001010110000001001100001100110010110 A
b11001000000101100111011110111100100110110111101011001001001110110010010100000010011110011001001010110000001001100001100110010110 F
b11001000000101100111011110111100100110110111101011001001001110110010010100000010011110011001001010110000001001100001100110010110 J
b11001000000101100111011110111100100110110111101011001001001110110010010100000010011110011001001010110000001001100001100110010110 O
1*
#85000
0*
#90000
b10011000110001100011010000111001 ]
b11110000010111110100101111100000 g
b10011010100110111101001010000110 q
b11000101011111100001110000010101100110101001101111010010100001101111000001011111010010111110000010011000110001100011010000111001 U
b11000101011111100001110000010101 {
b1001010 [
b1000000 Z
b10011 X
b11001 Y
b11010010 e
b1100001 d
b1100101 b
b11010110 c
b11011110 o
b111100 n
b1101001 l
b10001011 m
b11101100 y
b1001010 x
b11111000 v
b1011110 w
b1011111 ^
b10101 _
b1010101 `
b1001100 a
b1001011 h
b10011001 i
b11111000 j
b101110 k
b1101000 r
b10110110 s
b10001010 t
b1 u
b10110100 |
b1011000 }
b10010 ~
b1001100 !"
b1011111000101010101010101001100 \
b1001011100110011111100000101110 f
b1101000101101101000101000000001 p
b10110100010110000001001001001100 z
b10110100010110000001001001001100011010001011011010001010000000010100101110011001111110000010111001011111000101010101010101001100 R
b11010011101110101111011100101111 S
b11010011101110101111011100101111 /"
b10101001 0"
b10110100000101011111100000000001 ,"
b11000110 -"
b1101000010110000101010100101110 )"
b11110111 *"
b1001011101101100001001001001100 &"
b11001100 '"
b10110100000101011111100000000001011010000101100001010101001011100100101110110110000100100100110001011111100110011000101001001100 T
b1011111100110011000101001001100 #"
b10000100 $"
b1000111010000111000011100110101101001000001110001100101101110011110000000010110101110101111010010101110101111110111101011010010 H
b1000111010000111000011100110101101001000001110001100101101110011110000000010110101110101111010010101110101111110111101011010010 V
b11010001100001110110110000001111011110011100010000110000000010101011010001010101100101001010110111010110011011111111010000011111 I
b11010001100001110110110000001111011110011100010000110000000010101011010001010101100101001010110111010110011011111111010000011111 P
b10101001110000000010011001001110 ."
b10000000 W
b11000110001011111110000100001001 +"
b11110111010111101110110111000011 ("
b11001100011110010011100101011101 %"
b10000100111110011100111101011101 ""
b10100111110010111000000011010111000110101111111100010100011000100010000001010110111110100110101001110101010011100000000100110 L
b10100111110010111000000011010111000110101111111100010100011000100010000001010110111110100110101001110101010011100000000100110 Q
b10000000 M
b10000000 N
b11000110001011111110000100001001111101110101111011101101110000111100110001111001001110010101110110000100111110011100111101011101 (
b11000110001011111110000100001001111101110101111011101101110000111100110001111001001110010101110110000100111110011100111101011101 7
b11000110001011111110000100001001111101110101111011101101110000111100110001111001001110010101110110000100111110011100111101011101 A
b11000110001011111110000100001001111101110101111011101101110000111100110001111001001110010101110110000100111110011100111101011101 F
b11000110001011111110000100001001111101110101111011101101110000111100110001111001001110010101110110000100111110011100111101011101 J
b11000110001011111110000100001001111101110101111011101101110000111100110001111001001110010101110110000100111110011100111101011101 O
1*
#95000
0*
#100000
b1011111010000010100110100100011 ]
b11010101010100010010110010111010 g
b10100001111110011011010101101110 q
b10111010101000000011110111100111101000011111100110110101011011101101010101010001001011001011101001011111010000010100110100100011 U
b10111010101000000011110111100111 {
b11100001 [
b10011 Z
b1100011 X
b10010001 Y
b100101 e
b11111000 d
b11101010 b
b110111 c
b1001010 o
b1000011 n
b11000000 l
b11001001 m
b100010 y
b111110 x
b11111110 v
b11100010 w
b11110110 ^
b10111 _
b100 `
b10010101 a
b10001101 h
b10101000 i
b1010000 j
b1100111 k
b10110110 r
b11111100 s
b10111111 t
b1110110 u
b111110 |
b11100 }
b100010 ~
b11000000 !"
b11110110000101110000010010010101 \
b10001101101010000101000001100111 f
b10110110111111001011111101110110 p
b111110000111000010001011000000 z
b111110000111000010001011000000101101101111110010111111011101101000110110101000010100000110011111110110000101110000010010010101 R
b1000110110101011010111100100 S
b1000110110101011010111100100 /"
b10111111 0"
b111110000101110101000001110110 ,"
b11010001 -"
b10110110000111000000010001100111 )"
b1111001 *"
b10001101111111000010001010010101 &"
b10110100 '"
b111110000101110101000001110110101101100001110000000100011001111000110111111100001000101001010111110110101010001011111111000000 T
b11110110101010001011111111000000 #"
b11010110 $"
b1010100100110010011001011010001111100001000010101010111011010000001000010010011111011011001110010111110001011001001011101001110 H
b1010100100110010011001011010001111100001000010101010111011010000001000010010011111011011001110010111110001011001001011101001110 V
b11111101111000111011101011010010000001011110010111010000110101110011010101000111100101100100111011110001111111100011011111110001 I
b11111101111000111011101011010010000001011110010111010000110101110011010101000111100101100100111011110001111111100011011111110001 P
b10111111011110101101001010101110 ."
b100000000 W
b11010001100001110110110000001111 +"
b1111001110001000011000000001010 ("
b10110100010101011001010010101101 %"
b11010110011011111111010000011111 ""
b1000111010000111000011100110101101001000001110001100101101110011110000000010110101110101111010010101110101111110111101011010010 L
b1000111010000111000011100110101101001000001110001100101101110011110000000010110101110101111010010101110101111110111101011010010 Q
b100000000 M
b100000000 N
b11010001100001110110110000001111011110011100010000110000000010101011010001010101100101001010110111010110011011111111010000011111 (
b11010001100001110110110000001111011110011100010000110000000010101011010001010101100101001010110111010110011011111111010000011111 7
b11010001100001110110110000001111011110011100010000110000000010101011010001010101100101001010110111010110011011111111010000011111 A
b11010001100001110110110000001111011110011100010000110000000010101011010001010101100101001010110111010110011011111111010000011111 F
b11010001100001110110110000001111011110011100010000110000000010101011010001010101100101001010110111010110011011111111010000011111 J
b11010001100001110110110000001111011110011100010000110000000010101011010001010101100101001010110111010110011011111111010000011111 O
1*
1"
#105000
0*
