data/AES_TBL/AES_TBL.vcd
$date
	Mon Sep 29 17:03:08 2025
$end
$version
	Icarus Verilog
$end
$timescale
	1ps
$end
$scope module AES_TBL_bench $end
$var wire 1 ! Kvld_TBL $end
$var wire 1 " Dvld_TBL $end
$var wire 128 # Dout_TBL [127:0] $end
$var wire 1 $ BSY_TBL $end
$var reg 1 % CLK $end
$var reg 128 & CT [127:0] $end
$var reg 128 ' Din [127:0] $end
$var reg 1 ( Drdy $end
$var reg 1 ) EN $end
$var reg 1 * EncDec $end
$var reg 128 + KD [127:0] $end
$var reg 128 , KE [127:0] $end
$var reg 128 - Kin [127:0] $end
$var reg 1 . Krdy $end
$var reg 128 / PT [127:0] $end
$var reg 1 0 RSTn $end
$scope module AES_TBL $end
$var wire 1 $ BSY $end
$var wire 1 % CLK $end
$var wire 128 1 Din [127:0] $end
$var wire 128 2 Dout [127:0] $end
$var wire 1 ( Drdy $end
$var wire 1 3 Dvld_D $end
$var wire 1 4 Dvld_tmp $end
$var wire 1 ) EN $end
$var wire 1 5 EN_D $end
$var wire 1 6 EN_E $end
$var wire 128 7 Kin [127:0] $end
$var wire 1 . Krdy $end
$var wire 1 8 Kvld_D $end
$var wire 1 9 Kvld_tmp $end
$var wire 1 0 RSTn $end
$var wire 1 : Kvld_E $end
$var wire 1 ! Kvld $end
$var wire 1 ; Dvld_E $end
$var wire 1 " Dvld $end
$var wire 128 < Dout_E [127:0] $end
$var wire 1 = BSY_E $end
$var reg 1 > Dvld_reg $end
$var reg 1 ? Kvld_reg $end
$scope module AES_TBL_ENC $end
$var wire 1 % CLK $end
$var wire 128 @ Din [127:0] $end
$var wire 128 A Dout [127:0] $end
$var wire 1 ( Drdy $end
$var wire 1 6 EN $end
$var wire 128 B Kin [127:0] $end
$var wire 1 . Krdy $end
$var wire 1 0 RSTn $end
$var wire 1 : Kvld $end
$var wire 128 C Knext [127:0] $end
$var wire 1 ; Dvld $end
$var wire 128 D Dnext [127:0] $end
$var wire 1 = BSY $end
$var reg 1 = BSYrg $end
$var reg 128 E Drg [127:0] $end
$var reg 1 ; Dvldrg $end
$var reg 128 F Krg [127:0] $end
$var reg 128 G KrgX [127:0] $end
$var reg 1 : Kvldrg $end
$var reg 10 H Rrg [9:0] $end
$scope module EC $end
$var wire 10 I Rrg [9:0] $end
$var wire 128 J di [127:0] $end
$var wire 128 K do [127:0] $end
$var wire 128 L ki [127:0] $end
$var wire 128 M sr [127:0] $end
$var wire 32 N so [31:0] $end
$var wire 128 O sb [127:0] $end
$var wire 128 P mx [127:0] $end
$var wire 128 Q ko [127:0] $end
$scope function rcon $end
$var reg 10 R x [9:0] $end
$upscope $end
$scope module MX0 $end
$var wire 8 S b0 [7:0] $end
$var wire 8 T b1 [7:0] $end
$var wire 8 U b2 [7:0] $end
$var wire 8 V b3 [7:0] $end
$var wire 32 W x [31:0] $end
$var wire 32 X y [31:0] $end
$var wire 8 Y a3 [7:0] $end
$var wire 8 Z a2 [7:0] $end
$var wire 8 [ a1 [7:0] $end
$var wire 8 \ a0 [7:0] $end
$upscope $end
$scope module MX1 $end
$var wire 8 ] b0 [7:0] $end
$var wire 8 ^ b1 [7:0] $end
$var wire 8 _ b2 [7:0] $end
$var wire 8 ` b3 [7:0] $end
$var wire 32 a x [31:0] $end
$var wire 32 b y [31:0] $end
$var wire 8 c a3 [7:0] $end
$var wire 8 d a2 [7:0] $end
$var wire 8 e a1 [7:0] $end
$var wire 8 f a0 [7:0] $end
$upscope $end
$scope module MX2 $end
$var wire 8 g b0 [7:0] $end
$var wire 8 h b1 [7:0] $end
$var wire 8 i b2 [7:0] $end
$var wire 8 j b3 [7:0] $end
$var wire 32 k x [31:0] $end
$var wire 32 l y [31:0] $end
$var wire 8 m a3 [7:0] $end
$var wire 8 n a2 [7:0] $end
$var wire 8 o a1 [7:0] $end
$var wire 8 p a0 [7:0] $end
$upscope $end
$scope module MX3 $end
$var wire 8 q b0 [7:0] $end
$var wire 8 r b1 [7:0] $end
$var wire 8 s b2 [7:0] $end
$var wire 8 t b3 [7:0] $end
$var wire 32 u x [31:0] $end
$var wire 32 v y [31:0] $end
$var wire 8 w a3 [7:0] $end
$var wire 8 x a2 [7:0] $end
$var wire 8 y a1 [7:0] $end
$var wire 8 z a0 [7:0] $end
$upscope $end
$scope module SB0 $end
$var wire 32 { x [31:0] $end
$var wire 32 | y [31:0] $end
$scope function S $end
$var reg 8 } x [7:0] $end
$upscope $end
$upscope $end
$scope module SB1 $end
$var wire 32 ~ x [31:0] $end
$var wire 32 !" y [31:0] $end
$scope function S $end
$var reg 8 "" x [7:0] $end
$upscope $end
$upscope $end
$scope module SB2 $end
$var wire 32 #" x [31:0] $end
$var wire 32 $" y [31:0] $end
$scope function S $end
$var reg 8 %" x [7:0] $end
$upscope $end
$upscope $end
$scope module SB3 $end
$var wire 32 &" x [31:0] $end
$var wire 32 '" y [31:0] $end
$scope function S $end
$var reg 8 (" x [7:0] $end
$upscope $end
$upscope $end
$scope module SBK $end
$var wire 32 )" x [31:0] $end
$var wire 32 *" y [31:0] $end
$scope function S $end
$var reg 8 +" x [7:0] $end
$upscope $end
$upscope $end
$upscope $end
$upscope $end
$upscope $end
$upscope $end
$enddefinitions $end
#0
$dumpvars
bx +"
bx *"
bx )"
bx ("
bx '"
bx &"
bx %"
bx $"
bx #"
bx ""
bx !"
bx ~
bx }
bx |
bx {
bx z
bx y
bx x
bx w
bx v
bx u
bx t
bx s
bx r
bx q
bx p
bx o
bx n
bx m
bx l
bx k
bx j
bx i
bx h
bx g
bx f
bx e
bx d
bx c
bx b
bx a
bx `
bx _
bx ^
bx ]
bx \
bx [
bx Z
bx Y
bx X
bx W
bx V
bx U
bx T
bx S
bx R
bx Q
bx P
bx O
bx N
bx M
bx L
bx K
bx J
bx I
bx H
bx G
bx F
bx E
bx D
bx C
bx B
bx A
bx @
x?
x>
x=
bx <
x;
x:
x9
z8
bx 7
x6
05
x4
z3
bx 2
bx 1
x0
b100010010001000110011010001000101010101100110011101111000100010011001101010101011101111001100110111011110111011111111 /
x.
bx -
b10000001000000011000001000000010100000110000001110000100000001001000010100000101100001100000011010000111000001111 ,
b10011000100010001110101111111111000111001010001001010000101111111001100000111101001111000101101001101001010110011000011000101 +
x*
x)
x(
bx '
b1101001110001001110000011011000011010100111101100000100001100001101100011001101101101111000000001110000101101001100010101011010 &
1%
x$
bx #
x"
x!
$end
#5000
06
0)
00
0(
0.
0%
#10000
0"
0!
b1100010011000110110001101100011011000100110001101100011011000110110001001100011011000110110001101100010011000110110001101100011 C
b1100010011000110110001101100011011000100110001101100011011000110110001001100011011000110110001101100010011000110110001101100011 Q
b1100011011000110110001101100011 N
b1100011011000110110001101100011 *"
b0 +"
04
09
b1 R
b0 )"
0?
0>
0$
0=
0;
0:
b1 H
b1 I
b0 G
b0 L
b0 F
1%
#15000
16
0%
1.
b10000001000000011000001000000010100000110000001110000100000001001000010100000101100001100000011010000111000001111 -
b10000001000000011000001000000010100000110000001110000100000001001000010100000101100001100000011010000111000001111 7
b10000001000000011000001000000010100000110000001110000100000001001000010100000101100001100000011010000111000001111 B
0*
1)
10
#20000
1!
b11010111101010110111011011111110 N
b11010111101010110111011011111110 *"
b1101 +"
19
b11010110101010100111010011111101110100101010111101110010111110101101101010100110011110001111000111010110101010110111011011111110 C
b11010110101010100111010011111101110100101010111101110010111110101101101010100110011110001111000111010110101010110111011011111110 Q
b1101000011100000111100001100 )"
1:
b10000001000000011000001000000010100000110000001110000100000001001000010100000101100001100000011010000111000001111 G
b10000001000000011000001000000010100000110000001110000100000001001000010100000101100001100000011010000111000001111 L
b10000001000000011000001000000010100000110000001110000100000001001000010100000101100001100000011010000111000001111 F
1%
#25000
0%
1(
b100010010001000110011010001000101010101100110011101111000100010011001101010101011101111001100110111011110111011111111 '
b100010010001000110011010001000101010101100110011101111000100010011001101010101011101111001100110111011110111011111111 1
b100010010001000110011010001000101010101100110011101111000100010011001101010101011101111001100110111011110111011111111 @
0.
#30000
b10001001110110000001000011101000100001010101101011001110011010000010110100011000010000111101100011001011000100101000111111100100 D
b10001001110110000001000011101000100001010101101011001110011010000010110100011000010000111101100011001011000100101000111111100100 K
b11101101110011111100100011010 X
b11110111101111100011101100101001 b
b1010111111101011011110010010010 l
b1011111011100100110010000010101010101111111010110111100100100101111011110111110001110110010100100011101101110011111100100011010 P
b1011111011100100110010000010101 v
b1110000 V
b11010 U
b1011101 S
b110111 T
b10111101 `
b11000111 _
b10011100 ]
b11100110 ^
b1101001 j
b10000001 i
b1101 g
b11100101 h
b110000 t
b10110011 s
b11101111 q
b1101100 r
b10111010 Y
b11001010 Z
b11010000 [
b11100111 \
b11001101 c
b1110000 d
b10110111 e
b1010001 f
b1001 m
b1100000 n
b11100001 o
b100 p
b1100011 w
b1010011 x
b11100000 y
b10001100 z
b10111010110010101101000011100111 W
b11001101011100001011011101010001 a
b1001011000001110000100000100 k
b1100011010100111110000010001100 u
b1100011010100111110000010001100000010010110000011100001000001001100110101110000101101110101000110111010110010101101000011100111 M
0!
b1100011110010101011011100000100 '"
b0 ("
b1001010100111101000001010001 $"
b1000000 %"
b11001101011000001110000011100111 !"
b10000000 ""
b1100011110010101011011100000100000010010101001111010000010100011100110101100000111000001110011110111010011100001110000110001100 O
b10111010011100001110000110001100 |
b11000000 }
b1100010001110001011101111110110 N
b1100010001110001011101111110110 *"
b10101011 +"
b10110110100100101100111100001011011001000011110110111101111100011011111010011011110001010000000001101000001100001011001111111110 C
b10110110100100101100111100001011011001000011110110111101111100011011111010011011110001010000000001101000001100001011001111111110 Q
b100000010000000110000 &"
b1000000010100000110000001110000 #"
b10000000100100001010000010110000 ~
b11000000110100001110000011110000 {
b10101011011101101111111011010110 )"
b10 R
1?
1$
1=
b100000010000000110000010000000101000001100000011100001000000010010000101000001011000011000000110100001110000011110000 #
b100000010000000110000010000000101000001100000011100001000000010010000101000001011000011000000110100001110000011110000 2
b100000010000000110000010000000101000001100000011100001000000010010000101000001011000011000000110100001110000011110000 <
b100000010000000110000010000000101000001100000011100001000000010010000101000001011000011000000110100001110000011110000 A
b100000010000000110000010000000101000001100000011100001000000010010000101000001011000011000000110100001110000011110000 E
b100000010000000110000010000000101000001100000011100001000000010010000101000001011000011000000110100001110000011110000 J
b11010110101010100111010011111101110100101010111101110010111110101101101010100110011110001111000111010110101010110111011011111110 G
b11010110101010100111010011111101110100101010111101110010111110101101101010100110011110001111000111010110101010110111011011111110 L
b10 H
b10 I
1%
#35000
0%
0(
#40000
b1110111001110101101000000001001 X
b1100100010100010101000111111010 b
b110001110110000110101001010001 l
b11111111100001111001011010000100001100011101100001101010010100010110010001010001010100011111101001110111001110101101000000001001 P
b11111111100001111001011010000100 v
b1111110 V
b11101010 U
b1111110 S
b11101010 T
b10001 `
b11 _
b10011101 ]
b10001111 ^
b111010 j
b11011110 i
b1100 g
b11101000 h
b11001 t
b10100100 s
b11001110 q
b1110011 r
b11111 Y
b1100001 Z
b10001011 [
b1100001 \
b11011000 c
b11001001 d
b11001010 e
b1000101 f
b10010111 m
b10101101 n
b1110011 o
b10011011 p
b10100111 w
b10111110 x
b11010 y
b1101001 z
b11111011000011000101101100001 W
b11011000110010011100101001000101 a
b10010111101011010111001110011011 k
b10100111101111100001101001101001 u
b10100111101111100001101001101001100101111010110101110011100110111101100011001001110010100100010100011111011000011000101101100001 M
b100011011011011101101000101 N
b100011011011011101101000101 *"
b110000 +"
b10100111011000011100101010011011 '"
b10001001 ("
b10010111101111101000101101000101 $"
b10000101 %"
b11011000101011010001101001100001 !"
b101101 ""
b10100111011000011100101010011011100101111011111010001011010001011101100010101101000110100110000100011111110010010111001101101001 O
b11111110010010111001101101001 |
b11001011 }
b10110110111111110111010001001110110100101100001011001001101111110110110001011001000011001011111100000100011010011011111101000001 C
b10110110111111110111010001001110110100101100001011001001101111110110110001011001000011001011111100000100011010011011111101000001 Q
b1001001000101010101100110001111010101011110010111010111101000001101101011001010100101001111101000011111000010100110001111110111 D
b1001001000101010101100110001111010101011110010111010111101000001101101011001010100101001111101000011111000010100110001111110111 K
b110000101100111111111001101000 )"
b100 R
b10001001110110000001000011101000 &"
b10000101010110101100111001101000 #"
b101101000110000100001111011000 ~
b11001011000100101000111111100100 {
b10110110100100101100111100001011011001000011110110111101111100011011111010011011110001010000000001101000001100001011001111111110 G
b10110110100100101100111100001011011001000011110110111101111100011011111010011011110001010000000001101000001100001011001111111110 L
b100 H
b100 I
b10001001110110000001000011101000100001010101101011001110011010000010110100011000010000111101100011001011000100101000111111100100 #
b10001001110110000001000011101000100001010101101011001110011010000010110100011000010000111101100011001011000100101000111111100100 2
b10001001110110000001000011101000100001010101101011001110011010000010110100011000010000111101100011001011000100101000111111100100 <
b10001001110110000001000011101000100001010101101011001110011010000010110100011000010000111101100011001011000100101000111111100100 A
b10001001110110000001000011101000100001010101101011001110011010000010110100011000010000111101100011001011000100101000111111100100 E
b10001001110110000001000011101000100001010101101011001110011010000010110100011000010000111101100011001011000100101000111111100100 J
1%
#45000
0%
#50000
b1010011010011011111001001010110 X
b101100001111111000011010001110 b
b11110111011100011111000001110110 l
b1001100100111000001111001100110111101110111000111110000011101100010110000111111100001101000111001010011010011011111001001010110 P
b1001100100111000001111001100110 v
b10011001 V
b1010111 U
b11101101 S
b100011 T
b110000 `
b10101100 _
b10110111 ]
b101011 ^
b10001000 j
b10001111 i
b10001111 g
b10001000 h
b11100010 t
b11111011 s
b1010011 q
b1001010 r
b11000000 Y
b1011001 Z
b1110 [
b101101 \
b1010111 c
b1100111 d
b11001011 e
b11100000 f
b11111100 m
b1110100 n
b11111011 o
b1110011 p
b111011 w
b11011001 x
b100010 y
b1101000 z
b11000000010110010000111000101101 W
b1010111011001111100101111100000 a
b11111100011101001111101101110011 k
b111011110110010010001001101000 u
b111011110110010010001001101000111111000111010011111011011100110101011101100111110010111110000011000000010110010000111000101101 M
b11111001000010001000001111110010 N
b11111001000010001000001111110010 *"
b1101001 +"
b111011010110011100101101110011 '"
b1001001 ("
b11111100110110010000111011100000 $"
b1010101 %"
b1010111011101000010001000101101 !"
b11011010 ""
b111011010110011100101101110011111111001101100100001110111000000101011101110100001000100010110111000000011001111111101101101000 O
b11000000011001111111101101101000 |
b11111 }
b1000111111101111111011110111100100101010011010100111110000000111111100101101100001100101011110011111101000001011000110111111101 C
b1000111111101111111011110111100100101010011010100111110000000111111100101101100001100101011110011111101000001011000110111111101 Q
b11111010011000110110101000101000001001011011001100111001110010010100000001100110100010100011000101010111001001000100110100010111 D
b11111010011000110110101000101000001001011011001100111001110010010100000001100110100010100011000101010111001001000100110100010111 K
b1101001101111110100000100000100 )"
b1000 R
b1001001000101010101100110001111 &"
b1010101111001011101011110100000 #"
b11011010110010101001010011111010 ~
b11111000010100110001111110111 {
b10110110111111110111010001001110110100101100001011001001101111110110110001011001000011001011111100000100011010011011111101000001 G
b10110110111111110111010001001110110100101100001011001001101111110110110001011001000011001011111100000100011010011011111101000001 L
b1000 H
b1000 I
b1001001000101010101100110001111010101011110010111010111101000001101101011001010100101001111101000011111000010100110001111110111 #
b1001001000101010101100110001111010101011110010111010111101000001101101011001010100101001111101000011111000010100110001111110111 2
b1001001000101010101100110001111010101011110010111010111101000001101101011001010100101001111101000011111000010100110001111110111 <
b1001001000101010101100110001111010101011110010111010111101000001101101011001010100101001111101000011111000010100110001111110111 A
b1001001000101010101100110001111010101011110010111010111101000001101101011001010100101001111101000011111000010100110001111110111 E
b1001001000101010101100110001111010101011110010111010111101000001101101011001010100101001111101000011111000010100110001111110111 J
1%
#55000
0%
#60000
b1110101010001111101011010010001 X
b10010111101111100100011110001110 b
b11111100010100111000110111111001 l
b1100011100001011011011110011111111111000101001110001101111110011001011110111110010001111000111001110101010001111101011010010001 P
b1100011100001011011011110011111 v
b10100000 V
b11101001 U
b10011100 S
b11010101 T
b111111 `
b110100 _
b11010100 ]
b11011111 ^
b1100 j
b11010000 i
b1011 g
b11010111 h
b1000000 t
b10011 s
b11011101 q
b10001110 r
b1011011 Y
b11111011 Z
b10010 [
b11000111 \
b1001 c
b110110 d
b10 e
b11011101 f
b111111 m
b110011 n
b11100011 o
b110100 p
b101101 w
b1101101 x
b1111110 y
b11110000 z
b1011011111110110001001011000111 W
b1001001101100000001011011101 a
b111111001100111110001100110100 k
b101101011011010111111011110000 u
b101101011011010111111011110000001111110011001111100011001101000000100100110110000000101101110101011011111110110001001011000111 M
b1101011010111010101010001010100 N
b1101011010111010101010001010100 *"
b101 +"
b101101111110110000001000110100 '"
b11111010 ("
b111111011011010001001011011101 $"
b100101 %"
b1001001100110111111011000111 !"
b1000000 ""
b101101111110110000001000110100001111110110110100010010110111010000100100110011011111101100011101011011001101101110001111110000 O
b1011011001101101110001111110000 |
b1010111 }
b111100101010101010001111101000101010011001111110011101111010110101000011110011101011110101011110101101111101100010001010101010 C
b111100101010101010001111101000101010011001111110011101111010110101000011110011101011110101011110101101111101100010001010101010 Q
b100100011100100100000000100011011010010110011010110011111110100110111011010010011101010011001010001000010000100101101101101100 D
b100100011100100100000000100011011010010110011010110011111110100110111011010010011101010011001010001000010000100101101101101100 K
b101100011011111110111111101 )"
b10000 R
b11111010011000110110101000101000 &"
b100101101100110011100111001001 #"
b1000000011001101000101000110001 ~
b1010111001001000100110100010111 {
b1000111111101111111011110111100100101010011010100111110000000111111100101101100001100101011110011111101000001011000110111111101 G
b1000111111101111111011110111100100101010011010100111110000000111111100101101100001100101011110011111101000001011000110111111101 L
b10000 H
b10000 I
b11111010011000110110101000101000001001011011001100111001110010010100000001100110100010100011000101010111001001000100110100010111 #
b11111010011000110110101000101000001001011011001100111001110010010100000001100110100010100011000101010111001001000100110100010111 2
b11111010011000110110101000101000001001011011001100111001110010010100000001100110100010100011000101010111001001000100110100010111 <
b11111010011000110110101000101000001001011011001100111001110010010100000001100110100010100011000101010111001001000100110100010111 A
b11111010011000110110101000101000001001011011001100111001110010010100000001100110100010100011000101010111001001000100110100010111 E
b11111010011000110110101000101000001001011011001100111001110010010100000001100110100010100011000101010111001001000100110100010111 J
1%
#65000
0%
#70000
b11101110100000011101100111100 X
b1110101111100011101011011000101 b
b110010111001010101010011010000 l
b11110100101111001101010001010100001100101110010101010100110100000111010111110001110101101100010100011101110100000011101100111100 P
b11110100101111001101010001010100 v
b10000100 V
b101101 U
b11100111 S
b1001110 T
b10110011 `
b100101 _
b10110010 ]
b100100 ^
b1001100 j
b10001100 i
b11011111 g
b11111 h
b101 t
b10101110 s
b1100110 q
b11001101 r
b11000100 Y
b1000000 Z
b1101101 [
b100011 \
b10011111 c
b101100 d
b1001 e
b101101 f
b11111001 m
b10110101 n
b111001 o
b100110 p
b110110 w
b110011 x
b10011101 y
b1010000 z
b11000100010000000110110100100011 W
b10011111001011000000100100101101 a
b11111001101101010011100100100110 k
b110110001100111001110101010000 u
b110110001100111001110101010000111110011011010100111001001001101001111100101100000010010010110111000100010000000110110100100011 M
b1000010100100111010110010010101 N
b1000010100100111010110010010101 *"
b11110110 +"
b110110010000000000100100100110 '"
b100100 ("
b11111001001100110110110100101101 $"
b1101001 %"
b10011111101101011001110100100011 !"
b1101110 ""
b110110010000000000100100100110111110010011001101101101001011011001111110110101100111010010001111000100001011000011100101010000 O
b11000100001011000011100101010000 |
b10001000 }
b1011110001110010000111101111101111101111010011010010010100101101010011101010101001111011100000100001010101000110001111101101011 C
b1011110001110010000111101111101111101111010011010010010100101101010011101010101001111011100000100001010101000110001111101101011 Q
b11001000000101100111011110111100100110110111101011001001001110110010010100000010011110011001001010110000001001100001100110010110 D
b11001000000101100111011110111100100110110111101011001001001110110010010100000010011110011001001010110000001001100001100110010110 K
b11110110001000101010101010101101 )"
b100000 R
b100100011100100100000000100011 &"
b1101001011001101011001111111010 #"
b1101110110100100111010100110010 ~
b10001000010000100101101101101100 {
b111100101010101010001111101000101010011001111110011101111010110101000011110011101011110101011110101101111101100010001010101010 G
b111100101010101010001111101000101010011001111110011101111010110101000011110011101011110101011110101101111101100010001010101010 L
b100000 H
b100000 I
b100100011100100100000000100011011010010110011010110011111110100110111011010010011101010011001010001000010000100101101101101100 #
b100100011100100100000000100011011010010110011010110011111110100110111011010010011101010011001010001000010000100101101101101100 2
b100100011100100100000000100011011010010110011010110011111110100110111011010010011101010011001010001000010000100101101101101100 <
b100100011100100100000000100011011010010110011010110011111110100110111011010010011101010011001010001000010000100101101101101100 A
b100100011100100100000000100011011010010110011010110011111110100110111011010010011101010011001010001000010000100101101101101100 E
b100100011100100100000000100011011010010110011010110011111110100110111011010010011101010011001010001000010000100101101101101100 J
1%
#75000
0%
#80000
b10001110010110101101000000110110 X
b1101011001011000000010010011100 b
b111110000111111101010101 l
b10011000000101101110111001110100000000001111100001111111010101010110101100101100000001001001110010001110010110101101000000110110 P
b10011000000101101110111001110100 v
b10100000 V
b10011010 U
b10101000 S
b10010010 T
b11001000 `
b10 _
b11011101 ]
b10111 ^
b1100011 j
b10100011 i
b1110001 g
b10110001 h
b110010 t
b1101100 s
b1111000 q
b100110 r
b11100111 Y
b1000111 Z
b11011101 [
b1001111 \
b111111 c
b11110111 d
b11110101 e
b11100010 f
b10100 m
b1110111 n
b11010100 o
b1100101 p
b11101000 w
b11011010 x
b10110110 y
b10010000 z
b11100111010001111101110101001111 W
b111111111101111111010111100010 a
b10100011101111101010001100101 k
b11101000110110101011011010010000 u
b11101000110110101011011010010000000101000111011111010100011001010011111111110111111101011110001011100111010001111101110101001111 M
b1010110000000111111101100111 N
b1010110000000111111101100111 *"
b10100011 +"
b11101000010001111111010101100101 '"
b11001000 ("
b10100110110101101110111100010 $"
b10011011 %"
b111111011101111011011001001111 !"
b100101 ""
b11101000010001111111010101100101000101001101101011011101111000100011111101110111101101100100111111100111111101111101010010010000 O
b11100111111101111101010010010000 |
b10110000 }
b10100111110010111000000011010111000110101111111100010100011000100010000001010110111110100110101001110101010011100000000100110 C
b10100111110010111000000011010111000110101111111100010100011000100010000001010110111110100110101001110101010011100000000100110 Q
b11000110001011111110000100001001111101110101111011101101110000111100110001111001001110010101110110000100111110011100111101011101 D
b11000110001011111110000100001001111101110101111011101101110000111100110001111001001110010101110110000100111110011100111101011101 K
b10100011000111110110101100001010 )"
b1000000 R
b11001000000101100111011110111100 &"
b10011011011110101100100100111011 #"
b100101000000100111100110010010 ~
b10110000001001100001100110010110 {
b1011110001110010000111101111101111101111010011010010010100101101010011101010101001111011100000100001010101000110001111101101011 G
b1011110001110010000111101111101111101111010011010010010100101101010011101010101001111011100000100001010101000110001111101101011 L
b1000000 H
b1000000 I
b11001000000101100111011110111100100110110111101011001001001110110010010100000010011110011001001010110000001001100001100110010110 #
b11001000000101100111011110111100100110110111101011001001001110110010010100000010011110011001001010110000001001100001100110010110 2
b11001000000101100111011110111100100110110111101011001001001110110010010100000010011110011001001010110000001001100001100110010110 <
b11001000000101100111011110111100100110110111101011001001001110110010010100000010011110011001001010110000001001100001100110010110 A
b11001000000101100111011110111100100110110111101011001001001110110010010100000010011110011001001010110000001001100001100110010110 E
b11001000000101100111011110111100100110110111101011001001001110110010010100000010011110011001001010110000001001100001100110010110 J
1%
#85000
0%
#90000
b10011000110001100011010000111001 X
b11110000010111110100101111100000 b
b10011010100110111101001010000110 l
b11000101011111100001110000010101100110101001101111010010100001101111000001011111010010111110000010011000110001100011010000111001 P
b11000101011111100001110000010101 v
b1001010 V
b1000000 U
b10011 S
b11001 T
b11010010 `
b1100001 _
b1100101 ]
b11010110 ^
b11011110 j
b111100 i
b1101001 g
b10001011 h
b11101100 t
b1001010 s
b11111000 q
b1011110 r
b1011111 Y
b10101 Z
b1010101 [
b1001100 \
b1001011 c
b10011001 d
b11111000 e
b101110 f
b1101000 m
b10110110 n
b10001010 o
b1 p
b10110100 w
b1011000 x
b10010 y
b1001100 z
b1011111000101010101010101001100 W
b1001011100110011111100000101110 a
b1101000101101101000101000000001 k
b10110100010110000001001001001100 u
b10110100010110000001001001001100011010001011011010001010000000010100101110011001111110000010111001011111000101010101010101001100 M
b11010011101110101111011100101111 N
b11010011101110101111011100101111 *"
b10101001 +"
b10110100000101011111100000000001 '"
b11000110 ("
b1101000010110000101010100101110 $"
b11110111 %"
b1001011101101100001001001001100 !"
b11001100 ""
b10110100000101011111100000000001011010000101100001010101001011100100101110110110000100100100110001011111100110011000101001001100 O
b1011111100110011000101001001100 |
b10000100 }
b1000111010000111000011100110101101001000001110001100101101110011110000000010110101110101111010010101110101111110111101011010010 C
b1000111010000111000011100110101101001000001110001100101101110011110000000010110101110101111010010101110101111110111101011010010 Q
b11010001100001110110110000001111011110011100010000110000000010101011010001010101100101001010110111010110011011111111010000011111 D
b11010001100001110110110000001111011110011100010000110000000010101011010001010101100101001010110111010110011011111111010000011111 K
b10101001110000000010011001001110 )"
b10000000 R
b11000110001011111110000100001001 &"
b11110111010111101110110111000011 #"
b11001100011110010011100101011101 ~
b10000100111110011100111101011101 {
b10100111110010111000000011010111000110101111111100010100011000100010000001010110111110100110101001110101010011100000000100110 G
b10100111110010111000000011010111000110101111111100010100011000100010000001010110111110100110101001110101010011100000000100110 L
b10000000 H
b10000000 I
b11000110001011111110000100001001111101110101111011101101110000111100110001111001001110010101110110000100111110011100111101011101 #
b11000110001011111110000100001001111101110101111011101101110000111100110001111001001110010101110110000100111110011100111101011101 2
b11000110001011111110000100001001111101110101111011101101110000111100110001111001001110010101110110000100111110011100111101011101 <
b11000110001011111110000100001001111101110101111011101101110000111100110001111001001110010101110110000100111110011100111101011101 A
b11000110001011111110000100001001111101110101111011101101110000111100110001111001001110010101110110000100111110011100111101011101 E
b11000110001011111110000100001001111101110101111011101101110000111100110001111001001110010101110110000100111110011100111101011101 J
1%
#95000
0%
#100000
b1011111010000010100110100100011 X
b11010101010100010010110010111010 b
b10100001111110011011010101101110 l
b10111010101000000011110111100111101000011111100110110101011011101101010101010001001011001011101001011111010000010100110100100011 P
b10111010101000000011110111100111 v
b11100001 V
b10011 U
b1100011 S
b10010001 T
b100101 `
b11111000 _
b11101010 ]
b110111 ^
b1001010 j
b1000011 i
b11000000 g
b11001001 h
b100010 t
b111110 s
b11111110 q
b11100010 r
b11110110 Y
b10111 Z
b100 [
b10010101 \
b10001101 c
b10101000 d
b1010000 e
b1100111 f
b10110110 m
b11111100 n
b10111111 o
b1110110 p
b111110 w
b11100 x
b100010 y
b11000000 z
b11110110000101110000010010010101 W
b10001101101010000101000001100111 a
b10110110111111001011111101110110 k
b111110000111000010001011000000 u
b111110000111000010001011000000101101101111110010111111011101101000110110101000010100000110011111110110000101110000010010010101 M
b1000110110101011010111100100 N
b1000110110101011010111100100 *"
b10111111 +"
b111110000101110101000001110110 '"
b11010001 ("
b10110110000111000000010001100111 $"
b1111001 %"
b10001101111111000010001010010101 !"
b10110100 ""
b111110000101110101000001110110101101100001110000000100011001111000110111111100001000101001010111110110101010001011111111000000 O
b11110110101010001011111111000000 |
b11010110 }
b1010100100110010011001011010001111100001000010101010111011010000001000010010011111011011001110010111110001011001001011101001110 C
b1010100100110010011001011010001111100001000010101010111011010000001000010010011111011011001110010111110001011001001011101001110 Q
b11111101111000111011101011010010000001011110010111010000110101110011010101000111100101100100111011110001111111100011011111110001 D
b11111101111000111011101011010010000001011110010111010000110101110011010101000111100101100100111011110001111111100011011111110001 K
b10111111011110101101001010101110 )"
b100000000 R
b11010001100001110110110000001111 &"
b1111001110001000011000000001010 #"
b10110100010101011001010010101101 ~
b11010110011011111111010000011111 {
b1000111010000111000011100110101101001000001110001100101101110011110000000010110101110101111010010101110101111110111101011010010 G
b1000111010000111000011100110101101001000001110001100101101110011110000000010110101110101111010010101110101111110111101011010010 L
b100000000 H
b100000000 I
b11010001100001110110110000001111011110011100010000110000000010101011010001010101100101001010110111010110011011111111010000011111 #
b11010001100001110110110000001111011110011100010000110000000010101011010001010101100101001010110111010110011011111111010000011111 2
b11010001100001110110110000001111011110011100010000110000000010101011010001010101100101001010110111010110011011111111010000011111 <
b11010001100001110110110000001111011110011100010000110000000010101011010001010101100101001010110111010110011011111111010000011111 A
b11010001100001110110110000001111011110011100010000110000000010101011010001010101100101001010110111010110011011111111010000011111 E
b11010001100001110110110000001111011110011100010000110000000010101011010001010101100101001010110111010110011011111111010000011111 J
1%
#105000
0%
