data/aes128_table_ecb/aes128_table_ecb.vcd
$date
	Mon Sep  8 16:16:13 2025
$end
$version
	Icarus Verilog
$end
$timescale
	1ps
$end
$scope module tb_aes128_table_ecb_bench $end
$var wire 1 ! hahaha $end
$var reg 1 " DEFAULT_CLOCK $end
$var reg 1 # DEFAULT_RESET $end
$var reg 1 $ clk $end
$var reg 1 % rst $end
$scope module tb_aes128_table_ecb_ $end
$var wire 1 $ clk $end
$var wire 1 ! hahaha $end
$var wire 1 % rst $end
$var wire 1 & text_val $end
$var wire 128 ' text_out [127:0] $end
$var wire 128 ( r10_key [127:0] $end
$var wire 1 ) key_val $end
$var wire 1 * busy $end
$var reg 1 + clock $end
$var reg 1 , enc_dec $end
$var reg 1 - key_exp $end
$var reg 128 . key_in [127:0] $end
$var reg 1 / resetn $end
$var reg 1 0 start $end
$var reg 128 1 text_in [127:0] $end
$scope module dut $end
$var wire 128 2 add_iroundkey0 [127:0] $end
$var wire 128 3 add_roundkey0 [127:0] $end
$var wire 1 + clock $end
$var wire 1 , enc_dec $end
$var wire 32 4 itemp [31:0] $end
$var wire 1 - key_exp $end
$var wire 128 5 key_in [127:0] $end
$var wire 128 6 r10_key [127:0] $end
$var wire 1 / resetn $end
$var wire 1 0 start $end
$var wire 128 7 text_in [127:0] $end
$var wire 128 8 text_out [127:0] $end
$var wire 32 9 temp [31:0] $end
$var wire 32 : sword [31:0] $end
$var wire 32 ; rotword [31:0] $end
$var wire 8 < rcon [7:0] $end
$var wire 128 = next_key [127:0] $end
$var wire 128 > next_ikey [127:0] $end
$var wire 32 ? irotword [31:0] $end
$var wire 8 @ ircon [7:0] $end
$var wire 128 A cipher_text [127:0] $end
$var wire 128 B add_roundkey [127:0] $end
$var wire 128 C add_iroundkey [127:0] $end
$var reg 1 * busy $end
$var reg 1 ) key_val $end
$var reg 3 D next_state [2:0] $end
$var reg 3 E now_state [2:0] $end
$var reg 128 F round10_key [127:0] $end
$var reg 4 G round_n [3:0] $end
$var reg 1 H start_flag $end
$var reg 1 & text_val $end
$scope module InvMixColumn0 $end
$var wire 8 I m0c [7:0] $end
$var wire 8 J m1c [7:0] $end
$var wire 8 K m2c [7:0] $end
$var wire 8 L m3c [7:0] $end
$var wire 8 M s0c [7:0] $end
$var wire 8 N s1c [7:0] $end
$var wire 8 O s2c [7:0] $end
$var wire 8 P s3c [7:0] $end
$scope function mul4x8 $end
$var reg 8 Q c0 [7:0] $end
$var reg 8 R c1 [7:0] $end
$var reg 8 S c2 [7:0] $end
$var reg 4 T mx [3:0] $end
$var reg 8 U sc [7:0] $end
$var reg 8 V sxm0 [7:0] $end
$var reg 8 W sxm1 [7:0] $end
$var reg 8 X sxm2 [7:0] $end
$var reg 8 Y sxm3 [7:0] $end
$var reg 11 Z temp [10:0] $end
$upscope $end
$upscope $end
$scope module InvMixColumn1 $end
$var wire 8 [ m0c [7:0] $end
$var wire 8 \ m1c [7:0] $end
$var wire 8 ] m2c [7:0] $end
$var wire 8 ^ m3c [7:0] $end
$var wire 8 _ s0c [7:0] $end
$var wire 8 ` s1c [7:0] $end
$var wire 8 a s2c [7:0] $end
$var wire 8 b s3c [7:0] $end
$scope function mul4x8 $end
$var reg 8 c c0 [7:0] $end
$var reg 8 d c1 [7:0] $end
$var reg 8 e c2 [7:0] $end
$var reg 4 f mx [3:0] $end
$var reg 8 g sc [7:0] $end
$var reg 8 h sxm0 [7:0] $end
$var reg 8 i sxm1 [7:0] $end
$var reg 8 j sxm2 [7:0] $end
$var reg 8 k sxm3 [7:0] $end
$var reg 11 l temp [10:0] $end
$upscope $end
$upscope $end
$scope module InvMixColumn2 $end
$var wire 8 m m0c [7:0] $end
$var wire 8 n m1c [7:0] $end
$var wire 8 o m2c [7:0] $end
$var wire 8 p m3c [7:0] $end
$var wire 8 q s0c [7:0] $end
$var wire 8 r s1c [7:0] $end
$var wire 8 s s2c [7:0] $end
$var wire 8 t s3c [7:0] $end
$scope function mul4x8 $end
$var reg 8 u c0 [7:0] $end
$var reg 8 v c1 [7:0] $end
$var reg 8 w c2 [7:0] $end
$var reg 4 x mx [3:0] $end
$var reg 8 y sc [7:0] $end
$var reg 8 z sxm0 [7:0] $end
$var reg 8 { sxm1 [7:0] $end
$var reg 8 | sxm2 [7:0] $end
$var reg 8 } sxm3 [7:0] $end
$var reg 11 ~ temp [10:0] $end
$upscope $end
$upscope $end
$scope module InvMixColumn3 $end
$var wire 8 !" m0c [7:0] $end
$var wire 8 "" m1c [7:0] $end
$var wire 8 #" m2c [7:0] $end
$var wire 8 $" m3c [7:0] $end
$var wire 8 %" s0c [7:0] $end
$var wire 8 &" s1c [7:0] $end
$var wire 8 '" s2c [7:0] $end
$var wire 8 (" s3c [7:0] $end
$scope function mul4x8 $end
$var reg 8 )" c0 [7:0] $end
$var reg 8 *" c1 [7:0] $end
$var reg 8 +" c2 [7:0] $end
$var reg 4 ," mx [3:0] $end
$var reg 8 -" sc [7:0] $end
$var reg 8 ." sxm0 [7:0] $end
$var reg 8 /" sxm1 [7:0] $end
$var reg 8 0" sxm2 [7:0] $end
$var reg 8 1" sxm3 [7:0] $end
$var reg 11 2" temp [10:0] $end
$upscope $end
$upscope $end
$scope module InvSubBytes $end
$var wire 8 3" a00 [7:0] $end
$var wire 8 4" a01 [7:0] $end
$var wire 8 5" a02 [7:0] $end
$var wire 8 6" a03 [7:0] $end
$var wire 8 7" a10 [7:0] $end
$var wire 8 8" a11 [7:0] $end
$var wire 8 9" a12 [7:0] $end
$var wire 8 :" a13 [7:0] $end
$var wire 8 ;" a20 [7:0] $end
$var wire 8 <" a21 [7:0] $end
$var wire 8 =" a22 [7:0] $end
$var wire 8 >" a23 [7:0] $end
$var wire 8 ?" a30 [7:0] $end
$var wire 8 @" a31 [7:0] $end
$var wire 8 A" a32 [7:0] $end
$var wire 8 B" a33 [7:0] $end
$var wire 8 C" b33 [7:0] $end
$var wire 8 D" b32 [7:0] $end
$var wire 8 E" b31 [7:0] $end
$var wire 8 F" b30 [7:0] $end
$var wire 8 G" b23 [7:0] $end
$var wire 8 H" b22 [7:0] $end
$var wire 8 I" b21 [7:0] $end
$var wire 8 J" b20 [7:0] $end
$var wire 8 K" b13 [7:0] $end
$var wire 8 L" b12 [7:0] $end
$var wire 8 M" b11 [7:0] $end
$var wire 8 N" b10 [7:0] $end
$var wire 8 O" b03 [7:0] $end
$var wire 8 P" b02 [7:0] $end
$var wire 8 Q" b01 [7:0] $end
$var wire 8 R" b00 [7:0] $end
$scope function is_box $end
$var reg 8 S" aij [7:0] $end
$upscope $end
$upscope $end
$scope module MixColumns0 $end
$var wire 8 T" m0c [7:0] $end
$var wire 8 U" m1c [7:0] $end
$var wire 8 V" m2c [7:0] $end
$var wire 8 W" m3c [7:0] $end
$var wire 8 X" s0c [7:0] $end
$var wire 8 Y" s1c [7:0] $end
$var wire 8 Z" s2c [7:0] $end
$var wire 8 [" s3c [7:0] $end
$scope function mul4x8 $end
$var reg 8 \" c0 [7:0] $end
$var reg 8 ]" c1 [7:0] $end
$var reg 8 ^" c2 [7:0] $end
$var reg 4 _" mx [3:0] $end
$var reg 8 `" sc [7:0] $end
$var reg 8 a" sxm0 [7:0] $end
$var reg 8 b" sxm1 [7:0] $end
$var reg 8 c" sxm2 [7:0] $end
$var reg 8 d" sxm3 [7:0] $end
$var reg 11 e" temp [10:0] $end
$upscope $end
$upscope $end
$scope module MixColumns1 $end
$var wire 8 f" m0c [7:0] $end
$var wire 8 g" m1c [7:0] $end
$var wire 8 h" m2c [7:0] $end
$var wire 8 i" m3c [7:0] $end
$var wire 8 j" s0c [7:0] $end
$var wire 8 k" s1c [7:0] $end
$var wire 8 l" s2c [7:0] $end
$var wire 8 m" s3c [7:0] $end
$scope function mul4x8 $end
$var reg 8 n" c0 [7:0] $end
$var reg 8 o" c1 [7:0] $end
$var reg 8 p" c2 [7:0] $end
$var reg 4 q" mx [3:0] $end
$var reg 8 r" sc [7:0] $end
$var reg 8 s" sxm0 [7:0] $end
$var reg 8 t" sxm1 [7:0] $end
$var reg 8 u" sxm2 [7:0] $end
$var reg 8 v" sxm3 [7:0] $end
$var reg 11 w" temp [10:0] $end
$upscope $end
$upscope $end
$scope module MixColumns2 $end
$var wire 8 x" m0c [7:0] $end
$var wire 8 y" m1c [7:0] $end
$var wire 8 z" m2c [7:0] $end
$var wire 8 {" m3c [7:0] $end
$var wire 8 |" s0c [7:0] $end
$var wire 8 }" s1c [7:0] $end
$var wire 8 ~" s2c [7:0] $end
$var wire 8 !# s3c [7:0] $end
$scope function mul4x8 $end
$var reg 8 "# c0 [7:0] $end
$var reg 8 ## c1 [7:0] $end
$var reg 8 $# c2 [7:0] $end
$var reg 4 %# mx [3:0] $end
$var reg 8 &# sc [7:0] $end
$var reg 8 '# sxm0 [7:0] $end
$var reg 8 (# sxm1 [7:0] $end
$var reg 8 )# sxm2 [7:0] $end
$var reg 8 *# sxm3 [7:0] $end
$var reg 11 +# temp [10:0] $end
$upscope $end
$upscope $end
$scope module MixColumns3 $end
$var wire 8 ,# m0c [7:0] $end
$var wire 8 -# m1c [7:0] $end
$var wire 8 .# m2c [7:0] $end
$var wire 8 /# m3c [7:0] $end
$var wire 8 0# s0c [7:0] $end
$var wire 8 1# s1c [7:0] $end
$var wire 8 2# s2c [7:0] $end
$var wire 8 3# s3c [7:0] $end
$scope function mul4x8 $end
$var reg 8 4# c0 [7:0] $end
$var reg 8 5# c1 [7:0] $end
$var reg 8 6# c2 [7:0] $end
$var reg 4 7# mx [3:0] $end
$var reg 8 8# sc [7:0] $end
$var reg 8 9# sxm0 [7:0] $end
$var reg 8 :# sxm1 [7:0] $end
$var reg 8 ;# sxm2 [7:0] $end
$var reg 8 <# sxm3 [7:0] $end
$var reg 11 =# temp [10:0] $end
$upscope $end
$upscope $end
$scope module SubBytes $end
$var wire 8 ># a00 [7:0] $end
$var wire 8 ?# a01 [7:0] $end
$var wire 8 @# a02 [7:0] $end
$var wire 8 A# a03 [7:0] $end
$var wire 8 B# a10 [7:0] $end
$var wire 8 C# a11 [7:0] $end
$var wire 8 D# a12 [7:0] $end
$var wire 8 E# a13 [7:0] $end
$var wire 8 F# a20 [7:0] $end
$var wire 8 G# a21 [7:0] $end
$var wire 8 H# a22 [7:0] $end
$var wire 8 I# a23 [7:0] $end
$var wire 8 J# a30 [7:0] $end
$var wire 8 K# a31 [7:0] $end
$var wire 8 L# a32 [7:0] $end
$var wire 8 M# a33 [7:0] $end
$var wire 8 N# b33 [7:0] $end
$var wire 8 O# b32 [7:0] $end
$var wire 8 P# b31 [7:0] $end
$var wire 8 Q# b30 [7:0] $end
$var wire 8 R# b23 [7:0] $end
$var wire 8 S# b22 [7:0] $end
$var wire 8 T# b21 [7:0] $end
$var wire 8 U# b20 [7:0] $end
$var wire 8 V# b13 [7:0] $end
$var wire 8 W# b12 [7:0] $end
$var wire 8 X# b11 [7:0] $end
$var wire 8 Y# b10 [7:0] $end
$var wire 8 Z# b03 [7:0] $end
$var wire 8 [# b02 [7:0] $end
$var wire 8 \# b01 [7:0] $end
$var wire 8 ]# b00 [7:0] $end
$scope function s_box $end
$var reg 8 ^# aij [7:0] $end
$upscope $end
$upscope $end
$scope module SubWord $end
$var wire 32 _# a [31:0] $end
$var wire 32 `# b [31:0] $end
$scope function s_box $end
$var reg 8 a# aij [7:0] $end
$upscope $end
$upscope $end
$scope module iSubWord $end
$var wire 32 b# a [31:0] $end
$var wire 32 c# b [31:0] $end
$scope function s_box $end
$var reg 8 d# aij [7:0] $end
$upscope $end
$upscope $end
$upscope $end
$upscope $end
$upscope $end
$enddefinitions $end
#0
$dumpvars
b0 d#
b1100011011000110110001101100011 c#
b0 b#
b0 a#
b1100011011000110110001101100011 `#
b0 _#
b0 ^#
b1100011 ]#
b1100011 \#
b1100011 [#
b1100011 Z#
b1100011 Y#
b1100011 X#
b1100011 W#
b1100011 V#
b1100011 U#
b1100011 T#
b1100011 S#
b1100011 R#
b1100011 Q#
b1100011 P#
b1100011 O#
b1100011 N#
b0 M#
b0 L#
b0 K#
b0 J#
b0 I#
b0 H#
b0 G#
b0 F#
b0 E#
b0 D#
b0 C#
b0 B#
b0 A#
b0 @#
b0 ?#
b0 >#
b10100101 =#
b0 <#
b0 ;#
b1100011 :#
b1100011 9#
b1100011 8#
b11 7#
b0 6#
b0 5#
b0 4#
b1100011 3#
b1100011 2#
b1100011 1#
b1100011 0#
b1100011 /#
b1100011 .#
b1100011 -#
b1100011 ,#
b1100011 +#
b0 *#
b0 )#
b0 (#
b1100011 '#
b1100011 &#
b1 %#
b0 $#
b0 ##
b0 "#
b1100011 !#
b1100011 ~"
b1100011 }"
b1100011 |"
b1100011 {"
b1100011 z"
b1100011 y"
b1100011 x"
b1100011 w"
b0 v"
b0 u"
b0 t"
b1100011 s"
b1100011 r"
b1 q"
b0 p"
b0 o"
b0 n"
b1100011 m"
b1100011 l"
b1100011 k"
b1100011 j"
b1100011 i"
b1100011 h"
b1100011 g"
b1100011 f"
b11000110 e"
b0 d"
b0 c"
b1100011 b"
b0 a"
b1100011 `"
b10 _"
b0 ^"
b0 ]"
b0 \"
b1100011 ["
b1100011 Z"
b1100011 Y"
b1100011 X"
b1100011 W"
b1100011 V"
b1100011 U"
b1100011 T"
b0 S"
b1010010 R"
b1010010 Q"
b1010010 P"
b1010010 O"
b1010010 N"
b1010010 M"
b1010010 L"
b1010010 K"
b1010010 J"
b1010010 I"
b1010010 H"
b1010010 G"
b1010010 F"
b1010010 E"
b1010010 D"
b1010010 C"
b0 B"
b0 A"
b0 @"
b0 ?"
b0 >"
b0 ="
b0 <"
b0 ;"
b0 :"
b0 9"
b0 8"
b0 7"
b0 6"
b0 5"
b0 4"
b0 3"
b1101111100 2"
b1010010 1"
b1010010 0"
b1010010 /"
b0 ."
b1010010 -"
b1110 ,"
b0 +"
b110110 *"
b11011 )"
b1010010 ("
b1010010 '"
b1010010 &"
b1010010 %"
b1010010 $"
b1010010 #"
b1010010 ""
b1010010 !"
b1101111100 ~
b1010010 }
b1010010 |
b1010010 {
b0 z
b1010010 y
b1110 x
b0 w
b110110 v
b11011 u
b1010010 t
b1010010 s
b1010010 r
b1010010 q
b1010010 p
b1010010 o
b1010010 n
b1010010 m
b1101111100 l
b1010010 k
b1010010 j
b1010010 i
b0 h
b1010010 g
b1110 f
b0 e
b110110 d
b11011 c
b1010010 b
b1010010 a
b1010010 `
b1010010 _
b1010010 ^
b1010010 ]
b1010010 \
b1010010 [
b1101111100 Z
b1010010 Y
b1010010 X
b1010010 W
b0 V
b1010010 U
b1110 T
b0 S
b110110 R
b11011 Q
b1010010 P
b1010010 O
b1010010 N
b1010010 M
b1010010 L
b1010010 K
b1010010 J
b1010010 I
0H
b0 G
b0 F
b0 E
b0 D
b1010010010100100101001001010010010100100101001001010010010100100101001001010010010100100101001001010010010100100101001001010010 C
b1100011011000110110001101100011011000110110001101100011011000110110001101100011011000110110001101100011011000110110001101100011 B
b1100011011000110110001101100011011000110110001101100011011000110110001101100011011000110110001101100011011000110110001101100011 A
b110110 @
b1100011011000110110001101100011 ?
b1010101011000110110001101100011000000000000000000000000000000000000000000000000000000000000000000000000000000000000000000000000 >
b1100010011000110110001101100011011000100110001101100011011000110110001001100011011000110110001101100010011000110110001101100011 =
b1 <
b0 ;
b1100011011000110110001101100011 :
b1100011011000110110001101100011 9
b0 8
b1111011010101000100010000101101000110000100011010011000100110001100110001010001011100000001101110000011100110100 7
b0 6
b101011011111100001010100010110001010001010111011010010101001101010101111110111000101011000100000001001110011110100111100111100 5
b0 4
b1111011010101000100010000101101000110000100011010011000100110001100110001010001011100000001101110000011100110100 3
b1111011010101000100010000101101000110000100011010011000100110001100110001010001011100000001101110000011100110100 2
b1111011010101000100010000101101000110000100011010011000100110001100110001010001011100000001101110000011100110100 1
00
0/
b101011011111100001010100010110001010001010111011010010101001101010101111110111000101011000100000001001110011110100111100111100 .
0-
0,
0+
0*
0)
b0 (
b0 '
0&
x%
x$
1#
1"
1!
$end
#5000
1+
#10000
0+
#15000
1+
#20000
0+
1/
#24000
1%
0$
#25000
b10001010100001001110101100000001 9
b10001010100001001110101100000001 `#
b11001111 a#
b10100000111110101111111000010111100010000101010000101100101100010010001110100011001110010011100100101010011011000111011000000101 =
b1001000000111010111011001110101010010111100110110110001110001011100100010010100011101101110101101101010101011000010110001011111 B
b1001000000111010111011001110101010010111100110110110001110001011100100010010100011101101110101101101010101011000010110001011111 A
b11001111010011110011110000001001 ;
b11001111010011110011110000001001 _#
b101011011111101110001110111110101000001111010011100010001010111001101011000110100011010010101011101001111110000100100000001000 3
1+
0"
#26000
0#
#30000
0+
#35000
1+
#40000
b1 D
0+
1-
#45000
b1111000011000110110001101100011000000000000000000000000000000000000000000000000000000000000000000000000000000000000000000000000 >
b11011 @
b1010000001110000110101111100101 9
b1010000001110000110101111100101 `#
b1101100 a#
b11110010110000101001010111110010011110101001011010111001010000110101100100110101100000000111101001110011010110011111011001111111 =
b11000011100110011001110101110100111010110011011101001111110100100100000011000000010110100101101001001001000011110001010101100110 B
b11000011100110011001110101110100111010110011011101001111110100100100000011000000010110100101101001001001000011110001010101100110 A
b1101100011101100000010100101010 ;
b1101100011101100000010100101010 _#
b10100000111110100000100010111111000000000000111000011100001111000001001010010010101000011001101111001010010110110111000100110001 3
b10 <
b1 G
b1 E
1+
#50000
0+
1"
#55000
b11100011011000110110001101100011000000000000000000000000000000000000000000000000000000000000000000000000000000000000000000000000 >
b10000000 @
b100 <
b11001011010000101101001010001111 9
b11001011010000101101001010001111 `#
b1011001 a#
b111101100000000100011101111101010001110001011011111110001111100001111000100011011111100100010001101101011110101000100000111011 =
b10010001101000011111011010010001000110011111010111011010001000000011101001010110111000110001100100010000001110101001010100011100 B
b10010001101000011111011010010001000110011111010111011010001000000011101001010110111000110001100100010000001110101001010100011100 A
b1011001111101100111111101110011 ;
b1011001111101100111111101110011 _#
b11110010110000100110001101011010111100101100110010001001110011100110100000000100000110001101100010010011011011101111000101001011 3
b10 G
1+
#60000
0+
0-
#65000
b100011011000110110001101100011000000000000000000000000000000000000000000000000000000000000000000000000000000000000000000000000 >
b1000000 @
b1000 <
b11011010110001001110001000111100 9
b11011010110001001110001000111100 `#
b1111010 a#
b11101111010001001010010101000001101010000101001001011011011111111011011001110001001001010011101111011011000010111010110100000000 =
b1011110111000110010010000011110001001000111010110011101010111010111110101000000000111010010011100001110000110011110101101011000 B
b1011110111000110010010000011110001001000111010110011101010111010111110101000000000111010010011100001110000110011110101101011000 A
b1111010100010000011101101101101 ;
b1111010100010000011101101101101 _#
b111101100000001011000111010101110011110100110011001110101100110010111100010010111001101110011010001101010011011000111100001111 3
b11 G
1+
#70000
0+
#74000
1$
#75000
b1000011011000110110001101100011000000000000000000000000000000000000000000000000000000000000000000000000000000000000000000000000 >
b100000 @
b10000 <
b101011100101010110001110111001 9
b101011100101010110001110111001 `#
b1011 a#
b11010100110100011100011011111000011111001000001110011101100001111100101011110010101110001011110000010001111110010001010110111100 =
b10001100001001111100011000100010110010110011000100111000000111001101010100010010010001100101100010111000011010001100111001100011 B
b10001100001001111100011000100010110010110011000100111000000111001101010100010010010001100101100010111000011010001100111001100011 A
b1011101011010000000011011011 ;
b1011101011010000000011011011 _#
b11101111010001000101001111101001001000000000100001101011111100101000011101000000101111011001100100111011001111001010101000110100 3
b100 G
1+
0"
#80000
0+
10
#85000
b100000 <
b10000 @
b11101010 I
b1010 J
b10001010 K
b1001010 L
b0 Q
b0 V
b1110 T
b0 R
b11101110 Z
b10001 Y
b10001 X
b10001 W
b10001 U
b10011001010110010110010110000010 9
b10011001010110010110010110000010 `#
b11111001 a#
b10001 M
b110001 N
b110001 O
b110001 P
b110000000000000000000000000000010000110110001101100011011000110000000000000000000000000000000000000000000000000000000000000000 >
b10001001100010011000100110001010100100101001001010010010100100101001001010010010100100101001001010010010100100101001001010010 C
b1000011011000111001010111001011100010000101101000110000100011010011000100110001100110001010001011100000001101110000011100110100 2
b1101101100010001010001101111010000100010000101100111110111111011101101111111001100001100100000111001010000000001001001111111101 =
b10110111101100101010010110011011000111111110000011111110111001001010100110010001110110111101111101110010100110100111011011011111 B
b10110111101100101010010110011011000111111110000011111110111001001010100110010001110110111101111101110010100110100111011011011111 A
b11111001000101011011110000010001 ;
b11111001000101011011110000010001 _#
b11010100110100010011000001010000111101001101100110101101000010101111101111000011001000000001111011110001110011100001001010001000 3
b101 G
1H
1+
#90000
0+
#95000
b1000000 <
b1000 @
b1101001 I
b11111001 J
b111001 K
b10011001 L
b11101010 [
b1010 \
b10001010 ]
b1001010 ^
b1100011110111000101010001110100 9
b1100011110111000101010001110100 `#
b0 a#
b0 V
b1110 T
b110110 R
b0 Q
b1001011100 Z
b1100010 Y
b1100010 X
b1100010 W
b1100010 U
b0 c
b0 h
b1110 f
b0 d
b11101110 l
b10001 k
b10001 j
b10001 i
b10001 g
b1100010 M
b1010010 N
b1010010 O
b1010010 P
b10001 _
b110001 `
b110001 a
b110001 b
b1001110010101001111011100001110010111110101111111001001111100111000010010100110010011111011001001001110101001101101110001001111 =
b1110111010111100000000011001011100100110100001011101100111101011100010011010111001010010001010101001011000111111000010011110 B
b1110111010111100000000011001011100100110100001011101100111101011100010011010111001010010001010101001011000111111000010011110 A
b100100111111110111001010 ;
b100100111111110111001010 _#
b1101101100010000101010111010010100110010101000100001110011100001110101011001000000111101110001100101010001101111001010011001001 3
b1011011011000110110001101100011011100110110001101100011011000110100001101100011011000110110001100000000000000000000000000000000 >
b1100010010100100101001001010010000100010011000100110001001100010101001001010010010100100101001001010010010100100101001001010010 C
b110000000000001111011010101000110010110011100101010011111011100011000100110001100110001010001011100000001101110000011100110100 2
b110 G
1+
#100000
0+
00
1"
#105000
b10000000 <
b11010001 [
b10100001 \
b11100001 ]
b10000001 ^
b1111010 I
b11010010 J
b110010 K
b10100010 L
b11111011111110111111101100011010 ?
b11101010 m
b1010 n
b10001010 o
b1001010 p
b100 @
b0 V
b1110 T
b0 R
b0 Q
b1111110 Z
b1001 Y
b1001 X
b1001 W
b1001 U
b11011 c
b111001110 l
b100001 k
b100001 j
b100001 i
b0 h
b100001 g
b1110 f
b11010111110111111101111111011 :
b11010111110111111101111111011 c#
b1000011 d#
b0 u
b0 z
b1110 x
b0 v
b11101110 ~
b10001 }
b10001 |
b10001 {
b10001 y
b100100100001101000010000101111 9
b100100100001101000010000101111 `#
b10100110 a#
b1001 M
b110001 N
b110001 O
b110001 P
b100001 _
b10001 q
b110001 r
b110001 s
b110001 t
b1000011011000110110001101100011 4
b1000011011000110110001101100011 b#
b10100100100110001001100001111001001010000000000000000000000000000011000000000000000000000000000001000011011000110110001101100011 >
b1001001100010011000100110001001000010011000100110001001100010001000100110001001100010011000101010010010100100101001001010010 C
b1011011011000111001010111001011111110110011100101010011111011100111001001010010111110111100000111100000001101110000011100110100 2
b11101010110100100111001100100001101101011000110110111010110100100011000100101011111101010110000001111111100011010010100100101111 =
b101101001101111001010001101101001111000011110010101010100100001110011111000101001011001101000100101101110001011011111100101100 B
b101101001101111001010001101101001111000011110010101010100100001110011111000101001011001101000100101101110001011011111100101100 A
b10100110110111000100111101001110 ;
b10100110110111000100111101001110 _#
b1001110010101000000000110100110110101110000010111111001011111101011010110010111110101110001000010101110100100011101101101111011 3
b111 G
1+
#110000
0+
#115000
b11011 <
b10001 I
b1100 J
b10001100 K
b1001100 L
b11111001 [
b100001 \
b10000001 ]
b1110001 ^
b1101001 m
b11111001 n
b111001 o
b10011001 p
b11111011111110111111101110001111 ?
b11101010 !"
b1010 ""
b10001010 #"
b1001010 $"
b10 @
b1011101101001010001010111010010 9
b1011101101001010001010111010010 `#
b10001101 a#
b1101100 S
b0 R
b0 V
b1110 T
b11011 Q
b10110000100 Z
b11110110 Y
b11110110 X
b11110110 W
b11110110 U
b0 c
b0 h
b1110 f
b110110 d
b1011001100 l
b1111010 k
b1111010 j
b1111010 i
b1111010 g
b0 z
b1110 x
b110110 v
b0 u
b1001011100 ~
b1100010 }
b1100010 |
b1100010 {
b1100010 y
b10001111111110111111101111111011 :
b10001111111110111111101111111011 c#
b1110011 d#
b0 )"
b0 ."
b1110 ,"
b0 *"
b11101110 2"
b10001 1"
b10001 0"
b10001 /"
b10001 -"
b11110110 M
b11001010 N
b11001010 O
b101011 P
b1111010 _
b1010010 `
b1010010 a
b1010010 b
b1100010 q
b1010010 r
b1010010 s
b1010010 t
b10001 %"
b110001 &"
b110001 '"
b110001 ("
b10101100011101110110011011110011000110011111101011011100001000010010100011010001001010010100000101010111010111000000000001101110 =
b10001001101100010001000001000010110101101110111011011001101100010101001001001000100101100000001100011100111011100100101001001100 B
b10001001101100010001000001000010110101101110111011011001101100010101001001001000100101100000001100011100111011100100101001001100 A
b10001101001010010010111101111111 ;
b10001101001010010010111101111111 _#
b11101010110100101000010110001001001111011101011110001010010111110000000000011010011011011100001010011111101110100010111000011011 3
b1110011011000110110001101100011 4
b1110011011000110110001101100011 b#
b1011101011000110110001111110110100011001001100010011000011110010001100000000000000000000000000001110011011000110110001101100011 >
b11110110110010101100101000101011011110100101001001010010010100100110001001010010010100100101001000010001001100010011000100110001 C
b10100100100110000110111011010001101000000101101000110000100011010000000100110001100110001010001010100011010101000110010001010111 2
b1000 G
1+
#120000
0+
#125000
b110110 <
b11000010 m
b10001010 n
b11101010 o
b10111010 p
b11010001 !"
b10100001 ""
b11100001 #"
b10000001 $"
b1111 I
b11010111 J
b1111100 K
b1111 L
b10111010 [
b1111111 \
b1011111 ]
b1101111 ^
b11111011111110111111101101111111 ?
b0 S
b0 V
b1110 T
b0 R
b0 Q
b1011010 Z
b1111 Y
b1111 X
b1111 W
b1111 U
b1101100 e
b0 h
b1110 f
b0 d
b0 c
b10000110100 l
b11011110 k
b11011110 j
b11011110 i
b11011110 g
b11011 u
b1111101100 ~
b1001010 }
b1001010 |
b1001010 {
b0 z
b1001010 y
b1110 x
b1111111111110111111101111111011 :
b1111111111110111111101111111011 c#
b1101011 d#
b11011 )"
b111001110 2"
b100001 1"
b100001 0"
b100001 /"
b0 ."
b100001 -"
b1110 ,"
b1001010011000111001111101011011 9
b1001010011000111001111101011011 `#
b1011100 a#
b1111 M
b110001 N
b110001 O
b10100100 P
b11011110 _
b11001010 `
b11001010 a
b101011 b
b1001010 q
b100001 %"
b1101011011000110110001101100011 4
b1101011011000110110001101100011 b#
b10100111100110001001100010001001110100011111101111111011100011111001010010011000100110000111100101101011011000110110001101100011 >
b1111001100010011000110100100110111101100101011001010001010110100101001010010010100100101001000100001001100010011000100110001 C
b1011101011000111001010101011110000001001100001010101000111101000010100100110001100110001010001010010011010101000110010001010111 2
b11010000000101001111100110101000110010011110111000100101100010011110000100111111000011001100100010110110011000110000110010100110 =
b11001111000101000000010110010000011110101001100110111111010000100100101110110010010010100010001000110100001111110110001100001101 B
b11001111000101000000010110010000011110101001100110111111010000100100101110110010010010100010001000110100001111110110001100001101 A
b1011100000000000110111001010111 ;
b1011100000000000110111001010111 _#
b10101100011101111001000001011011100100011010000011101100101011000001100111100000101100011110001110110111011010110000011101011010 3
b1 @
b1001 G
1+
0"
#130000
0+
#135000
b0 <
b1000001 !"
b1111001 ""
b1011001 #"
b1101001 $"
b110010 I
b11001011 J
b1010001 K
b10000110 L
b11100111 [
b11111010 \
b1110001 ]
b110010 ^
b101010 m
b10100111 n
b11100111 o
b10000111 p
b1111000011111010001000010110 ?
b11111011111111100010010001001110 9
b11111011111111100010010001001110 `#
b1100011 a#
b0 R
b11011 Q
b0 V
b1110 T
b1101100 S
b10110010110 Z
b11110101 Y
b11110101 X
b11110101 W
b11110101 U
b110110 d
b11011 c
b0 h
b1110 f
b11100010010 l
b10000011 k
b10000011 j
b10000011 i
b10000011 g
b1101100 w
b0 u
b0 z
b1110 x
b0 v
b10010100100 ~
b11000110 }
b11000110 |
b11000110 {
b11000110 y
b10110000011110000111110100010 :
b10110000011110000111110100010 c#
b11111111 d#
b101011110 2"
b111001 1"
b111001 0"
b111001 /"
b0 ."
b111001 -"
b1110 ,"
b11110101 M
b11001010 N
b11001010 O
b11011011 P
b10000011 _
b10101001 `
b10101001 a
b11011101 b
b11000110 q
b11001010 r
b11001010 s
b101011 t
b111001 %"
b0 D
b0 @
b101011111010101101110111100110111000100000010011111000011011110000001100111011111101001010011110110101010110001111100000000001 =
b10110011011101111001101011001011101010101000110101000110111010101000001001011100011011111010101111010101000000000110111111000101 B
b10110011011101111001101011001011101010101000110101000110111010101000001001011100011011111010101111010101000000000110111111000101 A
b1100011000011001010011010110110 ;
b1100011000011001010011010110110 _#
b11010000000101000000111100000000010000011011010000010101000001001101000000001110100101000110101001010110010101000000101110010010 3
b11111111111110111111101100011010 4
b11111111111110111111101100011010 b#
b10101000100101110011101010011111011101100110001101100011000001100100010101100011011000111111011011111111111110111111101100011010 >
b11110101110010101100101011011011100000111010100110101001110111011100011011001010110010100010101100111001001100010011000100110001 C
b10100111100110000110111000100001010110011010000111001011000000101010010110101001000000001101101110001011010101000110010001010111 2
b1010 G
1+
#140000
0+
