data/aes128_table_ecb/aes128_table_ecb.vcd
$date
	Thu Aug 21 11:39:08 2025
$end
$version
	Icarus Verilog
$end
$timescale
	1ps
$end
$scope module aes128_table_ecb_bench $end
$var wire 1 ! text_val $end
$var wire 128 " text_out [127:0] $end
$var wire 128 # r10_key [127:0] $end
$var wire 1 $ key_val $end
$var wire 1 % busy $end
$var reg 1 & DEFAULT_CLOCK $end
$var reg 1 ' DEFAULT_RESET $end
$var reg 1 ( clock $end
$var reg 1 ) enc_dec $end
$var reg 1 * key_exp $end
$var reg 128 + key_in [127:0] $end
$var reg 1 , resetn $end
$var reg 1 - start $end
$var reg 128 . text_in [127:0] $end
$scope module aes128_table_ecb_ $end
$var wire 128 / add_iroundkey0 [127:0] $end
$var wire 128 0 add_roundkey0 [127:0] $end
$var wire 1 ( clock $end
$var wire 1 ) enc_dec $end
$var wire 32 1 itemp [31:0] $end
$var wire 1 * key_exp $end
$var wire 128 2 key_in [127:0] $end
$var wire 128 3 r10_key [127:0] $end
$var wire 1 , resetn $end
$var wire 1 - start $end
$var wire 128 4 text_in [127:0] $end
$var wire 128 5 text_out [127:0] $end
$var wire 32 6 temp [31:0] $end
$var wire 32 7 sword [31:0] $end
$var wire 32 8 rotword [31:0] $end
$var wire 8 9 rcon [7:0] $end
$var wire 128 : next_key [127:0] $end
$var wire 128 ; next_ikey [127:0] $end
$var wire 32 < irotword [31:0] $end
$var wire 8 = ircon [7:0] $end
$var wire 128 > cipher_text [127:0] $end
$var wire 128 ? add_roundkey [127:0] $end
$var wire 128 @ add_iroundkey [127:0] $end
$var reg 1 % busy $end
$var reg 1 $ key_val $end
$var reg 3 A next_state [2:0] $end
$var reg 3 B now_state [2:0] $end
$var reg 128 C round10_key [127:0] $end
$var reg 4 D round_n [3:0] $end
$var reg 1 E start_flag $end
$var reg 1 ! text_val $end
$scope module InvMixColumn0 $end
$var wire 8 F m0c [7:0] $end
$var wire 8 G m1c [7:0] $end
$var wire 8 H m2c [7:0] $end
$var wire 8 I m3c [7:0] $end
$var wire 8 J s0c [7:0] $end
$var wire 8 K s1c [7:0] $end
$var wire 8 L s2c [7:0] $end
$var wire 8 M s3c [7:0] $end
$scope function mul4x8 $end
$var reg 8 N c0 [7:0] $end
$var reg 8 O c1 [7:0] $end
$var reg 8 P c2 [7:0] $end
$var reg 4 Q mx [3:0] $end
$var reg 8 R sc [7:0] $end
$var reg 8 S sxm0 [7:0] $end
$var reg 8 T sxm1 [7:0] $end
$var reg 8 U sxm2 [7:0] $end
$var reg 8 V sxm3 [7:0] $end
$var reg 11 W temp [10:0] $end
$upscope $end
$upscope $end
$scope module InvMixColumn1 $end
$var wire 8 X m0c [7:0] $end
$var wire 8 Y m1c [7:0] $end
$var wire 8 Z m2c [7:0] $end
$var wire 8 [ m3c [7:0] $end
$var wire 8 \ s0c [7:0] $end
$var wire 8 ] s1c [7:0] $end
$var wire 8 ^ s2c [7:0] $end
$var wire 8 _ s3c [7:0] $end
$scope function mul4x8 $end
$var reg 8 ` c0 [7:0] $end
$var reg 8 a c1 [7:0] $end
$var reg 8 b c2 [7:0] $end
$var reg 4 c mx [3:0] $end
$var reg 8 d sc [7:0] $end
$var reg 8 e sxm0 [7:0] $end
$var reg 8 f sxm1 [7:0] $end
$var reg 8 g sxm2 [7:0] $end
$var reg 8 h sxm3 [7:0] $end
$var reg 11 i temp [10:0] $end
$upscope $end
$upscope $end
$scope module InvMixColumn2 $end
$var wire 8 j m0c [7:0] $end
$var wire 8 k m1c [7:0] $end
$var wire 8 l m2c [7:0] $end
$var wire 8 m m3c [7:0] $end
$var wire 8 n s0c [7:0] $end
$var wire 8 o s1c [7:0] $end
$var wire 8 p s2c [7:0] $end
$var wire 8 q s3c [7:0] $end
$scope function mul4x8 $end
$var reg 8 r c0 [7:0] $end
$var reg 8 s c1 [7:0] $end
$var reg 8 t c2 [7:0] $end
$var reg 4 u mx [3:0] $end
$var reg 8 v sc [7:0] $end
$var reg 8 w sxm0 [7:0] $end
$var reg 8 x sxm1 [7:0] $end
$var reg 8 y sxm2 [7:0] $end
$var reg 8 z sxm3 [7:0] $end
$var reg 11 { temp [10:0] $end
$upscope $end
$upscope $end
$scope module InvMixColumn3 $end
$var wire 8 | m0c [7:0] $end
$var wire 8 } m1c [7:0] $end
$var wire 8 ~ m2c [7:0] $end
$var wire 8 !" m3c [7:0] $end
$var wire 8 "" s0c [7:0] $end
$var wire 8 #" s1c [7:0] $end
$var wire 8 $" s2c [7:0] $end
$var wire 8 %" s3c [7:0] $end
$scope function mul4x8 $end
$var reg 8 &" c0 [7:0] $end
$var reg 8 '" c1 [7:0] $end
$var reg 8 (" c2 [7:0] $end
$var reg 4 )" mx [3:0] $end
$var reg 8 *" sc [7:0] $end
$var reg 8 +" sxm0 [7:0] $end
$var reg 8 ," sxm1 [7:0] $end
$var reg 8 -" sxm2 [7:0] $end
$var reg 8 ." sxm3 [7:0] $end
$var reg 11 /" temp [10:0] $end
$upscope $end
$upscope $end
$scope module InvSubBytes $end
$var wire 8 0" a00 [7:0] $end
$var wire 8 1" a01 [7:0] $end
$var wire 8 2" a02 [7:0] $end
$var wire 8 3" a03 [7:0] $end
$var wire 8 4" a10 [7:0] $end
$var wire 8 5" a11 [7:0] $end
$var wire 8 6" a12 [7:0] $end
$var wire 8 7" a13 [7:0] $end
$var wire 8 8" a20 [7:0] $end
$var wire 8 9" a21 [7:0] $end
$var wire 8 :" a22 [7:0] $end
$var wire 8 ;" a23 [7:0] $end
$var wire 8 <" a30 [7:0] $end
$var wire 8 =" a31 [7:0] $end
$var wire 8 >" a32 [7:0] $end
$var wire 8 ?" a33 [7:0] $end
$var wire 8 @" b33 [7:0] $end
$var wire 8 A" b32 [7:0] $end
$var wire 8 B" b31 [7:0] $end
$var wire 8 C" b30 [7:0] $end
$var wire 8 D" b23 [7:0] $end
$var wire 8 E" b22 [7:0] $end
$var wire 8 F" b21 [7:0] $end
$var wire 8 G" b20 [7:0] $end
$var wire 8 H" b13 [7:0] $end
$var wire 8 I" b12 [7:0] $end
$var wire 8 J" b11 [7:0] $end
$var wire 8 K" b10 [7:0] $end
$var wire 8 L" b03 [7:0] $end
$var wire 8 M" b02 [7:0] $end
$var wire 8 N" b01 [7:0] $end
$var wire 8 O" b00 [7:0] $end
$scope function is_box $end
$var reg 8 P" aij [7:0] $end
$upscope $end
$upscope $end
$scope module MixColumns0 $end
$var wire 8 Q" m0c [7:0] $end
$var wire 8 R" m1c [7:0] $end
$var wire 8 S" m2c [7:0] $end
$var wire 8 T" m3c [7:0] $end
$var wire 8 U" s0c [7:0] $end
$var wire 8 V" s1c [7:0] $end
$var wire 8 W" s2c [7:0] $end
$var wire 8 X" s3c [7:0] $end
$scope function mul4x8 $end
$var reg 8 Y" c0 [7:0] $end
$var reg 8 Z" c1 [7:0] $end
$var reg 8 [" c2 [7:0] $end
$var reg 4 \" mx [3:0] $end
$var reg 8 ]" sc [7:0] $end
$var reg 8 ^" sxm0 [7:0] $end
$var reg 8 _" sxm1 [7:0] $end
$var reg 8 `" sxm2 [7:0] $end
$var reg 8 a" sxm3 [7:0] $end
$var reg 11 b" temp [10:0] $end
$upscope $end
$upscope $end
$scope module MixColumns1 $end
$var wire 8 c" m0c [7:0] $end
$var wire 8 d" m1c [7:0] $end
$var wire 8 e" m2c [7:0] $end
$var wire 8 f" m3c [7:0] $end
$var wire 8 g" s0c [7:0] $end
$var wire 8 h" s1c [7:0] $end
$var wire 8 i" s2c [7:0] $end
$var wire 8 j" s3c [7:0] $end
$scope function mul4x8 $end
$var reg 8 k" c0 [7:0] $end
$var reg 8 l" c1 [7:0] $end
$var reg 8 m" c2 [7:0] $end
$var reg 4 n" mx [3:0] $end
$var reg 8 o" sc [7:0] $end
$var reg 8 p" sxm0 [7:0] $end
$var reg 8 q" sxm1 [7:0] $end
$var reg 8 r" sxm2 [7:0] $end
$var reg 8 s" sxm3 [7:0] $end
$var reg 11 t" temp [10:0] $end
$upscope $end
$upscope $end
$scope module MixColumns2 $end
$var wire 8 u" m0c [7:0] $end
$var wire 8 v" m1c [7:0] $end
$var wire 8 w" m2c [7:0] $end
$var wire 8 x" m3c [7:0] $end
$var wire 8 y" s0c [7:0] $end
$var wire 8 z" s1c [7:0] $end
$var wire 8 {" s2c [7:0] $end
$var wire 8 |" s3c [7:0] $end
$scope function mul4x8 $end
$var reg 8 }" c0 [7:0] $end
$var reg 8 ~" c1 [7:0] $end
$var reg 8 !# c2 [7:0] $end
$var reg 4 "# mx [3:0] $end
$var reg 8 ## sc [7:0] $end
$var reg 8 $# sxm0 [7:0] $end
$var reg 8 %# sxm1 [7:0] $end
$var reg 8 &# sxm2 [7:0] $end
$var reg 8 '# sxm3 [7:0] $end
$var reg 11 (# temp [10:0] $end
$upscope $end
$upscope $end
$scope module MixColumns3 $end
$var wire 8 )# m0c [7:0] $end
$var wire 8 *# m1c [7:0] $end
$var wire 8 +# m2c [7:0] $end
$var wire 8 ,# m3c [7:0] $end
$var wire 8 -# s0c [7:0] $end
$var wire 8 .# s1c [7:0] $end
$var wire 8 /# s2c [7:0] $end
$var wire 8 0# s3c [7:0] $end
$scope function mul4x8 $end
$var reg 8 1# c0 [7:0] $end
$var reg 8 2# c1 [7:0] $end
$var reg 8 3# c2 [7:0] $end
$var reg 4 4# mx [3:0] $end
$var reg 8 5# sc [7:0] $end
$var reg 8 6# sxm0 [7:0] $end
$var reg 8 7# sxm1 [7:0] $end
$var reg 8 8# sxm2 [7:0] $end
$var reg 8 9# sxm3 [7:0] $end
$var reg 11 :# temp [10:0] $end
$upscope $end
$upscope $end
$scope module SubBytes $end
$var wire 8 ;# a00 [7:0] $end
$var wire 8 <# a01 [7:0] $end
$var wire 8 =# a02 [7:0] $end
$var wire 8 ># a03 [7:0] $end
$var wire 8 ?# a10 [7:0] $end
$var wire 8 @# a11 [7:0] $end
$var wire 8 A# a12 [7:0] $end
$var wire 8 B# a13 [7:0] $end
$var wire 8 C# a20 [7:0] $end
$var wire 8 D# a21 [7:0] $end
$var wire 8 E# a22 [7:0] $end
$var wire 8 F# a23 [7:0] $end
$var wire 8 G# a30 [7:0] $end
$var wire 8 H# a31 [7:0] $end
$var wire 8 I# a32 [7:0] $end
$var wire 8 J# a33 [7:0] $end
$var wire 8 K# b33 [7:0] $end
$var wire 8 L# b32 [7:0] $end
$var wire 8 M# b31 [7:0] $end
$var wire 8 N# b30 [7:0] $end
$var wire 8 O# b23 [7:0] $end
$var wire 8 P# b22 [7:0] $end
$var wire 8 Q# b21 [7:0] $end
$var wire 8 R# b20 [7:0] $end
$var wire 8 S# b13 [7:0] $end
$var wire 8 T# b12 [7:0] $end
$var wire 8 U# b11 [7:0] $end
$var wire 8 V# b10 [7:0] $end
$var wire 8 W# b03 [7:0] $end
$var wire 8 X# b02 [7:0] $end
$var wire 8 Y# b01 [7:0] $end
$var wire 8 Z# b00 [7:0] $end
$scope function s_box $end
$var reg 8 [# aij [7:0] $end
$upscope $end
$upscope $end
$scope module SubWord $end
$var wire 32 \# a [31:0] $end
$var wire 32 ]# b [31:0] $end
$scope function s_box $end
$var reg 8 ^# aij [7:0] $end
$upscope $end
$upscope $end
$scope module iSubWord $end
$var wire 32 _# a [31:0] $end
$var wire 32 `# b [31:0] $end
$scope function s_box $end
$var reg 8 a# aij [7:0] $end
$upscope $end
$upscope $end
$upscope $end
$upscope $end
$enddefinitions $end
#0
$dumpvars
bx a#
bx `#
bx _#
bx ^#
bx ]#
bx \#
bx [#
bx Z#
bx Y#
bx X#
bx W#
bx V#
bx U#
bx T#
bx S#
bx R#
bx Q#
bx P#
bx O#
bx N#
bx M#
bx L#
bx K#
bx J#
bx I#
bx H#
bx G#
bx F#
bx E#
bx D#
bx C#
bx B#
bx A#
bx @#
bx ?#
bx >#
bx =#
bx <#
bx ;#
b0xxxxxxxx0 :#
b0 9#
b0 8#
bx 7#
b0 6#
bx 5#
b10 4#
b0 3#
b0 2#
b0xx0xx 1#
bx 0#
bx /#
bx .#
bx -#
bx ,#
bx +#
bx *#
bx )#
b0xxxxxxxx0 (#
b0 '#
b0 &#
bx %#
b0 $#
bx ##
b10 "#
b0 !#
b0 ~"
b0xx0xx }"
bx |"
bx {"
bx z"
bx y"
bx x"
bx w"
bx v"
bx u"
b0xxxxxxxx0 t"
b0 s"
b0 r"
bx q"
b0 p"
bx o"
b10 n"
b0 m"
b0 l"
b0xx0xx k"
bx j"
bx i"
bx h"
bx g"
bx f"
bx e"
bx d"
bx c"
b0xxxxxxxx0 b"
b0 a"
b0 `"
bx _"
b0 ^"
bx ]"
b10 \"
b0 ["
b0 Z"
b0xx0xx Y"
bx X"
bx W"
bx V"
bx U"
bx T"
bx S"
bx R"
bx Q"
bx P"
bx O"
bx N"
bx M"
bx L"
bx K"
bx J"
bx I"
bx H"
bx G"
bx F"
bx E"
bx D"
bx C"
bx B"
bx A"
bx @"
bx ?"
bx >"
bx ="
bx <"
bx ;"
bx :"
bx 9"
bx 8"
bx 7"
bx 6"
bx 5"
bx 4"
bx 3"
bx 2"
bx 1"
bx 0"
bx0 /"
bx ."
bx -"
bx ,"
b0 +"
bx *"
b1110 )"
b0xx0xx00 ("
b0xx0xx0 '"
b0xx0xx &"
bx %"
bx $"
bx #"
bx ""
bx !"
bx ~
bx }
bx |
bx0 {
bx z
bx y
bx x
b0 w
bx v
b1110 u
b0xx0xx00 t
b0xx0xx0 s
b0xx0xx r
bx q
bx p
bx o
bx n
bx m
bx l
bx k
bx j
bx0 i
bx h
bx g
bx f
b0 e
bx d
b1110 c
b0xx0xx00 b
b0xx0xx0 a
b0xx0xx `
bx _
bx ^
bx ]
bx \
bx [
bx Z
bx Y
bx X
bx0 W
bx V
bx U
bx T
b0 S
bx R
b1110 Q
b0xx0xx00 P
b0xx0xx0 O
b0xx0xx N
bx M
bx L
bx K
bx J
bx I
bx H
bx G
bx F
xE
bx D
bx C
bx B
bx A
bx @
bx ?
bx >
bx =
bx <
bx ;
bx :
bx 9
bx 8
bx 7
bx 6
bx 5
bx 4
bx 3
bx 2
bx 1
bx 0
bx /
bx .
x-
x,
bx +
x*
x)
x(
1'
1&
x%
x$
bx #
bx "
x!
$end
#24000
b1010010 |
b1010010 }
b1010010 ~
b1010010 !"
b1010010 F
b1010010 G
b1010010 H
b1010010 I
b1010010 X
b1010010 Y
b1010010 Z
b1010010 [
b1010010 j
b1010010 k
b1010010 l
b1010010 m
b1100011 Q"
b1100011 R"
b1100011 S"
b1100011 T"
b1100011011000110110001101100011011000110110001101100011011000110110001101100011011000110110001101100011011000110110001101100011 ?
b1100011 c"
b1100011 d"
b1100011 e"
b1100011 f"
b1100011 u"
b1100011 v"
b1100011 w"
b1100011 x"
b1100011 )#
b1100011 *#
b1100011 +#
b1100011 ,#
b0 +"
b1110 )"
b0 ("
b110110 '"
b11011 &"
b1101111100 /"
b1010010 ."
b1010010 -"
b1010010 ,"
b1010010 *"
b0 S
b1110 Q
b0 P
b110110 O
b11011 N
b1101111100 W
b1010010 V
b1010010 U
b1010010 T
b1010010 R
b0 e
b1110 c
b0 b
b110110 a
b11011 `
b1101111100 i
b1010010 h
b1010010 g
b1010010 f
b1010010 d
b0 w
b1110 u
b0 t
b110110 s
b11011 r
b1101111100 {
b1010010 z
b1010010 y
b1010010 x
b1010010 v
b1100010011000110110001101100011011000100110001101100011011000110110001001100011011000110110001101100010011000110110001101100011 :
b1010010 ""
b1010010 #"
b1010010 $"
b1010010 %"
b1010010 J
b1010010 K
b1010010 L
b1010010 M
b1010010 \
b1010010 ]
b1010010 ^
b1010010 _
b1010010 n
b1010010 o
b1010010 p
b1010010 q
b1100011011000110110001101100011 <
b0 1#
b10100101 :#
b1100011 7#
b1100011 6#
b1100011 5#
b11 4#
b0 }"
b1100011 (#
b0 %#
b1100011 $#
b1100011 ##
b1 "#
b0 k"
b1100011 t"
b0 q"
b1100011 p"
b1100011 o"
b1 n"
b1100011011000110110001101100011011000110110001101100011011000110110001101100011011000110110001101100011011000110110001101100011 >
b0 ^"
b10 \"
b0 Y"
b11000110 b"
b1100011 _"
b1100011 ]"
b1010010010100100101001001010010010100100101001001010010010100100101001001010010010100100101001001010010010100100101001001010010 @
b110110 =
b1100011011000110110001101100011 6
b1100011011000110110001101100011 ]#
b0 ^#
b1100011011000110110001101100011 7
b1100011011000110110001101100011 `#
b0 a#
b1100011 U"
b1100011 .#
b1100011 {"
b1100011 j"
b1100011 g"
b1100011 V"
b1100011 /#
b1100011 |"
b1100011 y"
b1100011 h"
b1100011 W"
b1100011 0#
b1100011 -#
b1100011 z"
b1100011 i"
b1100011 X"
b1010010 O"
b1010010 J"
b1010010 E"
b1010010 @"
b1010010 N"
b1010010 I"
b1010010 D"
b1010010 C"
b1010010 M"
b1010010 H"
b1010010 G"
b1010010 B"
b1010010 L"
b1010010 K"
b1010010 F"
b1010010 A"
b0 P"
b1100011 Z#
b1100011 V#
b1100011 R#
b1100011 N#
b1100011 Y#
b1100011 U#
b1100011 Q#
b1100011 M#
b1100011 X#
b1100011 T#
b1100011 P#
b1100011 L#
b1100011 W#
b1100011 S#
b1100011 O#
b1100011 K#
b0 [#
b0 0"
b0 5"
b0 :"
b0 ?"
b0 1"
b0 6"
b0 ;"
b0 <"
b0 2"
b0 7"
b0 8"
b0 ="
b0 3"
b0 4"
b0 9"
b0 >"
b1 9
b0 8
b0 \#
b11111111111111111111111111111111111111111111111111111111111111111111111111111111111111111111111110110010110000101000010001100101 0
b0 1
b0 _#
b1010101011000110110001101100011000000000000000000000000000000000000000000000000000000000000000000000000000000000000000000000000 ;
b11111111111111111111111111111111111111111111111111111111111111111111111111111111111111111111111110110010110000101000010001100101 /
b0 ;#
b0 ?#
b0 C#
b0 G#
b0 <#
b0 @#
b0 D#
b0 H#
b0 =#
b0 A#
b0 E#
b0 I#
b0 >#
b0 B#
b0 F#
b0 J#
b0 "
b0 5
b0 B
0!
b0 D
0$
0E
0%
b0 #
b0 3
b0 C
b1 A
b11111111111111111111111111111111111111111111111111111111111111111111111111111111111111111111111110110010110000101000010001100101 .
b11111111111111111111111111111111111111111111111111111111111111111111111111111111111111111111111110110010110000101000010001100101 4
b1000110110111111001100110001101 +
b1000110110111111001100110001101 2
1-
1*
1)
1(
0,
#25000
0&
#26000
0'
#50000
1&
#74000
b1000110001011011111011110001100 0
b1000110001011011111011110001100 /
b1000110001011011111011110001100 .
b1000110001011011111011110001100 4
b1110110110101000101011111101101 +
b1110110110101000101011111101101 2
0*
#75000
0&
#100000
1&
#124000
b11111111111111111111111111111111111111111111111111111111111111111111111111111111111111111111111110001001001100101101011000010010 0
b11111111111111111111111111111111111111111111111111111111111111111111111111111111111111111111111110001001001100101101011000010010 /
b11111111111111111111111111111111111111111111111111111111111111111111111111111111111111111111111110001001001100101101011000010010 .
b11111111111111111111111111111111111111111111111111111111111111111111111111111111111111111111111110001001001100101101011000010010 4
b11111111111111111111111111111111111111111111111111111111111111111111111111111111111111111111111110111011110100100111001001110111 +
b11111111111111111111111111111111111111111111111111111111111111111111111111111111111111111111111110111011110100100111001001110111 2
0(
1,
#125000
0&
#150000
1&
#174000
b11111111111111111111111111111111111111111111111111111111111111111111111111111111111111111111111111011110100011100010100010111101 0
b11111111111111111111111111111111111111111111111111111111111111111111111111111111111111111111111111011110100011100010100010111101 /
b11111111111111111111111111111111111111111111111111111111111111111111111111111111111111111111111111011110100011100010100010111101 .
b11111111111111111111111111111111111111111111111111111111111111111111111111111111111111111111111111011110100011100010100010111101 4
b101110010110000100100101011100 +
b101110010110000100100101011100 2
0)
#175000
0&
#200000
1&
#224000
b1111000011000110110001101100011000000000000000000000000000000000000000000000000000000000000000000000000000000000000000000000000 ;
b11011 =
b11111011111110111111101110101010 6
b11111011111110111111101110101010 ]#
b1100011 ^#
b10011011100110001001100011001001111110011111101111111011101010101001101110011000100110001100100111111001111110111111101110101010 :
b1000000000000000000000000000000010000000000000000000000000000000100000000000000000000000000000001000000000000000000000000 ?
b1000000000000000000000000000000010000000000000000000000000000000100000000000000000000000000000001000000000000000000000000 >
b1100011011000110110001101100010 8
b1100011011000110110001101100010 \#
b10 9
b1 D
b1 B
b1100010011000110110001101100011011000100110001101100011011000110110001001100011011000110110001100110111000110110010011011001001 0
b1010101011110000100010110101010 /
b1 A
b1010101011110000100010110101010 .
b1010101011110000100010110101010 4
b10000011001000010000100100000 +
b10000011001000010000100100000 2
0-
1)
1(
#225000
0&
#250000
1&
#274000
b10011101100111001001110010011100100111011001110010011100100111001001110110011100100111001001110010001000110001010100100110110110 0
b11111111111111111111111111111111111111111111111111111111111111111111111111111111111111111111111111101010101001100010101011010101 /
b11111111111111111111111111111111111111111111111111111111111111111111111111111111111111111111111111101010101001100010101011010101 .
b11111111111111111111111111111111111111111111111111111111111111111111111111111111111111111111111111101010101001100010101011010101 4
b110101100111111101110101101011 +
b110101100111111101110101101011 2
1-
1*
0(
#275000
0&
#300000
1&
#324000
b1010101011000110110001101100011000000000000000000000000000000000000000000000000000000000000000000000000000000000000000000000000 ;
b110110 =
b1100011011000110110001101100011 6
b1100011011000110110001101100011 ]#
b0 ^#
b1 9
b1100010011000110110001101100011011000100110001101100011011000110110001001100011011000110110001101100010011000110110001101100011 :
b1100011011000110110001101100011011000110110001101100011011000110110001101100011011000110110001101100011011000110110001101100011 ?
b1100011011000110110001101100011011000110110001101100011011000110110001101100011011000110110001101100011011000110110001101100011 >
b0 8
b0 \#
b0 B
b0 D
b11111111111111111111111111111111111111111111111111111111111111111111111111111111111111111111111111100101011100110000101011001010 0
b11111111111111111111111111111111111111111111111111111111111111111111111111111111111111111111111111100101011100110000101011001010 /
b11111111111111111111111111111111111111111111111111111111111111111111111111111111111111111111111111100101011100110000101011001010 .
b11111111111111111111111111111111111111111111111111111111111111111111111111111111111111111111111111100101011100110000101011001010 4
b101000010010110010100001010 +
b101000010010110010100001010 2
0,
#325000
0&
#350000
1&
#374000
b11111111111111111111111111111111111111111111111111111111111111111111111111111111111111111111111111000100100010100001001010001001 0
b11111111111111111111111111111111111111111111111111111111111111111111111111111111111111111111111111000100100010100001001010001001 /
b11111111111111111111111111111111111111111111111111111111111111111111111111111111111111111111111111000100100010100001001010001001 .
b11111111111111111111111111111111111111111111111111111111111111111111111111111111111111111111111111000100100010100001001010001001 4
b111100001000001111001101111000 +
b111100001000001111001101111000 2
0-
0)
#375000
0&
#400000
1&
#424000
b11111111111111111111111111111111111111111111111111111111111111111111111111111111111111111111111110000101110101111001101000001011 0
b11111111111111111111111111111111111111111111111111111111111111111111111111111111111111111111111110000101110101111001101000001011 /
b0 A
b11111111111111111111111111111111111111111111111111111111111111111111111111111111111111111111111110000101110101111001101000001011 .
b11111111111111111111111111111111111111111111111111111111111111111111111111111111111111111111111110000101110101111001101000001011 4
b10101000011111101110100101010 +
b10101000011111101110100101010 2
0*
1,
#425000
0&
#450000
1&
#474000
b100110001000111111001100001000 6
b100110001000111111001100001000 ]#
b100011 ^#
b11011000110111000000110011110111001001110010001111110011000010001101100011011100000011001111011101100111111111110011111010001001 :
b10011100100111001001110010011100100111001001110010011100100111001001110010011100100111001001110011011100010000000101000100011101 ?
b10011100100111001001110010011100100111001001110010011100100111001001110010011100100111001001110011011100010000000101000100011101 >
b100011001100100111111010111111 8
b100011001100100111111010111111 \#
b11111111111111111111111111111111111111111111111111111111111111111111111111111111111111111111111110110101100010010111100101101011 0
b1010101010100100101100010101 /
b1 A
b1010101010100100101100010101 .
b1010101010100100101100010101 4
b11111111111111111111111111111111111111111111111111111111111111111111111111111111111111111111111110111111001000110011001001111110 +
b11111111111111111111111111111111111111111111111111111111111111111111111111111111111111111111111110111111001000110011001001111110 2
1*
1)
1(
#475000
0&
#500000
1&
#524000
b11111111111111111111111111111111111111111111111111111111111111111111111111111111111111111111111111000011010011101001101110000110 0
b1111100011011011010100111111000 /
b1111100011011011010100111111000 .
b1111100011011011010100111111000 4
b1000111101110011010000110001111 +
b1000111101110011010000110001111 2
1-
0*
0)
#525000
0&
#550000
1&
#574000
b1010111000000000000110010101110 0
b11111111111111111111111111111111111111111111111111111111111111111111111111111111111111111111111111101000001000110011111011010000 /
b11111111111111111111111111111111111111111111111111111111111111111111111111111111111111111111111111101000001000110011111011010000 .
b11111111111111111111111111111111111111111111111111111111111111111111111111111111111111111111111111101000001000110011111011010000 4
b11111111111111111111111111111111111111111111111111111111111111111111111111111111111111111111111110100100101011100011001001001001 +
b11111111111111111111111111111111111111111111111111111111111111111111111111111111111111111111111110100100101011100011001001001001 2
1*
#575000
0&
#600000
1&
#624000
b100101000010110100000001001 0
b11111111111111111111111111111111111111111111111111111111111111111111111111111111111111111111111110111011100000100101101001110111 /
b0 A
b11111111111111111111111111111111111111111111111111111111111111111111111111111111111111111111111110111011100000100101101001110111 .
b11111111111111111111111111111111111111111111111111111111111111111111111111111111111111111111111110111011100000100101101001110111 4
b1100100010101111110110111001000 +
b1100100010101111110110111001000 2
0-
0*
#625000
0&
#650000
1&
#674000
b1010110110010001100010010101101 0
b11111111111111111111111111111111111111111111111111111111111111111111111111111111111111111111111111101001111010111111011011010011 /
b1 A
b11111111111111111111111111111111111111111111111111111111111111111111111111111111111111111111111111101001111010111111011011010011 .
b11111111111111111111111111111111111111111111111111111111111111111111111111111111111111111111111111101001111010111111011011010011 4
b1111110100101000111100011111 +
b1111110100101000111100011111 2
1-
1*
0(
#675000
0&
#700000
1&
#724000
b11111111111111111111111111111111111111111111111111111111111111111111111111111111111111111111111110010011001101100101000100100110 0
b101100000101010110001101011000 /
b101100000101010110001101011000 .
b101100000101010110001101011000 4
b10101000011001010111100101010 +
b10101000011001010111100101010 2
1)
#725000
0&
#750000
1&
#774000
b1100011011000110110001101100011 6
b1100011011000110110001101100011 ]#
b0 ^#
b1100010011000110110001101100011011000100110001101100011011000110110001001100011011000110110001101100010011000110110001101100011 :
b1100011011000110110001101100011011000110110001101100011011000110110001101100011011000110110001101100011011000110110001101100011 ?
b1100011011000110110001101100011011000110110001101100011011000110110001101100011011000110110001101100011011000110110001101100011 >
b0 8
b0 \#
b11111111111111111111111111111111111111111111111111111111111111111111111111111111111111111111111111010001100010111011010010100011 0
b11111111111111111111111111111111111111111111111111111111111111111111111111111111111111111111111111010001100010111011010010100011 /
b0 A
b11111111111111111111111111111111111111111111111111111111111111111111111111111111111111111111111111010001100010111011010010100011 .
b11111111111111111111111111111111111111111111111111111111111111111111111111111111111111111111111111010001100010111011010010100011 4
b111001100101100001011101110011 +
b111001100101100001011101110011 2
0-
0*
0)
0,
#775000
0&
#800000
1&
#824000
b11101110 |
b101010 }
b10011010 ~
b1110010 !"
b1011100 F
b10101 G
b100001 H
b11011011 I
b10110011 X
b100 Y
b1100101 Z
b1101001 [
b10001 j
b100001 k
b1001 l
b110101 m
b0 +"
b1110 )"
b11011 &"
b1101101110 /"
b1010001 ."
b1010001 -"
b1010001 ,"
b1010001 *"
b0 P
b110110 O
b0 S
b1110 Q
b0 N
b1011100110 W
b1111101 V
b1111101 U
b1111101 T
b1111101 R
b110110 a
b0 b
b0 e
b1110 c
b0 `
b1011100110 i
b1111101 h
b1111101 g
b1111101 f
b1111101 d
b0 w
b1110 u
b0 r
b1011100110 {
b1111101 z
b1111101 y
b1111101 x
b1111101 v
b1010001 ""
b1111101 #"
b1111101 $"
b1111101 %"
b1111101 J
b11001110 K
b1111101 L
b1111101 M
b1111101 \
b1111101 ]
b11000110 ^
b1111101 _
b1111101 n
b1111101 o
b1111101 p
b1110001 q
b1111101110011100111110101111101011111010111110111000110011111010111110101111101011111010111000101010001011111010111110101111101 @
b1111101 O"
b1111101 J"
b1111101 E"
b1111101 @"
b1111101 N"
b1111101 I"
b1111101 D"
b1111101 C"
b1111101 M"
b1111101 H"
b1111101 G"
b1111101 B"
b1010001 L"
b11001110 K"
b11000110 F"
b1110001 A"
b11111111 P"
b10100000001010001111111011001 6
b10100000001010001111111011001 ]#
b10011011 ^#
b11111111 0"
b11111111 5"
b11111111 :"
b11111111 ?"
b11111111 1"
b11111111 6"
b11111111 ;"
b11111111 <"
b11111111 2"
b11111111 7"
b11111111 8"
b11111111 ="
b11010001 3"
b10001011 4"
b10110100 9"
b10100011 >"
b11111111111111111111111111111111111111111111111111111111111111111111111111111111111111111111111111010001100010111011010010100011 "
b11111111111111111111111111111111111111111111111111111111111111111111111111111111111111111111111111010001100010111011010010100011 5
b11101010111110101110000000100110000101010000010100011111110110011110101011111010111000000010011000001111011000011101011011101101 :
b10011100100111001001110010011100100111001001110010011100100111001001110010011100100111001001110010000110111110000101010110101000 ?
b10011100100111001001110010011100100111001001110010011100100111001001110010011100100111001001110010000110111110000101010110101000 >
b10011011001101101100101111100101 8
b10011011001101101100101111100101 \#
1E
b10110100100100010110000101101 0
b11111111111111111111111111111111111111111111111111111111111111111111111111111111111111111111111111110011000010010001101011100110 /
b1 A
b11111111111111111111111111111111111111111111111111111111111111111111111111111111111111111111111111110011000010010001101011100110 .
b11111111111111111111111111111111111111111111111111111111111111111111111111111111111111111111111111110011000010010001101011100110 4
b11111111111111111111111111111111111111111111111111111111111111111111111111111111111111111111111111100101100110110011011011001011 +
b11111111111111111111111111111111111111111111111111111111111111111111111111111111111111111111111111100101100110110011011011001011 2
1-
1)
1(
1,
#825000
0&
#850000
1&
