data/aes128_table_ecb/aes128_table_ecb.vcd
$date
	Mon Sep 29 16:27:48 2025
$end
$version
	Icarus Verilog
$end
$timescale
	1ps
$end
$scope module aes128_table_ecb_bench $end
$var wire 1 ! text_val $end
$var wire 128 " text_out [127:0] $end
$var wire 128 # r10_key [127:0] $end
$var wire 1 $ key_val $end
$var wire 1 % busy $end
$var reg 1 & clock $end
$var reg 1 ' enc_dec $end
$var reg 1 ( key_exp $end
$var reg 128 ) key_in [127:0] $end
$var reg 1 * resetn $end
$var reg 1 + start $end
$var reg 128 , text_in [127:0] $end
$scope module dut $end
$var wire 128 - add_iroundkey0 [127:0] $end
$var wire 128 . add_roundkey0 [127:0] $end
$var wire 1 & clock $end
$var wire 1 ' enc_dec $end
$var wire 32 / itemp [31:0] $end
$var wire 1 ( key_exp $end
$var wire 128 0 key_in [127:0] $end
$var wire 128 1 r10_key [127:0] $end
$var wire 1 * resetn $end
$var wire 1 + start $end
$var wire 128 2 text_in [127:0] $end
$var wire 128 3 text_out [127:0] $end
$var wire 32 4 temp [31:0] $end
$var wire 32 5 sword [31:0] $end
$var wire 32 6 rotword [31:0] $end
$var wire 8 7 rcon [7:0] $end
$var wire 128 8 next_key [127:0] $end
$var wire 128 9 next_ikey [127:0] $end
$var wire 32 : irotword [31:0] $end
$var wire 8 ; ircon [7:0] $end
$var wire 128 < cipher_text [127:0] $end
$var wire 128 = add_roundkey [127:0] $end
$var wire 128 > add_iroundkey [127:0] $end
$var reg 1 % busy $end
$var reg 1 $ key_val $end
$var reg 3 ? next_state [2:0] $end
$var reg 3 @ now_state [2:0] $end
$var reg 128 A round10_key [127:0] $end
$var reg 4 B round_n [3:0] $end
$var reg 1 C start_flag $end
$var reg 1 ! text_val $end
$scope module InvMixColumn0 $end
$var wire 8 D m0c [7:0] $end
$var wire 8 E m1c [7:0] $end
$var wire 8 F m2c [7:0] $end
$var wire 8 G m3c [7:0] $end
$var wire 8 H s0c [7:0] $end
$var wire 8 I s1c [7:0] $end
$var wire 8 J s2c [7:0] $end
$var wire 8 K s3c [7:0] $end
$scope function mul4x8 $end
$var reg 8 L c0 [7:0] $end
$var reg 8 M c1 [7:0] $end
$var reg 8 N c2 [7:0] $end
$var reg 4 O mx [3:0] $end
$var reg 8 P sc [7:0] $end
$var reg 8 Q sxm0 [7:0] $end
$var reg 8 R sxm1 [7:0] $end
$var reg 8 S sxm2 [7:0] $end
$var reg 8 T sxm3 [7:0] $end
$var reg 11 U temp [10:0] $end
$upscope $end
$upscope $end
$scope module InvMixColumn1 $end
$var wire 8 V m0c [7:0] $end
$var wire 8 W m1c [7:0] $end
$var wire 8 X m2c [7:0] $end
$var wire 8 Y m3c [7:0] $end
$var wire 8 Z s0c [7:0] $end
$var wire 8 [ s1c [7:0] $end
$var wire 8 \ s2c [7:0] $end
$var wire 8 ] s3c [7:0] $end
$scope function mul4x8 $end
$var reg 8 ^ c0 [7:0] $end
$var reg 8 _ c1 [7:0] $end
$var reg 8 ` c2 [7:0] $end
$var reg 4 a mx [3:0] $end
$var reg 8 b sc [7:0] $end
$var reg 8 c sxm0 [7:0] $end
$var reg 8 d sxm1 [7:0] $end
$var reg 8 e sxm2 [7:0] $end
$var reg 8 f sxm3 [7:0] $end
$var reg 11 g temp [10:0] $end
$upscope $end
$upscope $end
$scope module InvMixColumn2 $end
$var wire 8 h m0c [7:0] $end
$var wire 8 i m1c [7:0] $end
$var wire 8 j m2c [7:0] $end
$var wire 8 k m3c [7:0] $end
$var wire 8 l s0c [7:0] $end
$var wire 8 m s1c [7:0] $end
$var wire 8 n s2c [7:0] $end
$var wire 8 o s3c [7:0] $end
$scope function mul4x8 $end
$var reg 8 p c0 [7:0] $end
$var reg 8 q c1 [7:0] $end
$var reg 8 r c2 [7:0] $end
$var reg 4 s mx [3:0] $end
$var reg 8 t sc [7:0] $end
$var reg 8 u sxm0 [7:0] $end
$var reg 8 v sxm1 [7:0] $end
$var reg 8 w sxm2 [7:0] $end
$var reg 8 x sxm3 [7:0] $end
$var reg 11 y temp [10:0] $end
$upscope $end
$upscope $end
$scope module InvMixColumn3 $end
$var wire 8 z m0c [7:0] $end
$var wire 8 { m1c [7:0] $end
$var wire 8 | m2c [7:0] $end
$var wire 8 } m3c [7:0] $end
$var wire 8 ~ s0c [7:0] $end
$var wire 8 !" s1c [7:0] $end
$var wire 8 "" s2c [7:0] $end
$var wire 8 #" s3c [7:0] $end
$scope function mul4x8 $end
$var reg 8 $" c0 [7:0] $end
$var reg 8 %" c1 [7:0] $end
$var reg 8 &" c2 [7:0] $end
$var reg 4 '" mx [3:0] $end
$var reg 8 (" sc [7:0] $end
$var reg 8 )" sxm0 [7:0] $end
$var reg 8 *" sxm1 [7:0] $end
$var reg 8 +" sxm2 [7:0] $end
$var reg 8 ," sxm3 [7:0] $end
$var reg 11 -" temp [10:0] $end
$upscope $end
$upscope $end
$scope module InvSubBytes $end
$var wire 8 ." a00 [7:0] $end
$var wire 8 /" a01 [7:0] $end
$var wire 8 0" a02 [7:0] $end
$var wire 8 1" a03 [7:0] $end
$var wire 8 2" a10 [7:0] $end
$var wire 8 3" a11 [7:0] $end
$var wire 8 4" a12 [7:0] $end
$var wire 8 5" a13 [7:0] $end
$var wire 8 6" a20 [7:0] $end
$var wire 8 7" a21 [7:0] $end
$var wire 8 8" a22 [7:0] $end
$var wire 8 9" a23 [7:0] $end
$var wire 8 :" a30 [7:0] $end
$var wire 8 ;" a31 [7:0] $end
$var wire 8 <" a32 [7:0] $end
$var wire 8 =" a33 [7:0] $end
$var wire 8 >" b33 [7:0] $end
$var wire 8 ?" b32 [7:0] $end
$var wire 8 @" b31 [7:0] $end
$var wire 8 A" b30 [7:0] $end
$var wire 8 B" b23 [7:0] $end
$var wire 8 C" b22 [7:0] $end
$var wire 8 D" b21 [7:0] $end
$var wire 8 E" b20 [7:0] $end
$var wire 8 F" b13 [7:0] $end
$var wire 8 G" b12 [7:0] $end
$var wire 8 H" b11 [7:0] $end
$var wire 8 I" b10 [7:0] $end
$var wire 8 J" b03 [7:0] $end
$var wire 8 K" b02 [7:0] $end
$var wire 8 L" b01 [7:0] $end
$var wire 8 M" b00 [7:0] $end
$scope function is_box $end
$var reg 8 N" aij [7:0] $end
$upscope $end
$upscope $end
$scope module MixColumns0 $end
$var wire 8 O" m0c [7:0] $end
$var wire 8 P" m1c [7:0] $end
$var wire 8 Q" m2c [7:0] $end
$var wire 8 R" m3c [7:0] $end
$var wire 8 S" s0c [7:0] $end
$var wire 8 T" s1c [7:0] $end
$var wire 8 U" s2c [7:0] $end
$var wire 8 V" s3c [7:0] $end
$scope function mul4x8 $end
$var reg 8 W" c0 [7:0] $end
$var reg 8 X" c1 [7:0] $end
$var reg 8 Y" c2 [7:0] $end
$var reg 4 Z" mx [3:0] $end
$var reg 8 [" sc [7:0] $end
$var reg 8 \" sxm0 [7:0] $end
$var reg 8 ]" sxm1 [7:0] $end
$var reg 8 ^" sxm2 [7:0] $end
$var reg 8 _" sxm3 [7:0] $end
$var reg 11 `" temp [10:0] $end
$upscope $end
$upscope $end
$scope module MixColumns1 $end
$var wire 8 a" m0c [7:0] $end
$var wire 8 b" m1c [7:0] $end
$var wire 8 c" m2c [7:0] $end
$var wire 8 d" m3c [7:0] $end
$var wire 8 e" s0c [7:0] $end
$var wire 8 f" s1c [7:0] $end
$var wire 8 g" s2c [7:0] $end
$var wire 8 h" s3c [7:0] $end
$scope function mul4x8 $end
$var reg 8 i" c0 [7:0] $end
$var reg 8 j" c1 [7:0] $end
$var reg 8 k" c2 [7:0] $end
$var reg 4 l" mx [3:0] $end
$var reg 8 m" sc [7:0] $end
$var reg 8 n" sxm0 [7:0] $end
$var reg 8 o" sxm1 [7:0] $end
$var reg 8 p" sxm2 [7:0] $end
$var reg 8 q" sxm3 [7:0] $end
$var reg 11 r" temp [10:0] $end
$upscope $end
$upscope $end
$scope module MixColumns2 $end
$var wire 8 s" m0c [7:0] $end
$var wire 8 t" m1c [7:0] $end
$var wire 8 u" m2c [7:0] $end
$var wire 8 v" m3c [7:0] $end
$var wire 8 w" s0c [7:0] $end
$var wire 8 x" s1c [7:0] $end
$var wire 8 y" s2c [7:0] $end
$var wire 8 z" s3c [7:0] $end
$scope function mul4x8 $end
$var reg 8 {" c0 [7:0] $end
$var reg 8 |" c1 [7:0] $end
$var reg 8 }" c2 [7:0] $end
$var reg 4 ~" mx [3:0] $end
$var reg 8 !# sc [7:0] $end
$var reg 8 "# sxm0 [7:0] $end
$var reg 8 ## sxm1 [7:0] $end
$var reg 8 $# sxm2 [7:0] $end
$var reg 8 %# sxm3 [7:0] $end
$var reg 11 &# temp [10:0] $end
$upscope $end
$upscope $end
$scope module MixColumns3 $end
$var wire 8 '# m0c [7:0] $end
$var wire 8 (# m1c [7:0] $end
$var wire 8 )# m2c [7:0] $end
$var wire 8 *# m3c [7:0] $end
$var wire 8 +# s0c [7:0] $end
$var wire 8 ,# s1c [7:0] $end
$var wire 8 -# s2c [7:0] $end
$var wire 8 .# s3c [7:0] $end
$scope function mul4x8 $end
$var reg 8 /# c0 [7:0] $end
$var reg 8 0# c1 [7:0] $end
$var reg 8 1# c2 [7:0] $end
$var reg 4 2# mx [3:0] $end
$var reg 8 3# sc [7:0] $end
$var reg 8 4# sxm0 [7:0] $end
$var reg 8 5# sxm1 [7:0] $end
$var reg 8 6# sxm2 [7:0] $end
$var reg 8 7# sxm3 [7:0] $end
$var reg 11 8# temp [10:0] $end
$upscope $end
$upscope $end
$scope module SubBytes $end
$var wire 8 9# a00 [7:0] $end
$var wire 8 :# a01 [7:0] $end
$var wire 8 ;# a02 [7:0] $end
$var wire 8 <# a03 [7:0] $end
$var wire 8 =# a10 [7:0] $end
$var wire 8 ># a11 [7:0] $end
$var wire 8 ?# a12 [7:0] $end
$var wire 8 @# a13 [7:0] $end
$var wire 8 A# a20 [7:0] $end
$var wire 8 B# a21 [7:0] $end
$var wire 8 C# a22 [7:0] $end
$var wire 8 D# a23 [7:0] $end
$var wire 8 E# a30 [7:0] $end
$var wire 8 F# a31 [7:0] $end
$var wire 8 G# a32 [7:0] $end
$var wire 8 H# a33 [7:0] $end
$var wire 8 I# b33 [7:0] $end
$var wire 8 J# b32 [7:0] $end
$var wire 8 K# b31 [7:0] $end
$var wire 8 L# b30 [7:0] $end
$var wire 8 M# b23 [7:0] $end
$var wire 8 N# b22 [7:0] $end
$var wire 8 O# b21 [7:0] $end
$var wire 8 P# b20 [7:0] $end
$var wire 8 Q# b13 [7:0] $end
$var wire 8 R# b12 [7:0] $end
$var wire 8 S# b11 [7:0] $end
$var wire 8 T# b10 [7:0] $end
$var wire 8 U# b03 [7:0] $end
$var wire 8 V# b02 [7:0] $end
$var wire 8 W# b01 [7:0] $end
$var wire 8 X# b00 [7:0] $end
$scope function s_box $end
$var reg 8 Y# aij [7:0] $end
$upscope $end
$upscope $end
$scope module SubWord $end
$var wire 32 Z# a [31:0] $end
$var wire 32 [# b [31:0] $end
$scope function s_box $end
$var reg 8 \# aij [7:0] $end
$upscope $end
$upscope $end
$scope module iSubWord $end
$var wire 32 ]# a [31:0] $end
$var wire 32 ^# b [31:0] $end
$scope function s_box $end
$var reg 8 _# aij [7:0] $end
$upscope $end
$upscope $end
$upscope $end
$upscope $end
$enddefinitions $end
#0
$dumpvars
b0 _#
b1100011011000110110001101100011 ^#
b0 ]#
b0 \#
b1100011011000110110001101100011 [#
b0 Z#
b0 Y#
b1100011 X#
b1100011 W#
b1100011 V#
b1100011 U#
b1100011 T#
b1100011 S#
b1100011 R#
b1100011 Q#
b1100011 P#
b1100011 O#
b1100011 N#
b1100011 M#
b1100011 L#
b1100011 K#
b1100011 J#
b1100011 I#
b0 H#
b0 G#
b0 F#
b0 E#
b0 D#
b0 C#
b0 B#
b0 A#
b0 @#
b0 ?#
b0 >#
b0 =#
b0 <#
b0 ;#
b0 :#
b0 9#
b10100101 8#
b0 7#
b0 6#
b1100011 5#
b1100011 4#
b1100011 3#
b11 2#
b0 1#
b0 0#
b0 /#
b1100011 .#
b1100011 -#
b1100011 ,#
b1100011 +#
b1100011 *#
b1100011 )#
b1100011 (#
b1100011 '#
b1100011 &#
b0 %#
b0 $#
b0 ##
b1100011 "#
b1100011 !#
b1 ~"
b0 }"
b0 |"
b0 {"
b1100011 z"
b1100011 y"
b1100011 x"
b1100011 w"
b1100011 v"
b1100011 u"
b1100011 t"
b1100011 s"
b1100011 r"
b0 q"
b0 p"
b0 o"
b1100011 n"
b1100011 m"
b1 l"
b0 k"
b0 j"
b0 i"
b1100011 h"
b1100011 g"
b1100011 f"
b1100011 e"
b1100011 d"
b1100011 c"
b1100011 b"
b1100011 a"
b11000110 `"
b0 _"
b0 ^"
b1100011 ]"
b0 \"
b1100011 ["
b10 Z"
b0 Y"
b0 X"
b0 W"
b1100011 V"
b1100011 U"
b1100011 T"
b1100011 S"
b1100011 R"
b1100011 Q"
b1100011 P"
b1100011 O"
b0 N"
b1010010 M"
b1010010 L"
b1010010 K"
b1010010 J"
b1010010 I"
b1010010 H"
b1010010 G"
b1010010 F"
b1010010 E"
b1010010 D"
b1010010 C"
b1010010 B"
b1010010 A"
b1010010 @"
b1010010 ?"
b1010010 >"
b0 ="
b0 <"
b0 ;"
b0 :"
b0 9"
b0 8"
b0 7"
b0 6"
b0 5"
b0 4"
b0 3"
b0 2"
b0 1"
b0 0"
b0 /"
b0 ."
b1101111100 -"
b1010010 ,"
b1010010 +"
b1010010 *"
b0 )"
b1010010 ("
b1110 '"
b0 &"
b110110 %"
b11011 $"
b1010010 #"
b1010010 ""
b1010010 !"
b1010010 ~
b1010010 }
b1010010 |
b1010010 {
b1010010 z
b1101111100 y
b1010010 x
b1010010 w
b1010010 v
b0 u
b1010010 t
b1110 s
b0 r
b110110 q
b11011 p
b1010010 o
b1010010 n
b1010010 m
b1010010 l
b1010010 k
b1010010 j
b1010010 i
b1010010 h
b1101111100 g
b1010010 f
b1010010 e
b1010010 d
b0 c
b1010010 b
b1110 a
b0 `
b110110 _
b11011 ^
b1010010 ]
b1010010 \
b1010010 [
b1010010 Z
b1010010 Y
b1010010 X
b1010010 W
b1010010 V
b1101111100 U
b1010010 T
b1010010 S
b1010010 R
b0 Q
b1010010 P
b1110 O
b0 N
b110110 M
b11011 L
b1010010 K
b1010010 J
b1010010 I
b1010010 H
b1010010 G
b1010010 F
b1010010 E
b1010010 D
0C
b0 B
b0 A
b0 @
b0 ?
b1010010010100100101001001010010010100100101001001010010010100100101001001010010010100100101001001010010010100100101001001010010 >
b1100011011000110110001101100011011000110110001101100011011000110110001101100011011000110110001101100011011000110110001101100011 =
b1100011011000110110001101100011011000110110001101100011011000110110001101100011011000110110001101100011011000110110001101100011 <
b110110 ;
b1100011011000110110001101100011 :
b1010101011000110110001101100011000000000000000000000000000000000000000000000000000000000000000000000000000000000000000000000000 9
b1100010011000110110001101100011011000100110001101100011011000110110001001100011011000110110001101100010011000110110001101100011 8
b1 7
b0 6
b1100011011000110110001101100011 5
b1100011011000110110001101100011 4
b0 3
b1111011010101000100010000101101000110000100011010011000100110001100110001010001011100000001101110000011100110100 2
b0 1
b101011011111100001010100010110001010001010111011010010101001101010101111110111000101011000100000001001110011110100111100111100 0
b0 /
b1111011010101000100010000101101000110000100011010011000100110001100110001010001011100000001101110000011100110100 .
b1111011010101000100010000101101000110000100011010011000100110001100110001010001011100000001101110000011100110100 -
b1111011010101000100010000101101000110000100011010011000100110001100110001010001011100000001101110000011100110100 ,
0+
0*
b101011011111100001010100010110001010001010111011010010101001101010101111110111000101011000100000001001110011110100111100111100 )
0(
0'
0&
0%
0$
b0 #
b0 "
0!
$end
#5000
1&
#10000
0&
#15000
1&
#20000
0&
1*
#25000
b10001010100001001110101100000001 4
b10001010100001001110101100000001 [#
b11001111 \#
b10100000111110101111111000010111100010000101010000101100101100010010001110100011001110010011100100101010011011000111011000000101 8
b1001000000111010111011001110101010010111100110110110001110001011100100010010100011101101110101101101010101011000010110001011111 =
b1001000000111010111011001110101010010111100110110110001110001011100100010010100011101101110101101101010101011000010110001011111 <
b11001111010011110011110000001001 6
b11001111010011110011110000001001 Z#
b101011011111101110001110111110101000001111010011100010001010111001101011000110100011010010101011101001111110000100100000001000 .
1&
#30000
0&
#35000
1&
#40000
b1 ?
0&
1(
#45000
b1111000011000110110001101100011000000000000000000000000000000000000000000000000000000000000000000000000000000000000000000000000 9
b11011 ;
b1010000001110000110101111100101 4
b1010000001110000110101111100101 [#
b1101100 \#
b11110010110000101001010111110010011110101001011010111001010000110101100100110101100000000111101001110011010110011111011001111111 8
b11000011100110011001110101110100111010110011011101001111110100100100000011000000010110100101101001001001000011110001010101100110 =
b11000011100110011001110101110100111010110011011101001111110100100100000011000000010110100101101001001001000011110001010101100110 <
b1101100011101100000010100101010 6
b1101100011101100000010100101010 Z#
b10100000111110100000100010111111000000000000111000011100001111000001001010010010101000011001101111001010010110110111000100110001 .
b10 7
b1 B
b1 @
1&
#50000
0&
#55000
b11100011011000110110001101100011000000000000000000000000000000000000000000000000000000000000000000000000000000000000000000000000 9
b10000000 ;
b100 7
b11001011010000101101001010001111 4
b11001011010000101101001010001111 [#
b1011001 \#
b111101100000000100011101111101010001110001011011111110001111100001111000100011011111100100010001101101011110101000100000111011 8
b10010001101000011111011010010001000110011111010111011010001000000011101001010110111000110001100100010000001110101001010100011100 =
b10010001101000011111011010010001000110011111010111011010001000000011101001010110111000110001100100010000001110101001010100011100 <
b1011001111101100111111101110011 6
b1011001111101100111111101110011 Z#
b11110010110000100110001101011010111100101100110010001001110011100110100000000100000110001101100010010011011011101111000101001011 .
b10 B
1&
#60000
0&
0(
#65000
b100011011000110110001101100011000000000000000000000000000000000000000000000000000000000000000000000000000000000000000000000000 9
b1000000 ;
b1000 7
b11011010110001001110001000111100 4
b11011010110001001110001000111100 [#
b1111010 \#
b11101111010001001010010101000001101010000101001001011011011111111011011001110001001001010011101111011011000010111010110100000000 8
b1011110111000110010010000011110001001000111010110011101010111010111110101000000000111010010011100001110000110011110101101011000 =
b1011110111000110010010000011110001001000111010110011101010111010111110101000000000111010010011100001110000110011110101101011000 <
b1111010100010000011101101101101 6
b1111010100010000011101101101101 Z#
b111101100000001011000111010101110011110100110011001110101100110010111100010010111001101110011010001101010011011000111100001111 .
b11 B
1&
#70000
0&
#75000
b1000011011000110110001101100011000000000000000000000000000000000000000000000000000000000000000000000000000000000000000000000000 9
b100000 ;
b10000 7
b101011100101010110001110111001 4
b101011100101010110001110111001 [#
b1011 \#
b11010100110100011100011011111000011111001000001110011101100001111100101011110010101110001011110000010001111110010001010110111100 8
b10001100001001111100011000100010110010110011000100111000000111001101010100010010010001100101100010111000011010001100111001100011 =
b10001100001001111100011000100010110010110011000100111000000111001101010100010010010001100101100010111000011010001100111001100011 <
b1011101011010000000011011011 6
b1011101011010000000011011011 Z#
b11101111010001000101001111101001001000000000100001101011111100101000011101000000101111011001100100111011001111001010101000110100 .
b100 B
1&
#80000
0&
1+
#85000
b100000 7
b10000 ;
b11101010 D
b1010 E
b10001010 F
b1001010 G
b0 L
b0 Q
b1110 O
b0 M
b11101110 U
b10001 T
b10001 S
b10001 R
b10001 P
b10011001010110010110010110000010 4
b10011001010110010110010110000010 [#
b11111001 \#
b10001 H
b110001 I
b110001 J
b110001 K
b110000000000000000000000000000010000110110001101100011011000110000000000000000000000000000000000000000000000000000000000000000 9
b10001001100010011000100110001010100100101001001010010010100100101001001010010010100100101001001010010010100100101001001010010 >
b1000011011000111001010111001011100010000101101000110000100011010011000100110001100110001010001011100000001101110000011100110100 -
b1101101100010001010001101111010000100010000101100111110111111011101101111111001100001100100000111001010000000001001001111111101 8
b10110111101100101010010110011011000111111110000011111110111001001010100110010001110110111101111101110010100110100111011011011111 =
b10110111101100101010010110011011000111111110000011111110111001001010100110010001110110111101111101110010100110100111011011011111 <
b11111001000101011011110000010001 6
b11111001000101011011110000010001 Z#
b11010100110100010011000001010000111101001101100110101101000010101111101111000011001000000001111011110001110011100001001010001000 .
b101 B
1C
1&
#90000
0&
#95000
b1000000 7
b1000 ;
b1101001 D
b11111001 E
b111001 F
b10011001 G
b11101010 V
b1010 W
b10001010 X
b1001010 Y
b1100011110111000101010001110100 4
b1100011110111000101010001110100 [#
b0 \#
b0 Q
b1110 O
b110110 M
b0 L
b1001011100 U
b1100010 T
b1100010 S
b1100010 R
b1100010 P
b0 ^
b0 c
b1110 a
b0 _
b11101110 g
b10001 f
b10001 e
b10001 d
b10001 b
b1100010 H
b1010010 I
b1010010 J
b1010010 K
b10001 Z
b110001 [
b110001 \
b110001 ]
b1001110010101001111011100001110010111110101111111001001111100111000010010100110010011111011001001001110101001101101110001001111 8
b1110111010111100000000011001011100100110100001011101100111101011100010011010111001010010001010101001011000111111000010011110 =
b1110111010111100000000011001011100100110100001011101100111101011100010011010111001010010001010101001011000111111000010011110 <
b100100111111110111001010 6
b100100111111110111001010 Z#
b1101101100010000101010111010010100110010101000100001110011100001110101011001000000111101110001100101010001101111001010011001001 .
b1011011011000110110001101100011011100110110001101100011011000110100001101100011011000110110001100000000000000000000000000000000 9
b1100010010100100101001001010010000100010011000100110001001100010101001001010010010100100101001001010010010100100101001001010010 >
b110000000000001111011010101000110010110011100101010011111011100011000100110001100110001010001011100000001101110000011100110100 -
b110 B
1&
#100000
0&
0+
#105000
b10000000 7
b11010001 V
b10100001 W
b11100001 X
b10000001 Y
b1111010 D
b11010010 E
b110010 F
b10100010 G
b11111011111110111111101100011010 :
b11101010 h
b1010 i
b10001010 j
b1001010 k
b100 ;
b0 Q
b1110 O
b0 M
b0 L
b1111110 U
b1001 T
b1001 S
b1001 R
b1001 P
b11011 ^
b111001110 g
b100001 f
b100001 e
b100001 d
b0 c
b100001 b
b1110 a
b11010111110111111101111111011 5
b11010111110111111101111111011 ^#
b1000011 _#
b0 p
b0 u
b1110 s
b0 q
b11101110 y
b10001 x
b10001 w
b10001 v
b10001 t
b100100100001101000010000101111 4
b100100100001101000010000101111 [#
b10100110 \#
b1001 H
b110001 I
b110001 J
b110001 K
b100001 Z
b10001 l
b110001 m
b110001 n
b110001 o
b1000011011000110110001101100011 /
b1000011011000110110001101100011 ]#
b10100100100110001001100001111001001010000000000000000000000000000011000000000000000000000000000001000011011000110110001101100011 9
b1001001100010011000100110001001000010011000100110001001100010001000100110001001100010011000101010010010100100101001001010010 >
b1011011011000111001010111001011111110110011100101010011111011100111001001010010111110111100000111100000001101110000011100110100 -
b11101010110100100111001100100001101101011000110110111010110100100011000100101011111101010110000001111111100011010010100100101111 8
b101101001101111001010001101101001111000011110010101010100100001110011111000101001011001101000100101101110001011011111100101100 =
b101101001101111001010001101101001111000011110010101010100100001110011111000101001011001101000100101101110001011011111100101100 <
b10100110110111000100111101001110 6
b10100110110111000100111101001110 Z#
b1001110010101000000000110100110110101110000010111111001011111101011010110010111110101110001000010101110100100011101101101111011 .
b111 B
1&
#110000
0&
#115000
b11011 7
b10001 D
b1100 E
b10001100 F
b1001100 G
b11111001 V
b100001 W
b10000001 X
b1110001 Y
b1101001 h
b11111001 i
b111001 j
b10011001 k
b11111011111110111111101110001111 :
b11101010 z
b1010 {
b10001010 |
b1001010 }
b10 ;
b1011101101001010001010111010010 4
b1011101101001010001010111010010 [#
b10001101 \#
b1101100 N
b0 M
b0 Q
b1110 O
b11011 L
b10110000100 U
b11110110 T
b11110110 S
b11110110 R
b11110110 P
b0 ^
b0 c
b1110 a
b110110 _
b1011001100 g
b1111010 f
b1111010 e
b1111010 d
b1111010 b
b0 u
b1110 s
b110110 q
b0 p
b1001011100 y
b1100010 x
b1100010 w
b1100010 v
b1100010 t
b10001111111110111111101111111011 5
b10001111111110111111101111111011 ^#
b1110011 _#
b0 $"
b0 )"
b1110 '"
b0 %"
b11101110 -"
b10001 ,"
b10001 +"
b10001 *"
b10001 ("
b11110110 H
b11001010 I
b11001010 J
b101011 K
b1111010 Z
b1010010 [
b1010010 \
b1010010 ]
b1100010 l
b1010010 m
b1010010 n
b1010010 o
b10001 ~
b110001 !"
b110001 ""
b110001 #"
b10101100011101110110011011110011000110011111101011011100001000010010100011010001001010010100000101010111010111000000000001101110 8
b10001001101100010001000001000010110101101110111011011001101100010101001001001000100101100000001100011100111011100100101001001100 =
b10001001101100010001000001000010110101101110111011011001101100010101001001001000100101100000001100011100111011100100101001001100 <
b10001101001010010010111101111111 6
b10001101001010010010111101111111 Z#
b11101010110100101000010110001001001111011101011110001010010111110000000000011010011011011100001010011111101110100010111000011011 .
b1110011011000110110001101100011 /
b1110011011000110110001101100011 ]#
b1011101011000110110001111110110100011001001100010011000011110010001100000000000000000000000000001110011011000110110001101100011 9
b11110110110010101100101000101011011110100101001001010010010100100110001001010010010100100101001000010001001100010011000100110001 >
b10100100100110000110111011010001101000000101101000110000100011010000000100110001100110001010001010100011010101000110010001010111 -
b1000 B
1&
#120000
0&
#125000
b110110 7
b11000010 h
b10001010 i
b11101010 j
b10111010 k
b11010001 z
b10100001 {
b11100001 |
b10000001 }
b1111 D
b11010111 E
b1111100 F
b1111 G
b10111010 V
b1111111 W
b1011111 X
b1101111 Y
b11111011111110111111101101111111 :
b0 N
b0 Q
b1110 O
b0 M
b0 L
b1011010 U
b1111 T
b1111 S
b1111 R
b1111 P
b1101100 `
b0 c
b1110 a
b0 _
b0 ^
b10000110100 g
b11011110 f
b11011110 e
b11011110 d
b11011110 b
b11011 p
b1111101100 y
b1001010 x
b1001010 w
b1001010 v
b0 u
b1001010 t
b1110 s
b1111111111110111111101111111011 5
b1111111111110111111101111111011 ^#
b1101011 _#
b11011 $"
b111001110 -"
b100001 ,"
b100001 +"
b100001 *"
b0 )"
b100001 ("
b1110 '"
b1001010011000111001111101011011 4
b1001010011000111001111101011011 [#
b1011100 \#
b1111 H
b110001 I
b110001 J
b10100100 K
b11011110 Z
b11001010 [
b11001010 \
b101011 ]
b1001010 l
b100001 ~
b1101011011000110110001101100011 /
b1101011011000110110001101100011 ]#
b10100111100110001001100010001001110100011111101111111011100011111001010010011000100110000111100101101011011000110110001101100011 9
b1111001100010011000110100100110111101100101011001010001010110100101001010010010100100101001000100001001100010011000100110001 >
b1011101011000111001010101011110000001001100001010101000111101000010100100110001100110001010001010010011010101000110010001010111 -
b11010000000101001111100110101000110010011110111000100101100010011110000100111111000011001100100010110110011000110000110010100110 8
b11001111000101000000010110010000011110101001100110111111010000100100101110110010010010100010001000110100001111110110001100001101 =
b11001111000101000000010110010000011110101001100110111111010000100100101110110010010010100010001000110100001111110110001100001101 <
b1011100000000000110111001010111 6
b1011100000000000110111001010111 Z#
b10101100011101111001000001011011100100011010000011101100101011000001100111100000101100011110001110110111011010110000011101011010 .
b1 ;
b1001 B
1&
#130000
0&
#135000
b0 7
b1000001 z
b1111001 {
b1011001 |
b1101001 }
b110010 D
b11001011 E
b1010001 F
b10000110 G
b11100111 V
b11111010 W
b1110001 X
b110010 Y
b101010 h
b10100111 i
b11100111 j
b10000111 k
b1111000011111010001000010110 :
b11111011111111100010010001001110 4
b11111011111111100010010001001110 [#
b1100011 \#
b0 M
b11011 L
b0 Q
b1110 O
b1101100 N
b10110010110 U
b11110101 T
b11110101 S
b11110101 R
b11110101 P
b110110 _
b11011 ^
b0 c
b1110 a
b11100010010 g
b10000011 f
b10000011 e
b10000011 d
b10000011 b
b1101100 r
b0 p
b0 u
b1110 s
b0 q
b10010100100 y
b11000110 x
b11000110 w
b11000110 v
b11000110 t
b10110000011110000111110100010 5
b10110000011110000111110100010 ^#
b11111111 _#
b101011110 -"
b111001 ,"
b111001 +"
b111001 *"
b0 )"
b111001 ("
b1110 '"
b11110101 H
b11001010 I
b11001010 J
b11011011 K
b10000011 Z
b10101001 [
b10101001 \
b11011101 ]
b11000110 l
b11001010 m
b11001010 n
b101011 o
b111001 ~
b0 ?
b0 ;
b101011111010101101110111100110111000100000010011111000011011110000001100111011111101001010011110110101010110001111100000000001 8
b10110011011101111001101011001011101010101000110101000110111010101000001001011100011011111010101111010101000000000110111111000101 =
b10110011011101111001101011001011101010101000110101000110111010101000001001011100011011111010101111010101000000000110111111000101 <
b1100011000011001010011010110110 6
b1100011000011001010011010110110 Z#
b11010000000101000000111100000000010000011011010000010101000001001101000000001110100101000110101001010110010101000000101110010010 .
b11111111111110111111101100011010 /
b11111111111110111111101100011010 ]#
b10101000100101110011101010011111011101100110001101100011000001100100010101100011011000111111011011111111111110111111101100011010 9
b11110101110010101100101011011011100000111010100110101001110111011100011011001010110010100010101100111001001100010011000100110001 >
b10100111100110000110111000100001010110011010000111001011000000101010010110101001000000001101101110001011010101000110010001010111 -
b1010 B
1&
#140000
0&
